Maybe this piece could be useful.
Living like this is exhausting.
We now have virtually unlimited power, but at what cost?
I should keep this scrap metal and try to reuse it.
I'll drop it off at home.
