These look like pieces from a rocket!
They showed up just in time, because I'm running out of resources.
This rocket might be my only chance!
I hope my engineering skills aren't rusty.
Don't sit down, it's time to dig up another one.
