<?xml version="1.0" encoding="utf-8"?>
<!-- Generator: Adobe Illustrator 16.0.0, SVG Export Plug-In . SVG Version: 6.00 Build 0)  -->
<!DOCTYPE svg PUBLIC "-//W3C//DTD SVG 1.1//EN" "http://www.w3.org/Graphics/SVG/1.1/DTD/svg11.dtd">
<svg version="1.1" xmlns="http://www.w3.org/2000/svg" xmlns:xlink="http://www.w3.org/1999/xlink" x="0px" y="0px" width="500px"
	 height="500px" viewBox="0 0 500 500" enable-background="new 0 0 500 500" xml:space="preserve">
<g id="Filter">
	<g>
		
			<rect x="53.903" y="88.32" fill="#A4A3A4" stroke="#000000" stroke-width="2.333" stroke-miterlimit="10" width="393.66" height="366.3"/>
		
			<rect x="53.903" y="454.62" fill="#5D5E5E" stroke="#000000" stroke-width="2.333" stroke-miterlimit="10" width="393.66" height="18.664"/>
		<path d="M127.016,481.449c0,4.509-3.657,8.166-8.166,8.166h-47.44c-4.509,0-8.166-3.657-8.166-8.166l0,0
			c0-4.509,3.657-8.165,8.166-8.165h47.44C123.359,473.284,127.016,476.94,127.016,481.449L127.016,481.449z"/>
		<path d="M438.223,481.449c0,4.509-3.657,8.166-8.166,8.166h-47.439c-4.51,0-8.167-3.657-8.167-8.166l0,0
			c0-4.509,3.657-8.165,8.167-8.165h47.439C434.565,473.284,438.223,476.94,438.223,481.449L438.223,481.449z"/>
		<g>
			<polygon points="75.4,454.62 65.819,464.199 56.239,454.62 			"/>
			<polygon points="94.561,454.62 84.98,464.199 75.4,454.62 			"/>
			<polygon points="113.722,454.62 104.142,464.199 94.561,454.62 			"/>
		</g>
		<g>
			<polygon points="406.937,454.648 397.355,464.229 387.774,454.648 			"/>
			<polygon points="426.097,454.648 416.516,464.229 406.937,454.648 			"/>
			<polygon points="445.257,454.648 435.678,464.229 426.097,454.648 			"/>
		</g>
		<g>
			<path fill="#FEEB00" stroke="#000000" stroke-width="2.333" stroke-miterlimit="10" d="M440.557,440.013
				c0,4.215-3.42,7.632-7.637,7.632s-7.638-3.417-7.638-7.632c0-4.219,3.421-7.637,7.638-7.637S440.557,435.794,440.557,440.013z"/>
			<path fill="#FEEB00" stroke="#000000" stroke-width="2.333" stroke-miterlimit="10" d="M440.557,416.668
				c0,4.218-3.42,7.639-7.637,7.639s-7.638-3.421-7.638-7.639c0-4.215,3.421-7.633,7.638-7.633S440.557,412.453,440.557,416.668z"/>
			<path fill="#FEEB00" stroke="#000000" stroke-width="2.333" stroke-miterlimit="10" d="M417.204,440.013
				c0,4.215-3.42,7.632-7.638,7.632c-4.216,0-7.636-3.417-7.636-7.632c0-4.219,3.42-7.637,7.636-7.637
				C413.784,432.376,417.204,435.794,417.204,440.013z"/>
			<path fill="#FEEB00" stroke="#000000" stroke-width="2.333" stroke-miterlimit="10" d="M68.542,447.617
				c-4.215,0-7.633-3.421-7.633-7.636c0-4.22,3.418-7.638,7.633-7.638c4.219,0,7.637,3.418,7.637,7.638
				C76.179,444.196,72.761,447.617,68.542,447.617z"/>
			<path fill="#FEEB00" stroke="#000000" stroke-width="2.333" stroke-miterlimit="10" d="M91.886,447.617
				c-4.217,0-7.637-3.421-7.637-7.636c0-4.22,3.42-7.638,7.637-7.638c4.215,0,7.635,3.418,7.635,7.638
				C99.521,444.196,96.101,447.617,91.886,447.617z"/>
			<path fill="#FEEB00" stroke="#000000" stroke-width="2.333" stroke-miterlimit="10" d="M68.542,424.266
				c-4.215,0-7.633-3.423-7.633-7.638c0-4.22,3.418-7.637,7.633-7.637c4.219,0,7.637,3.417,7.637,7.637
				C76.179,420.843,72.761,424.266,68.542,424.266z"/>
		</g>
		<polygon fill="#5D5E5E" stroke="#000000" stroke-width="2.333" stroke-miterlimit="10" points="447.563,88.32 53.903,88.32 
			109.951,12.119 389.18,12.119 		"/>
		<g>
			<path fill="#FFF200" stroke="#000000" stroke-width="2.333" stroke-miterlimit="10" d="M437.505,102.958
				c0,2.529-2.054,4.58-4.582,4.58c-2.532,0-4.584-2.051-4.584-4.58c0-2.53,2.052-4.582,4.584-4.582
				C435.451,98.376,437.505,100.428,437.505,102.958z"/>
			<circle fill="#FFF200" stroke="#000000" stroke-width="2.333" stroke-miterlimit="10" cx="419.988" cy="76.014" r="4.581"/>
			<circle fill="#FFF200" stroke="#000000" stroke-width="2.333" stroke-miterlimit="10" cx="68.549" cy="102.958" r="4.582"/>
			<path fill="#FFF200" stroke="#000000" stroke-width="2.333" stroke-miterlimit="10" d="M86.069,76.015
				c0,2.53-2.05,4.582-4.584,4.582c-2.529,0-4.579-2.051-4.579-4.582c0-2.53,2.05-4.581,4.579-4.581
				C84.019,71.435,86.069,73.485,86.069,76.015z"/>
			<circle fill="#FFF200" stroke="#000000" stroke-width="2.333" stroke-miterlimit="10" cx="380.295" cy="24.423" r="4.582"/>
			<circle fill="#FFF200" stroke="#000000" stroke-width="2.333" stroke-miterlimit="10" cx="121.181" cy="24.424" r="4.582"/>
		</g>
		<g>
			
				<rect x="93.545" y="88.32" fill="none" stroke="#000000" stroke-width="2.333" stroke-miterlimit="10" width="314.377" height="21.786"/>
			<g>
				<circle fill="#00AEEF" stroke="#000000" stroke-width="2.333" stroke-miterlimit="10" cx="112.859" cy="99.213" r="7.637"/>
				<circle fill="#00AEEF" stroke="#000000" stroke-width="2.333" stroke-miterlimit="10" cx="140.882" cy="99.213" r="7.637"/>
				<circle fill="#00AEEF" stroke="#000000" stroke-width="2.333" stroke-miterlimit="10" cx="360.584" cy="99.213" r="7.636"/>
				<circle fill="#00AEEF" stroke="#000000" stroke-width="2.333" stroke-miterlimit="10" cx="388.608" cy="99.213" r="7.637"/>
			</g>
			
				<line fill="none" stroke="#000000" stroke-width="2.333" stroke-miterlimit="10" x1="176.466" y1="94.743" x2="325.002" y2="94.743"/>
			
				<line fill="none" stroke="#000000" stroke-width="2.333" stroke-miterlimit="10" x1="176.466" y1="102.903" x2="325.002" y2="102.903"/>
		</g>
		<g>
			
				<rect x="150.094" y="231.513" fill="#DEDDDD" stroke="#000000" stroke-width="2.333" stroke-miterlimit="10" width="201.282" height="160.055"/>
			<g>
				<path fill="#5D5E5E" stroke="#000000" stroke-width="2.333" stroke-miterlimit="10" d="M351.376,391.567h-62.727
					c0,0,17.245-44.729,17.245-84.605c0-36.652-17.245-75.449-17.245-75.449h62.727V391.567z"/>
				<path fill="#5D5E5E" stroke="#000000" stroke-width="2.333" stroke-miterlimit="10" d="M150.094,391.567h62.724
					c0,0-17.244-44.729-17.244-84.605c0-36.652,17.244-75.449,17.244-75.449h-62.724V391.567z"/>
			</g>
			<path fill="#2A3983" stroke="#000000" stroke-width="2.333" stroke-miterlimit="10" d="M272.981,172.264
				c0,12.287-9.956,22.244-22.246,22.244c-12.284,0-22.243-9.957-22.243-22.244c0-6.6,4.857-17.525,12.569-27.722
				c6.029-7.971,7.339-23.645,7.339-23.645S272.981,159.98,272.981,172.264z"/>
			<g>
				<rect x="212.817" y="231.513" width="75.832" height="21.825"/>
				<polygon points="259.683,275.164 241.789,275.164 238.553,253.338 262.92,253.338 				"/>
			</g>
			
				<rect x="150.094" y="391.567" fill="#5D5E5E" stroke="#000000" stroke-width="2.333" stroke-miterlimit="10" width="201.282" height="25.061"/>
			
				<rect x="150.094" y="206.455" fill="#5D5E5E" stroke="#000000" stroke-width="2.333" stroke-miterlimit="10" width="201.282" height="25.058"/>
			<path fill="#D3D3D3" stroke="#000000" stroke-width="1.1665" stroke-miterlimit="10" d="M256.565,186.196
				c-0.645,0-1.166-0.522-1.166-1.167s0.521-1.166,1.166-1.166c1.983,0,3.849-0.818,5.255-2.303c1.615-1.71,2.465-4.089,2.33-6.526
				c-0.035-0.644,0.455-1.194,1.101-1.23c0.647-0.024,1.194,0.458,1.229,1.099c0.17,3.076-0.909,6.087-2.965,8.26
				C261.664,185.118,259.194,186.196,256.565,186.196z"/>
		</g>
	</g>
</g>
<g id="Layer_1" display="none">
	<g id="Layer_3" display="inline">
		<path opacity="0.3" fill="#FFFFFF" enable-background="new    " d="M239.926,301.697c-4.2,6.987-6.917,18.134-6.917,30.69
			c0,21.161,7.719,38.313,17.235,38.313s17.236-17.151,17.236-38.313c0-12.557-2.718-23.703-6.917-30.69
			c-3.08,0.563-6.592,0.932-10.317,0.932h-0.005c-3.728,0-7.24-0.368-10.323-0.934L239.926,301.697z"/>
	</g>
	<g id="WBottle" display="inline">
		<path fill="#293B83" stroke="#010101" stroke-width="1.0385" stroke-miterlimit="10" d="M260.147,340.246
			c0,5.47-4.437,9.901-9.905,9.901c-5.468,0-9.901-4.432-9.901-9.901c0-2.938,2.162-7.801,5.597-12.34
			c2.682-3.55,3.266-10.525,3.266-10.525S260.147,334.778,260.147,340.246z"/>
		<path fill="#D3D3D3" stroke="#010101" stroke-width="0.5192" stroke-miterlimit="10" d="M252.838,346.448
			c-0.288,0-0.519-0.232-0.519-0.521c0-0.285,0.23-0.518,0.519-0.518c0.881,0,1.711-0.364,2.337-1.024
			c0.72-0.763,1.098-1.82,1.038-2.904c-0.016-0.29,0.205-0.534,0.491-0.547c0.285-0.015,0.53,0.202,0.545,0.486
			c0.076,1.37-0.405,2.711-1.319,3.677C255.108,345.968,254.008,346.448,252.838,346.448z"/>
		<path fill="#FFFFFF" stroke="#010101" stroke-width="2.4009" stroke-miterlimit="10" d="M276.251,388.211
			c0,2.208-1.791,3.999-4.002,3.999h-44.014c-2.211,0-4.002-1.791-4.002-3.999l0,0c0-2.212,1.792-4.003,4.002-4.003h44.014
			C274.46,384.208,276.251,385.999,276.251,388.211L276.251,388.211z"/>
		<path fill="#FFFFFF" stroke="#010101" stroke-width="2.4009" stroke-miterlimit="10" d="M276.251,380.206
			c0,2.211-1.791,4.002-4.002,4.002h-44.014c-2.211,0-4.002-1.791-4.002-4.002l0,0c0-2.208,1.792-4,4.002-4h44.014
			C274.46,376.206,276.251,377.997,276.251,380.206L276.251,380.206z"/>
		
			<ellipse fill="#FFFFFF" stroke="#010101" stroke-width="2.4009" stroke-miterlimit="10" cx="250.244" cy="282.519" rx="14.847" ry="3.451"/>
		<path fill="#010101" d="M257.667,282.519c0,0.763-3.324,1.382-7.423,1.382s-7.423-0.619-7.423-1.382
			c0-0.762,3.324-1.382,7.423-1.382S257.667,281.757,257.667,282.519z"/>
		<path fill="#FFFFFF" stroke="#010101" stroke-width="2.4009" stroke-miterlimit="10" d="M272.371,296.775
			c0,1.907-9.906,5.854-22.125,5.854h-0.004c-12.218,0-22.124-3.946-22.124-5.854s9.906-5.854,22.124-5.854h0.004
			C262.465,290.922,272.371,294.867,272.371,296.775z"/>
		<path fill="#FFFFFF" stroke="#010101" stroke-width="2.4009" stroke-linejoin="round" stroke-miterlimit="10" d="M233.107,295.677
			c1.276,1.655,8.483,2.926,17.184,2.926c8.527,0,15.625-1.219,17.102-2.829l-0.007,0.002l-2.295-13.257
			c0,1.906-6.647,3.451-14.847,3.451s-14.846-1.545-14.846-3.451l-2.474,14.257"/>
		<path fill="#A3A2A3" stroke="#010101" stroke-width="2.4009" stroke-miterlimit="10" d="M260.554,301.686
			c4.203,6.985,6.924,18.137,6.924,30.702c0,21.161-7.717,38.313-17.233,38.313s-17.234-17.151-17.234-38.313
			c0-12.557,2.716-23.703,6.917-30.689l-0.008-0.005c-7.017-1.285-11.8-3.596-11.8-4.918v79.431h44.249v-79.431
			c0,1.323-4.785,3.633-11.8,4.918l-0.009,0.005"/>
	</g>
</g>
<g id="Layer_3_1_">
	<g id="Layer_1_1_">
		<rect x="228.077" y="309.858" fill="#543A2E" width="43.997" height="63.969"/>
	</g>
	<g id="Layer_3_2_">
		<path opacity="0.3" fill="#FFFFFF" enable-background="new    " d="M239.9,301.568c-4.175,6.948-6.878,18.031-6.878,30.515
			c0,21.04,7.675,38.097,17.138,38.097c9.463,0,17.138-17.057,17.138-38.097c0-12.483-2.702-23.566-6.878-30.515
			c-3.063,0.56-6.553,0.926-10.257,0.926h-0.005c-3.707,0-7.199-0.366-10.265-0.927L239.9,301.568z"/>
	</g>
	<g id="WBottle_1_">
		<path fill="#293B83" stroke="#010101" stroke-width="1.0326" stroke-miterlimit="10" d="M260.006,339.898
			c0,5.439-4.408,9.845-9.848,9.845c-5.437,0-9.845-4.405-9.845-9.845c0-2.922,2.149-7.757,5.565-12.27
			c2.667-3.529,3.248-10.466,3.248-10.466S260.006,334.462,260.006,339.898z"/>
		<path fill="#D3D3D3" stroke="#010101" stroke-width="0.5163" stroke-miterlimit="10" d="M252.738,346.064
			c-0.286,0-0.515-0.23-0.515-0.518c0-0.284,0.229-0.516,0.515-0.516c0.877,0,1.703-0.36,2.323-1.018
			c0.717-0.759,1.093-1.81,1.034-2.89c-0.016-0.286,0.203-0.528,0.487-0.543c0.284-0.014,0.526,0.2,0.543,0.484
			c0.075,1.362-0.403,2.695-1.313,3.656C254.996,345.587,253.902,346.064,252.738,346.064z"/>
		<path fill="#FFFFFF" stroke="#010101" stroke-width="2.3873" stroke-miterlimit="10" d="M276.02,387.59
			c0,2.196-1.781,3.978-3.979,3.978h-43.764c-2.198,0-3.979-1.781-3.979-3.978l0,0c0-2.199,1.781-3.98,3.979-3.98h43.764
			C274.238,383.609,276.02,385.391,276.02,387.59L276.02,387.59z"/>
		<path fill="#FFFFFF" stroke="#010101" stroke-width="2.3873" stroke-miterlimit="10" d="M276.02,379.631
			c0,2.198-1.781,3.98-3.979,3.98h-43.764c-2.198,0-3.979-1.782-3.979-3.98l0,0c0-2.196,1.781-3.978,3.979-3.978h43.764
			C274.238,375.653,276.02,377.435,276.02,379.631L276.02,379.631z"/>
		
			<ellipse fill="#FFFFFF" stroke="#010101" stroke-width="2.3873" stroke-miterlimit="10" cx="250.16" cy="282.499" rx="14.762" ry="3.432"/>
		<path fill="#010101" d="M257.541,282.499c0,0.758-3.305,1.373-7.381,1.373c-4.075,0-7.38-0.615-7.38-1.373s3.306-1.374,7.38-1.374
			C254.236,281.125,257.541,281.741,257.541,282.499z"/>
		<path fill="#FFFFFF" stroke="#010101" stroke-width="2.3873" stroke-miterlimit="10" d="M272.162,296.674
			c0,1.896-9.852,5.82-21.999,5.82h-0.005c-12.148,0-21.998-3.924-21.998-5.82c0-1.896,9.85-5.819,21.998-5.819h0.005
			C262.311,290.854,272.162,294.778,272.162,296.674z"/>
		<path fill="#FFFFFF" stroke="#010101" stroke-width="2.3873" stroke-linejoin="round" stroke-miterlimit="10" d="M233.121,295.582
			c1.269,1.646,8.435,2.91,17.086,2.91c8.48,0,15.537-1.213,17.005-2.814l-0.007,0.003l-2.283-13.182
			c0,1.896-6.609,3.432-14.762,3.432c-8.152,0-14.761-1.536-14.761-3.432l-2.459,14.175"/>
		<path fill="#A3A2A3" stroke="#010101" stroke-width="2.3873" stroke-miterlimit="10" d="M260.412,301.556
			c4.18,6.947,6.883,18.034,6.883,30.527c0,21.04-7.672,38.097-17.135,38.097c-9.462,0-17.137-17.057-17.137-38.097
			c0-12.483,2.702-23.566,6.877-30.515l-0.007-0.004c-6.978-1.277-11.733-3.574-11.733-4.891v78.979h43.997v-78.979
			c0,1.316-4.756,3.613-11.733,4.891l-0.008,0.004"/>
	</g>
</g>
</svg>
