<?xml version="1.0" encoding="utf-8"?>
<!-- Generator: Adobe Illustrator 16.0.0, SVG Export Plug-In . SVG Version: 6.00 Build 0)  -->
<!DOCTYPE svg PUBLIC "-//W3C//DTD SVG 1.1//EN" "http://www.w3.org/Graphics/SVG/1.1/DTD/svg11.dtd">
<svg version="1.1" xmlns="http://www.w3.org/2000/svg" xmlns:xlink="http://www.w3.org/1999/xlink" x="0px" y="0px" width="250px"
	 height="500px" viewBox="0 0 250 500" enable-background="new 0 0 250 500" xml:space="preserve">
<g id="Layer_1">
</g>
<g id="Rocket">
	<path fill-rule="evenodd" clip-rule="evenodd" fill="#2A3983" stroke="#000000" stroke-width="2.9655" stroke-miterlimit="10" d="
		M71.505,90.328c36.505,21.86,72.604,21.76,109.48-0.292l-0.004-0.01C156.066,41.935,126.32,11,126.32,11
		S96.456,42.067,71.521,90.333"/>
	<circle fill="#FFF200" stroke="#000000" stroke-width="2.9655" stroke-miterlimit="10" cx="79.802" cy="88.21" r="3.565"/>
	<circle fill="#FFF200" stroke="#000000" stroke-width="2.9655" stroke-miterlimit="10" cx="172.14" cy="88.21" r="3.565"/>
	<circle fill="#FFF200" stroke="#000000" stroke-width="2.9655" stroke-miterlimit="10" cx="126.336" cy="101.106" r="3.566"/>
</g>
</svg>
