<?xml version="1.0" encoding="utf-8"?>
<!-- Generator: Adobe Illustrator 16.0.0, SVG Export Plug-In . SVG Version: 6.00 Build 0)  -->
<!DOCTYPE svg PUBLIC "-//W3C//DTD SVG 1.1//EN" "http://www.w3.org/Graphics/SVG/1.1/DTD/svg11.dtd">
<svg version="1.1" xmlns="http://www.w3.org/2000/svg" xmlns:xlink="http://www.w3.org/1999/xlink" x="0px" y="0px" width="250px"
	 height="500px" viewBox="0 0 250 500" enable-background="new 0 0 250 500" xml:space="preserve">
<g id="Layer_1">
</g>
<g id="Rocket">
	<path fill-rule="evenodd" clip-rule="evenodd" fill="#FFFFFF" stroke="#000000" stroke-width="2.9655" stroke-miterlimit="10" d="
		M71.505,90.328c36.505,21.86,72.604,21.76,109.48-0.292l-0.004-0.01c17.948,34.648,33.389,78.199,33.389,125.503
		c0,61.448-26.057,116.566-49.822,154.055c-19.918,31.426-26.282,28.693-38.228,28.677c-11.974-0.019-18.345,2.704-38.287-28.788
		c-23.74-37.488-49.735-92.557-49.735-153.943c0-47.163,15.345-90.598,33.222-125.196"/>
	<path fill-rule="evenodd" clip-rule="evenodd" fill="#2A3983" stroke="#000000" stroke-width="2.9655" stroke-miterlimit="10" d="
		M125.577,252.303c33.523,0.099,60.652-26.71,60.69-59.977c0.035-32.604-26.673-59.408-59.506-59.71
		c-33.77-0.314-61.038,26.063-61.224,59.21C65.352,225.275,92.091,252.209,125.577,252.303z"/>
	<path fill-rule="evenodd" clip-rule="evenodd" fill="#47BCE3" stroke="#000000" stroke-width="2.9655" stroke-miterlimit="10" d="
		M125.633,241.917c27.706,0.08,50.124-22.076,50.154-49.569c0.033-26.944-22.041-49.098-49.179-49.346
		c-27.903-0.26-50.442,21.54-50.594,48.935C75.863,219.582,97.958,241.839,125.633,241.917z"/>
</g>
</svg>
