<?xml version="1.0" encoding="utf-8"?>
<!-- Generator: Adobe Illustrator 16.0.0, SVG Export Plug-In . SVG Version: 6.00 Build 0)  -->
<!DOCTYPE svg PUBLIC "-//W3C//DTD SVG 1.1//EN" "http://www.w3.org/Graphics/SVG/1.1/DTD/svg11.dtd">
<svg version="1.1" xmlns="http://www.w3.org/2000/svg" xmlns:xlink="http://www.w3.org/1999/xlink" x="0px" y="0px" width="500px"
	 height="500px" viewBox="0 0 500 500" enable-background="new 0 0 500 500" xml:space="preserve">
<g id="Layer_1">
</g>
<g id="Lake">
	<path fill="#533A28" stroke="#010101" stroke-miterlimit="10" d="M26.518,341.172c3.451-2.245,8.333-5.655,14.485-10.204
		c6.164-4.559,13.585-10.242,20.516-15.563c6.931-5.319,13.348-10.278,18.207-14.756c4.847-4.484,8.125-8.5,9.973-11.749
		c1.834-3.245,2.238-5.72,2.308-8.53c0.063-2.811-0.208-5.954-1.241-8.5c-1.033-2.545-2.845-4.483-6.389-5.991
		c-3.549-1.505-8.834-2.579-13.653-3.813c-4.818-1.235-9.169-2.643-13.088-3.809c-3.914-1.178-7.387-2.112-10.573-3.521
		c-3.173-1.402-6.059-3.278-7.392-5.517c-1.339-2.239-1.137-4.859,0.6-7.433c1.744-2.574,5.021-5.113,8.767-7.427
		c3.751-2.308,7.964-4.38,12.384-6.458c4.421-2.072,9.038-4.149,13.752-6.187c4.715-2.042,9.54-4.05,12.916-6.128
		c3.375-2.072,5.32-4.213,5.592-6.187c0.265-1.973-1.143-3.785-2.949-5.153c-1.806-1.373-4.01-2.314-6.354-3.682
		c-2.342-1.368-4.824-3.18-6.191-4.986c-1.374-1.806-1.639-3.612-0.398-5.822c1.235-2.205,3.976-4.819,7.421-7.427
		c3.451-2.614,7.594-5.223,12.95-7.831c5.355-2.608,11.911-5.217,18.074-7.226c6.151-2.008,11.91-3.416,18.871-4.79
		c6.959-1.374,15.12-2.706,23.188-4.108c8.067-1.409,16.031-2.886,22.148-4.023c6.128-1.136,10.411-1.938,13.89-2.608
		c3.481-0.669,6.158-1.206,9.875-1.639c3.71-0.433,8.459-0.767,12.343-0.641c3.885,0.139,6.896,0.739,9.436,1.409
		c2.539,0.669,4.616,1.407,8.067,1.407c3.445,0,8.263-0.738,12.246-1.373c3.981-0.635,7.121-1.171,10.976-1.772
		c3.843-0.605,8.396-1.275,12.811-1.471c4.421-0.202,8.703,0.069,11.946,1.201c3.248,1.143,5.459,3.145,7.133,5.188
		c1.673,2.043,2.804,4.115,4.351,6.261c1.535,2.135,3.474,4.352,6.019,5.685c2.546,1.339,5.686,1.805,8.635,2.014
		c2.942,0.196,5.688,0.126,9.302,0.063c3.619-0.063,8.097-0.133,13.452-0.675c5.355-0.531,11.576-1.535,18.201-2.308
		c6.625-0.762,13.653-1.305,18.605-1.466c4.951-0.173,7.83,0.029,11.777,0.364c3.953,0.341,8.969,0.802,13.653,1.979
		c4.681,1.166,9.032,3.042,12.246,5.287c3.215,2.238,5.286,4.847,6.124,7.49c0.837,2.643,0.438,5.321-0.469,7.664
		c-0.905,2.343-2.308,4.351-3.445,6.123c-1.143,1.771-2.008,3.318-2.712,4.449c-0.703,1.143-1.234,1.875-1.338,2.678
		c-0.104,0.807,0.236,1.673,2.008,3.151c1.777,1.465,4.985,3.542,8.229,5.181c3.25,1.639,6.527,2.845,10.175,4.519
		c3.653,1.673,7.663,3.815,11.046,5.522c3.375,1.708,6.122,2.979,8.695,5.182c2.575,2.211,4.986,5.355,5.091,8.333
		c0.098,2.979-2.112,5.795-4.588,7.699c-2.476,1.905-5.223,2.909-8.061,4.352c-2.847,1.437-5.796,3.312-8.432,4.813
		c-2.65,1.512-4.992,2.644-6.297,3.752c-1.304,1.107-1.569,2.175-0.468,3.878c1.103,1.707,3.584,4.052,6.157,5.955
		c2.574,1.916,5.252,3.382,7.964,4.985c2.712,1.61,5.454,3.349,8.633,5.258c3.181,1.91,6.799,3.981,10.543,6.123
		c3.746,2.141,7.625,4.351,11.577,6.995c3.953,2.642,7.964,5.718,11.213,8.367c3.243,2.643,5.72,4.847,7.491,6.752
		c1.776,1.916,2.845,3.521,3.515,5.228c0.669,1.703,0.94,3.509,0.703,5.483c-0.236,1.974-0.97,4.12-2.343,6.561
		c-1.374,2.441-3.376,5.188-6.526,7.728c-3.14,2.544-7.428,4.883-11.409,7.259c-3.982,2.378-7.664,4.791-11.374,7.099
		c-3.717,2.309-7.468,4.514-11.848,6.452c-4.38,1.945-9.401,3.619-14.561,5.459c-5.147,1.841-10.435,3.844-15.419,5.621
		c-4.987,1.772-9.673,3.313-15.396,5.454c-5.719,2.14-12.478,4.888-18.434,7.293c-5.954,2.407-11.113,4.484-17.168,6.793
		c-6.054,2.308-13.013,4.854-19.511,6.799c-6.485,1.938-12.512,3.276-18.94,4.28c-6.423,1.004-13.249,1.674-19.707,1.94
		c-6.458,0.265-12.545,0.133-18.94-0.67c-6.389-0.802-13.082-2.274-17.999-4.484s-8.067-5.152-9.938-7.865
		c-1.875-2.712-2.481-5.182-3.883-8.361c-1.403-3.181-3.612-7.058-5.72-9.437c-2.111-2.377-4.119-3.249-7.397-3.612
		c-3.278-0.369-7.831-0.241-13.117,0.329c-5.286,0.572-11.306,1.576-18.068,2.747c-6.758,1.17-14.255,2.51-24.699,4.518
		c-10.435,2.01-23.823,4.681-34.563,6.694c-10.739,2.009-18.835,3.348-25.593,4.618c-6.763,1.269-12.182,2.47-18.004,3.41
		c-5.824,0.935-12.05,1.604-19.079,2.002c-7.022,0.405-14.854,0.543-21.778-0.098c-6.926-0.629-12.951-2.038-18.906-3.779
		c-5.955-1.743-11.847-3.814-16.764-5.69c-4.923-1.869-8.871-3.543-11.882-5.351c-3.006-1.807-5.079-3.745-6.025-6.088
		c-0.935-2.343-0.727-5.089,0.341-7.363c1.067-2.273,3.006-4.086,4.985-5.522C21.065,344.483,23.073,343.41,26.518,341.172z"/>
	<path fill="#891820" stroke="#010101" stroke-miterlimit="10" d="M238.659,180.362c-0.344,0.023-0.624,0.195-0.917,0.434
		c-0.29,0.238-0.588,0.527-0.853,0.858c-0.265,0.331-0.494,0.694-0.704,1.054c-0.221,0.361-0.424,0.704-0.567,1.074
		c-0.149,0.375-0.238,0.768-0.319,1.277c-0.079,0.508-0.154,1.134-0.174,1.512c-0.025,0.369,0.002,0.497,0.093,0.557
		c0.091,0.064,0.251,0.055,0.412,0.066c0.161,0.011,0.322,0.036,0.518,0.074c0.186,0.039,0.404,0.097,0.579,0.139
		c0.177,0.042,0.313,0.073,0.635,0.113c0.313,0.042,0.817,0.094,1.161,0.14c0.346,0.045,0.528,0.076,0.682,0.132
		c0.155,0.056,0.289,0.126,0.557,0.188c0.265,0.063,0.662,0.107,0.988,0.157c0.323,0.061,0.568,0.127,0.923,0.318
		c0.349,0.191,0.808,0.519,1.105,0.781c0.295,0.263,0.423,0.472,0.59,0.55c0.17,0.078,0.378,0.034,0.636-0.119
		c0.257-0.157,0.561-0.423,0.915-0.823c0.354-0.399,0.744-0.933,1.064-1.61c0.321-0.673,0.572-1.493,0.66-2.156
		c0.086-0.667,0.004-1.172-0.324-1.585c-0.323-0.414-0.899-0.746-1.518-1.04c-0.62-0.283-1.283-0.537-2.119-0.839
		c-0.836-0.302-1.856-0.659-2.565-0.899C239.406,180.476,239.004,180.344,238.659,180.362z"/>
	<polyline fill="#A7A9AC" stroke="#010101" stroke-miterlimit="10" points="355.76,248.775 355.633,247.91 353.641,246.664 
		351.994,245.233 352.552,244.58 353.548,243.929 353.829,242.31 354.14,241.317 355.106,241.348 356.345,242.063 356.844,242.81 
		357.841,242.656 358.868,241.848 359.706,240.787 360.36,240.448 360.922,241.409 360.702,242.156 360.299,243.464 
		361.603,242.779 362.164,242.125 363.529,241.656 363.876,241.848 364.122,242.34 363.468,243.894 361.571,245.202 
		361.261,246.009 361.821,247.133 360.606,247.91 360.048,248.314 359.167,249.495 359.206,249.557 	"/>
	<path opacity="0.3" fill="#20BADD" d="M240.928,213.371c0.279-0.588,0.537-1.154,0.77-1.69c0.639-1.454,1.115-2.7,1.504-4.179
		c0.379-1.478,0.674-3.188,0.888-4.301c0.206-1.106,0.331-1.609,0.348-2.848c0.015-1.233-0.082-3.196-0.213-4.57
		c-0.129-1.371-0.292-2.144-0.468-2.983c-0.175-0.839-0.364-1.734-0.688-3.28l-0.001,0.002c-0.079-0.083-0.17-0.18-0.289-0.286
		c-0.297-0.263-0.756-0.59-1.105-0.781c-0.354-0.191-0.6-0.258-0.923-0.318c-0.326-0.05-0.723-0.094-0.988-0.157
		c-0.269-0.062-0.402-0.132-0.557-0.188c-0.154-0.056-0.336-0.086-0.682-0.132c-0.343-0.046-0.847-0.098-1.161-0.14
		c-0.322-0.04-0.458-0.071-0.635-0.113c-0.174-0.042-0.393-0.1-0.579-0.139c-0.196-0.038-0.357-0.063-0.518-0.074l-0.19,0.04
		l-0.47,0.517c-0.648,0.662-1.7,1.553-2.529,2.297c-0.837,0.747-1.451,1.338-2.199,2.273c-0.737,0.942-1.614,2.228-2.529,3.63
		c-0.91,1.412-1.867,2.946-2.716,4.449c-0.851,1.506-1.6,2.983-2.16,4.39c-0.212,0.534-0.396,1.058-0.566,1.614
		c2.137,0.078,3.64,0.417,5.003,0.727c1.369,0.308,2.58,0.634,3.882,1.079c1.304,0.44,2.691,1.005,3.864,1.521
		c1.159,0.514,2.104,0.985,3.113,1.614c1.01,0.634,2.091,1.426,2.797,2.026L240.928,213.371z"/>
	<path fill="none" stroke="#000000" stroke-linejoin="round" stroke-miterlimit="10" d="M240.928,213.371
		c0.279-0.588,0.537-1.154,0.77-1.69c0.639-1.454,1.115-2.7,1.504-4.179c0.379-1.478,0.674-3.188,0.888-4.301
		c0.206-1.106,0.331-1.609,0.348-2.848c0.015-1.233-0.082-3.196-0.213-4.57c-0.129-1.371-0.292-2.144-0.468-2.983
		c-0.175-0.839-0.364-1.734-0.688-3.28l-0.001,0.002c-0.079-0.083-0.17-0.18-0.289-0.286c-0.297-0.263-0.756-0.59-1.105-0.781
		c-0.354-0.191-0.6-0.258-0.923-0.318c-0.326-0.05-0.723-0.094-0.988-0.157c-0.269-0.062-0.402-0.132-0.557-0.188
		c-0.154-0.056-0.336-0.086-0.682-0.132c-0.343-0.046-0.847-0.098-1.161-0.14c-0.322-0.04-0.458-0.071-0.635-0.113
		c-0.174-0.042-0.393-0.1-0.579-0.139c-0.196-0.038-0.357-0.063-0.518-0.074l-0.19,0.04l-0.47,0.517
		c-0.648,0.662-1.7,1.553-2.529,2.297c-0.837,0.747-1.451,1.338-2.199,2.273c-0.737,0.942-1.614,2.228-2.529,3.63
		c-0.91,1.412-1.867,2.946-2.716,4.449c-0.851,1.506-1.6,2.983-2.16,4.39c-0.212,0.534-0.396,1.058-0.566,1.614
		c2.137,0.078,3.64,0.417,5.003,0.727c1.369,0.308,2.58,0.634,3.882,1.079c1.304,0.44,2.691,1.005,3.864,1.521
		c1.159,0.514,2.104,0.985,3.113,1.614c1.01,0.634,2.091,1.426,2.797,2.026L240.928,213.371z"/>
	<path fill="none" stroke="#010101" stroke-miterlimit="10" d="M336.475,267.288c0.776-0.873,1.23-1.215,1.704-1.569
		c0.473-0.354,0.973-0.716,1.414-1.069c0.45-0.35,0.844-0.691,1.182-0.992c0.335-0.3,0.615-0.562,0.874-0.754
		c0.256-0.192,0.495-0.315,0.787-0.385c0.293-0.076,0.631-0.096,0.893-0.115c0.259-0.023,0.435-0.042,0.92-0.185
		c0.479-0.143,1.277-0.407,1.626-1.292"/>
	<path fill="none" stroke="#010101" stroke-miterlimit="10" d="M365.46,256.495c1.647-0.438,2.646-0.438,3.539-0.399
		c0.9,0.034,1.696,0.107,2.484,0.207c0.785,0.097,1.566,0.224,2.355,0.373c0.784,0.149,1.584,0.327,2.291,0.604
		c0.701,0.284,1.316,0.661,1.751,1.188c0.434,0.522,0.695,1.188,0.777,1.772c0.08,0.585-0.012,1.093-0.196,1.597
		c-0.188,0.504-0.47,1-0.809,1.435c-0.346,0.438-0.746,0.808-1.23,1.097c-0.48,0.289-1.039,0.488-3.251,1.08"/>
	<path fill="none" stroke="#010101" stroke-miterlimit="10" d="M365.645,261.402c0.229-0.086,0.447-0.124,0.732-0.146
		c0.622-0.046,1.561,0,2.795,0.123c1.238,0.124,2.778,0.323,3.981,0.323"/>
	<path fill="none" stroke="#010101" stroke-miterlimit="10" d="M239.219,204.282c-0.089,0.187-0.066,0.299-0.005,0.424
		c0.061,0.126,0.164,0.262,0.325,0.212c0.167-0.05,0.393-0.285,0.434-0.539c0.04-0.254-0.106-0.529-0.281-0.542
		C239.519,203.835,239.308,204.096,239.219,204.282z"/>
	<path fill="none" stroke="#010101" stroke-miterlimit="10" d="M241.306,192.074c0.045,1.86,0.07,2.397,0.089,2.89
		c0.015,0.494,0.022,0.94-0.146,1.6c-0.166,0.664-0.502,1.543-0.908,3.97"/>
	<path fill="none" stroke="#010101" stroke-miterlimit="10" d="M242.721,187.038c0.582,0.399,1.451,0.832,2.605,1.293"/>
	<path fill="none" stroke="#010101" stroke-miterlimit="10" d="M243.556,186.036c0.53,0.44,1.336,0.837,2.426,1.199"/>
	<path fill="none" stroke="#010101" stroke-miterlimit="10" d="M243.163,184.775c0.695,0.401,1.785,0.812,3.278,1.226"/>
	<path fill="none" stroke="#010101" stroke-miterlimit="10" d="M241.875,175.132c1.189,0.774,2.517,1.386,3.971,1.824"/>
	<path fill="none" stroke="#010101" stroke-miterlimit="10" d="M243.502,173.228c1.022,0.785,2.314,1.402,3.878,1.847"/>
	<path fill="none" stroke="#010101" stroke-miterlimit="10" d="M220.328,230.713c0.748,0.488,1.176,0.846,1.742,1.081
		c0.571,0.234,1.279,0.346,2.168,0.366c0.883,0.032,1.946-0.015,2.85-0.047c0.904-0.027,1.657-0.033,2.381,0.002
		c0.727,0.044,1.432,0.132,1.898,0.241c0.462,0.1,0.683,0.231,1.254-0.066c0.569-0.287,1.492-0.997,2.525-1.495
		c1.032-0.493,2.175-0.776,3.183-0.944c1.002-0.17,1.872-0.226,2.914-0.091c1.052,0.134,2.277,0.458,3.384,0.835
		c1.112,0.377,2.105,0.817,2.73,0.982c0.623,0.174,0.886,0.069,1.541-0.374c0.652-0.452,1.71-1.254,2.527-1.889
		c0.811-0.637,1.39-1.113,1.815-0.941"/>
	<path fill="none" stroke="#010101" stroke-miterlimit="10" d="M215.674,222.355c0.227,0.469,0.622,1.129,0.979,1.634
		c0.354,0.512,0.661,0.876,1.172,1.202c0.51,0.316,1.209,0.603,1.874,0.747c0.668,0.156,1.292,0.173,2.068,0.074
		c0.767-0.098,1.691-0.312,2.815-0.518c1.128-0.203,2.46-0.398,3.838-0.516c1.381-0.117,2.81-0.162,4.422,0.07
		c1.615,0.232,3.417,0.729,4.439,1.051c1.021,0.322,1.268,0.467,1.669,0.594c0.404,0.127,0.962,0.247,1.694,0.151
		c0.732-0.105,1.629-0.421,4.305-2.4"/>
	<path fill="none" stroke="#010101" stroke-miterlimit="10" d="M249.53,224.517c0.271-1.149,0.978-2.232,1.667-3.116
		c0.691-0.879,1.362-1.556,2.092-2.363c0.737-0.81,1.525-1.743,2.168-2.612c0.646-0.863,1.146-1.652,1.644-2.534
		c0.506-0.874,1.013-1.841,1.56-3.589c0.546-1.754,1.146-4.291,1.387-5.886"/>
	<path fill="none" stroke="#010101" stroke-miterlimit="10" d="M242.791,218.787c1.012-0.409,2.009-1.002,2.837-1.487
		c0.829-0.484,1.479-0.856,2.111-1.225c0.631-0.369,1.238-0.733,1.8-1.033c0.557-0.298,1.068-0.534,1.601-0.902
		c0.532-0.372,1.09-0.878,1.564-1.361c0.479-0.484,0.872-0.956,1.204-1.317c0.335-0.355,0.606-0.608,0.778-0.705"/>
	<path fill="none" stroke="#010101" stroke-miterlimit="10" d="M240.822,217.074c0.86-0.5,2.563-1.149,3.452-1.512
		c0.896-0.365,0.988-0.449,1.41-0.877c0.425-0.434,1.18-1.217,1.71-2.066c0.531-0.854,0.829-1.773,1.121-2.681
		c0.292-0.908,0.575-1.803,0.876-2.526c0.304-0.713,0.614-1.251,1.051-1.795c0.432-0.539,0.982-1.082,1.513-1.582
		c0.528-0.5,1.036-0.946,1.685-1.51c0.658-0.572,1.456-1.251,2.663-2.135c1.202-0.877,2.807-1.957,3.499-2.034"/>
	<path fill="none" stroke="#010101" stroke-miterlimit="10" d="M236.627,221.745c0.573-0.112,1.167-0.236,1.764-0.361
		c0.895-0.188,1.801-0.378,2.715-0.615c0.915-0.236,1.841-0.514,2.633-0.725c0.788-0.205,1.435-0.34,2.553-0.517"/>
	<path opacity="0.3" fill="#20BADD" d="M236.627,221.745c-0.282,0.055-0.559,0.106-0.83,0.154c-0.817,0.137-1.569,0.231-2.174,0.304
		c-0.604,0.074-1.07,0.126-1.919,0.123c-0.85,0.001-2.083-0.064-3.032-0.122c-0.942-0.063-1.6-0.116-2.3-0.171
		c-0.697-0.06-1.436-0.117-2.119-0.209c-0.685-0.092-1.318-0.22-2.126-0.518c-0.811-0.292-1.815-0.76-2.185-1.003
		c0.282-2.256,0.518-4.051,0.726-5.521c2.108,1.043,3.718,1.773,5.082,2.274c1.36,0.498,2.476,0.774,3.465,1.079
		c0.994,0.303,1.863,0.643,3.017,0.912c1.148,0.271,2.58,0.472,5.219,0.901l-0.003,0
		C237.131,220.566,236.847,221.17,236.627,221.745"/>
	<path fill="none" stroke="#010101" stroke-miterlimit="10" d="M236.627,221.745c-0.282,0.055-0.559,0.106-0.83,0.154
		c-0.817,0.137-1.569,0.231-2.174,0.304c-0.604,0.074-1.07,0.126-1.919,0.123c-0.85,0.001-2.083-0.064-3.032-0.122
		c-0.942-0.063-1.6-0.116-2.3-0.171c-0.697-0.06-1.436-0.117-2.119-0.209c-0.685-0.092-1.318-0.22-2.126-0.518
		c-0.811-0.292-1.815-0.76-2.185-1.003c0.282-2.256,0.518-4.051,0.726-5.521c2.108,1.043,3.718,1.773,5.082,2.274
		c1.36,0.498,2.476,0.774,3.465,1.079c0.994,0.303,1.863,0.643,3.017,0.912c1.148,0.271,2.58,0.472,5.219,0.901l-0.003,0
		C237.131,220.566,236.847,221.17,236.627,221.745"/>
	<path fill="none" stroke="#010101" stroke-miterlimit="10" d="M211.528,227.733c-1.047,0.22-1.57-0.123-1.902-0.373
		c-0.333-0.25-0.479-0.417-0.617-0.707c-0.148-0.289-0.302-0.709-0.409-1.242c-0.093-0.537-0.152-1.194-0.018-1.723
		c0.136-0.531,0.46-0.944,1.125-1.438c0.673-0.496,1.685-1.072,2.474-1.533c0.782-0.45,1.333-0.782,1.911-1.169
		c0.567-0.385,1.163-0.834,1.873-1.298c0.706-0.453,1.527-0.931,2.072-1.242c0.54-0.311,0.797-0.463,1.74-0.853"/>
	<path fill="none" stroke="#010101" stroke-miterlimit="10" d="M114.843,210.833c0.347,0.423,0.827,1.068,1.317,1.542
		c0.493,0.467,0.989,0.762,1.628,1.113c0.639,0.35,1.42,0.764,2.274,1.099c0.862,0.331,1.806,0.583,2.848,0.87
		c1.042,0.281,2.191,0.594,3.206,0.88c1.01,0.283,1.896,0.536,2.625,0.963c0.723,0.42,1.286,1.016,1.686,1.672
		c0.392,0.667,0.626,1.399,0.944,1.917c0.322,0.522,0.74,0.824,2.191,1.373c1.439,0.545,3.904,1.336,5.472,1.829
		c1.552,0.492,2.203,0.69,2.858,0.86c0.653,0.162,1.326,0.293,1.829,0.384c0.506,0.08,0.845,0.115,1.492,0.145
		c0.633,0.031,1.574,0.058,3.078-0.067"/>
	<path fill="none" stroke="#010101" stroke-miterlimit="10" d="M152.952,208.614c1.168,0.406,2.127,0.86,2.787,1.187
		c0.656,0.337,1.026,0.55,1.491,0.847c0.479,0.29,1.048,0.664,1.451,1.085c0.403,0.415,0.632,0.89,0.665,1.385
		c0.037,0.49-0.118,0.997-0.676,1.48c-0.559,0.48-1.522,0.92-2.492,1.301c-0.968,0.389-1.955,0.715-3.181,0.913
		c-1.231,0.196-2.7,0.25-4.234,0.124c-1.526-0.118-3.117-0.417-5.198-0.368"/>
	<path fill="none" stroke="#010101" stroke-miterlimit="10" d="M128.722,205.938c-2.507-0.293-3.264-0.425-4.187-0.532
		c-0.92-0.121-2.005-0.223-2.795-0.284c-0.793-0.055-1.279-0.066-1.808-0.003c-0.527,0.056-1.096,0.181-1.733,0.328
		c-0.63,0.144-1.332,0.314-1.568,0.628c-0.226,0.317,0.002,0.772,0.348,1.195c0.339,0.42,0.794,0.802,1.394,1.216
		c0.602,0.408,1.353,0.848,2.273,1.267c0.923,0.426,2.02,0.829,3.165,1.291c1.141,0.468,2.337,0.987,4.63,1.793"/>
	<path fill="none" stroke="#010101" stroke-miterlimit="10" d="M386.25,192.19c0.589,0,0.93-0.046,1.247-0.098
		c0.313-0.052,0.611-0.099,0.958-0.133c0.335-0.046,0.728-0.086,1.119-0.109c0.392-0.023,0.784-0.029,1.241,0.005
		c0.456,0.035,0.97,0.104,1.448,0.186c0.485,0.075,0.929,0.161,1.419,0.306c0.48,0.145,1.005,0.352,1.455,0.571
		c0.456,0.226,0.843,0.474,1.165,0.705c0.323,0.242,0.566,0.473,0.831,0.739c0.266,0.266,0.544,0.565,0.809,0.854
		c0.266,0.289,0.524,0.56,0.751,0.86c0.218,0.3,0.414,0.629,0.519,1.044c0.099,0.416,0.115,0.917,0.011,1.431
		c-0.091,0.52-0.294,1.051-0.611,1.582c-0.311,0.53-0.728,1.05-1.171,1.471c-0.433,0.422-0.896,0.745-1.316,1.051
		c-0.421,0.305-0.825,0.594-1.24,0.882c-0.41,0.289-0.843,0.565-1.305,0.872c-0.462,0.305-0.935,0.628-1.292,0.969
		c-0.369,0.346-0.6,0.709-0.705,1.425"/>
	<path fill="none" stroke="#010101" stroke-miterlimit="10" d="M362.602,206.999c1.974,0.197,2.678,0.37,3.209,0.439
		c0.536,0.075,0.9,0.057,1.414,0.034c0.519-0.011,1.193-0.022,1.933-0.051c0.739-0.029,1.553-0.064,2.354-0.11
		c0.808-0.046,1.604-0.104,2.331-0.173c0.733-0.068,1.397-0.149,1.95-0.265c0.555-0.104,0.982-0.236,1.582-0.364
		c0.601-0.133,1.351-0.259,1.95-0.277c0.601-0.023,1.026,0.052,1.466,0.191c0.439,0.126,0.865,0.312,1.27,0.485
		c0.404,0.172,0.773,0.328,1.143,0.438c0.369,0.116,0.738,0.179,1.074,0.162c0.334-0.023,0.622-0.139,0.819-0.416
		c0.195-0.271,0.288-0.704,0.403-1.067c0.116-0.364,0.253-0.652,0.484-0.883c0.237-0.237,0.566-0.416,1.119-0.624
		c0.55-0.207,1.316-0.443,2.379-0.894c1.062-0.444,2.411-1.102,3.098-1.466c0.688-0.357,0.705-0.421,0.907-0.768
		c0.208-0.345,0.601-0.986,0.808-1.604c0.214-0.617,0.242-1.212,0.15-1.593c-0.099-0.392-0.323-0.566-0.611-0.778
		c-0.295-0.213-0.659-0.468-1.085-0.722c-0.428-0.254-0.924-0.508-1.467-0.739c-0.542-0.225-1.143-0.421-2.135-0.738
		c-0.993-0.306-2.384-0.728-2.406-0.692"/>
	<path fill="none" stroke="#010101" stroke-miterlimit="10" d="M361.378,198.215c0.785,0.024,2.008,0.081,2.806,0.11
		c0.796,0.028,1.177,0.018,1.627,0.035c0.438,0.011,0.935,0.041,1.465,0.086c0.52,0.046,1.068,0.099,1.847,0.242
		c0.785,0.151,1.802,0.393,2.557,0.693c0.763,0.288,1.27,0.634,1.61,0.935c0.348,0.3,0.52,0.554,0.762,0.768
		c0.236,0.214,0.531,0.387,0.854,0.49c0.317,0.104,0.657,0.149,1.085,0.185c0.433,0.041,0.946,0.081,1.599,0.104
		c0.651,0.029,1.442,0.047,2.21-0.063c0.768-0.104,1.512-0.329,2.309-0.525c0.783-0.202,1.627-0.369,2.285-0.56
		c0.663-0.19,1.154-0.393,1.488-0.589c0.335-0.196,0.525-0.386,0.739-0.755"/>
	<path fill="none" stroke="#010101" stroke-miterlimit="10" d="M355.948,186.143c-3.613,2.608-10.197,4.305-12.125,6.163
		c-1.938,1.859,0.773,3.866,2.724,5.056c1.938,1.188,3.116,1.546,3.981,1.731c0.866,0.184,1.42,0.184,1.737,0.196
		c0.317,0,0.404,0,0.601,0c0.201,0.005,0.514,0.011,0.883,0.034c0.368,0.024,0.809,0.064,1.166,0.092
		c0.369,0.03,0.657,0.047,0.963,0.104c0.308,0.058,0.636,0.145,1.702,0.22"/>
	<path fill="none" stroke="#010101" stroke-miterlimit="10" d="M340.892,204.009c1.604-1.604,2.713-2.105,3.832-2.354
		c1.119-0.254,2.257-0.254,3.901-0.023c1.639,0.236,3.773,0.704,5.586,0.969c1.806,0.271,3.277,0.335,4.962,0.173
		c1.697-0.173,3.602-0.571,3.602-0.37"/>
	<path fill="none" stroke="#010101" stroke-miterlimit="10" d="M319.406,199.993c5.021,1.005,7.428,0.705,8.939,0.45
		c1.5-0.248,2.101-0.45,2.84-0.715c0.738-0.266,1.604-0.601,2.607-1.241c1.005-0.629,2.147-1.57,3.683-3.745
		c1.54-2.175,3.479-5.586,4.72-7.628c1.235-2.043,1.778-2.713,2.389-3.296c0.624-0.589,1.328-1.09,2.528-0.889"/>
	<path fill="none" stroke="#010101" stroke-miterlimit="10" d="M298.527,233.315c1.403-2.21,3.618-4.017,5.72-5.384
		c2.111-1.374,4.12-2.314,5.927-2.915c1.806-0.606,3.41-0.871,5.153-1.068c1.737-0.202,3.611-0.334,6.289-0.508
		c2.678-0.161,6.152-0.369,8.899-0.531c2.747-0.167,4.756-0.3,6.625-0.335c1.875-0.035,3.612,0.035,5.46,0.07
		c1.835,0.028,3.779,0.028,6.024,0.127c2.238,0.104,4.777,0.3,6.855,0.473c2.077,0.161,3.681,0.299,5.886,0.467
		c2.21,0.167,5.021,0.363,6.96,0.467c1.944,0.104,3.013,0.104,4.687,0.439c1.673,0.335,3.946,0.999,5.892,2.009
		c1.938,1.004,3.549,2.336,5.822,2.978c2.274,0.635,5.217,0.566,8.697,0.127c3.479-0.434,7.496-1.235,12.518-1.431"/>
	<path fill="none" stroke="#010101" stroke-miterlimit="10" d="M276.646,180.522c0.802,0.398,6.323,0.496,9.215,0.485
		c2.897-0.018,3.163-0.15,4.703-0.624c1.541-0.461,4.352-1.271,6.493-1.639c2.141-0.369,3.612-0.3,5.286,0.174
		c1.673,0.461,3.543,1.338,5.586,1.835c2.042,0.508,4.247,0.634,6.429,0.473c2.17-0.173,4.315-0.641,6.29-1.004
		c1.974-0.369,3.779-0.641,6.024-0.773c2.24-0.133,4.917-0.133,7.762-0.935c2.846-0.803,5.857-2.412,10.671-3.416"/>
	<path fill="none" stroke="#010101" stroke-miterlimit="10" d="M176.261,176.91c1.408-0.405,4.414-0.705,6.855-0.923
		c2.448-0.219,4.316-0.352,5.892-0.589c1.575-0.231,2.845-0.565,4.45-1.27c1.604-0.704,3.543-1.777,4.853-2.608
		c1.304-0.837,1.974-1.442,3.313-2.239c1.339-0.808,3.347-1.812,5.252-2.516c1.909-0.698,3.715-1.097,9.942-0.698"/>
	<path fill="none" stroke="#010101" stroke-miterlimit="10" d="M140.522,178.514c3.813-5.021,6.123-5.724,8.384-6.476
		c2.256-0.755,4.466-1.558,6.971-1.858c2.516-0.3,5.32-0.104,7.964,0.231c2.649,0.335,5.125,0.808,6.862,1.073
		c1.743,0.266,2.741,0.334,4.351,0.3c1.604-0.034,3.815-0.161,5.961-0.334c2.136-0.167,4.213-0.369,6.221-0.796
		c2.008-0.438,3.947-1.108,5.967-1.997c2.031-0.89,4.132-1.991,5.136-2.793"/>
	<path fill="none" stroke="#010101" stroke-miterlimit="10" d="M126.667,175.3c0.404,0.202,2.712,0.202,4.201,0.068
		c1.488-0.132,2.158-0.403,3.029-0.836c0.872-0.438,1.939-1.039,2.88-1.742c0.935-0.705,1.737-1.507,2.989-2.408
		c1.258-0.906,2.967-1.91,6.781-2.711"/>
	<path fill="none" stroke="#010101" stroke-miterlimit="10" d="M231.269,262.838c0.403-0.202,1.407-0.808,2.077-1.206
		c0.67-0.404,1.004-0.606,1.57-0.768c0.571-0.174,1.375-0.3,2.245-0.404c0.872-0.104,1.806-0.167,2.88-0.167
		c1.067,0,2.272,0.063,3.71,0.202c1.437,0.133,3.11,0.334,4.519,0.334c1.408,0,2.539-0.201,3.646-0.369
		c1.108-0.167,2.176-0.3,3.515-0.67c1.333-0.368,2.944-0.969,4.311-1.604c1.374-0.635,2.518-1.304,4.086-2.245
		c1.569-0.935,3.578-2.141,5.99-2.846c2.412-0.703,5.218-0.899,10.237-0.098"/>
	<path fill="none" stroke="#010101" stroke-miterlimit="10" d="M191.519,261.431c1.604-1.808,2.91-2.609,3.937-3.209
		c1.015-0.606,1.753-1.004,2.487-1.339c0.733-0.335,1.471-0.606,2.377-0.906c0.906-0.301,1.975-0.636,3.007-0.906
		c1.039-0.266,2.043-0.462,3.618-0.669c1.576-0.196,3.71-0.404,6.054-0.404c2.342,0,4.888,0.208,7.26,0.473
		c2.378,0.266,4.588,0.601,6.463,0.803c1.87,0.201,3.416,0.271,5.585,0.201c2.176-0.068,4.987-0.265,6.996-0.536
		c2.008-0.266,3.207-0.601,5.17-1.57c1.957-0.975,4.668-2.58,6.272-3.583"/>
	<path fill="none" stroke="#010101" stroke-miterlimit="10" d="M98.158,238.543c2.008-1.807,3.116-2.909,3.866-3.7
		c0.75-0.785,1.155-1.252,1.691-1.691c0.538-0.433,1.207-0.831,2.176-1.269c0.969-0.433,2.239-0.901,3.612-1.374
		c1.374-0.468,2.845-0.936,5.725-1.368c2.874-0.438,7.155-0.836,9.637-0.836c2.471,0,3.14,0.398,4.248,1.073
		c1.102,0.664,2.642,1.604,4.316,2.407c1.673,0.802,3.48,1.471,5.424,1.939c1.938,0.468,4.011,0.733,5.784,0.705
		c1.776-0.035,3.243-0.37,4.616-0.803c1.373-0.438,2.643-0.969,4.051-1.374c1.408-0.403,2.943-0.669,4.248-0.669
		c1.304,0,2.377,0.266,3.947,0.503c1.575,0.236,3.652,0.433,6.047,0.386c2.389-0.051,5.102-0.358,14.132-1.154"/>
	<path fill="none" stroke="#010101" stroke-miterlimit="10" d="M104.183,288.934c6.821-4.617,6.926-4.617,7.213-4.778
		c0.283-0.174,0.75-0.509,1.42-0.976c0.67-0.468,1.535-1.066,2.51-1.575c0.969-0.497,2.043-0.899,3.612-1.27
		c1.576-0.369,3.647-0.703,5.558-0.601c1.905,0.104,3.646,0.635,5.685,1.171c2.043,0.538,4.385,1.068,6.365,1.368
		c1.968,0.301,3.579,0.37,4.847,0.203c1.271-0.168,2.206-0.566,3.948-1.541c1.743-0.97,4.282-2.505,6.255-4.028
		c1.974-1.523,3.382-3.03,4.588-4.634"/>
	<path fill="none" stroke="#010101" stroke-miterlimit="10" d="M341.005,265.812c0.538,2.677,0.6,2.808,1.146,3.077
		c0.546,0.27,1.573,0.669,2.242,0.915s0.981,0.334,1.943,0.357c0.957,0.02,2.561-0.023,3.546-0.135
		c0.977-0.111,1.338-0.291,1.869-0.515c0.538-0.224,1.254-0.489,2.146-0.777c0.888-0.292,1.961-0.604,2.9-0.646
		c0.931-0.046,1.738,0.178,2.473,0.224c0.734,0.042,1.404-0.092,1.92-0.293c0.512-0.199,0.869-0.469,1.146-0.737
		c0.276-0.267,0.477-0.531,4.627-0.801"/>
	<path fill="none" stroke="#010101" stroke-miterlimit="10" d="M338.997,273.843c5.085,1.2,5.221,1.134,6.247,0.854
		c1.023-0.277,2.942-0.769,4.058-1.058c1.116-0.288,1.428-0.377,2.072-0.604c0.647-0.223,1.632-0.577,2.386-0.823
		c0.761-0.247,1.296-0.377,2.412-0.47c1.111-0.084,2.812-0.131,4.035-0.084c1.23,0.042,1.983,0.177,3.101,0.466
		c1.113,0.288,2.588,0.733,3.722,0.956c1.139,0.225,1.943,0.225,3.077-0.088c1.139-0.312,2.617-0.935,3.586-1.48
		c0.969-0.547,1.438-1.016,2.508-2.354"/>
	<path fill="none" stroke="#010101" stroke-miterlimit="10" d="M344.218,265.812c0.134-0.135,1.473-1.005,2.429-1.573
		c0.451-0.266,0.817-0.466,1.166-0.615"/>
	<path fill="none" stroke="#010101" stroke-miterlimit="10" d="M202.161,316.646c1.409-1.207,5.216-2.112,8.361-2.729
		s5.626-0.952,8.397-0.82c2.781,0.133,5.857,0.733,8.604,1.402c2.742,0.67,5.152,1.409,7.657,2.147
		c2.516,0.732,5.125,1.465,7.167,1.771c2.043,0.301,3.509,0.168,5.99-0.201c2.47-0.369,5.956-0.97,10.25-1.471
		c4.305-0.503,9.418-0.906,15.044,0.097"/>
	<path fill="none" stroke="#010101" stroke-miterlimit="10" d="M200.152,309.813c12.05-6.625,13.653-6.521,15.292-6.238
		c1.64,0.282,3.313,0.756,4.987,1.356c1.673,0.6,3.346,1.339,5.182,2.076c1.846,0.733,3.849,1.467,5.828,1.905
		c1.975,0.438,3.914,0.572,5.755,0.503c1.841-0.064,3.577-0.336,6.855-0.837c3.285-0.503,8.097-1.236,12.563-1.657
		c4.474-0.421,8.588-0.52,15.813-0.317"/>
	<path fill="none" stroke="#010101" stroke-miterlimit="10" d="M429.03,280.502c1.402-0.605,2.406-0.605,3.813-0.536
		c1.402,0.069,3.209,0.202,4.918,0.536c1.708,0.341,3.312,0.871,5.089,1.91c1.771,1.039,3.712,2.573,5.252,3.879
		c1.535,1.304,2.678,2.377,5.604,3.612c2.926,1.24,7.646,2.643,9.654,2.446"/>
	<path fill="none" stroke="#010101" stroke-miterlimit="10" d="M419.594,308.409c1.005-1.806,2.707-2.809,3.86-3.479
		c1.155-0.67,1.761-1.004,2.927-1.108c1.178-0.093,2.914,0.034,4.651,0.3c1.743,0.271,3.485,0.675,5.193,1.143
		c1.703,0.474,3.376,1.005,5.147,1.535c1.778,0.542,3.648,1.073,6.244,1.442c2.592,0.369,5.904,0.566,10.122,0.369"/>
	<path fill="none" stroke="#010101" stroke-miterlimit="10" d="M413.766,301.986c4.225-2.815,6.931-3.612,9.223-4.148
		c2.297-0.537,4.165-0.802,6.606-0.201c2.441,0.599,5.454,2.077,7.698,3.045c2.246,0.971,3.712,1.438,5.419,1.674
		c1.709,0.231,3.648,0.231,6.325,0.081c2.678-0.149,6.095-0.45,8.898-1.452"/>
	<path fill="none" stroke="#010101" stroke-miterlimit="10" d="M298.13,298.167c0.6,0.612,4.715,2.217,6.901,3.047
		c2.193,0.843,2.465,0.905,2.967,0.905s1.234-0.063,2.446-0.201c1.2-0.133,2.874-0.335,5.015-0.831
		c2.142-0.508,4.75-1.311,6.354-1.881c1.61-0.567,2.217-0.9,3.521-1.501c1.306-0.606,3.313-1.477,5.252-2.21
		c1.938-0.739,3.815-1.339,5.852-1.807c2.042-0.474,4.253-0.808,6.325-0.97c2.077-0.173,4.016-0.173,5.99-0.069
		c1.973,0.104,3.981,0.301,5.927,0.503c1.939,0.201,3.813,0.398,5.921,0.64c2.105,0.23,4.449,0.497,6.792,0.497
		s4.685-0.267,6.827-0.837c2.141-0.571,4.079-1.437,6.711-3.277c2.626-1.842,5.938-4.651,11.762-7.463"/>
	<path fill="none" stroke="#010101" stroke-miterlimit="10" d="M293.306,303.188c5.021,3.819,7.229,4.315,9.268,4.604
		c2.044,0.283,3.919,0.353,6.729,0.283c2.811-0.064,6.556-0.271,9.269-0.306c2.712-0.029,4.385,0.104,6.359-0.329
		c1.974-0.434,4.247-1.438,6.324-2.678c2.077-1.241,3.947-2.706,5.518-3.745c1.575-1.039,2.851-1.639,4.588-2.238
		c1.737-0.612,3.947-1.213,6.827-1.443c2.873-0.237,6.428-0.104,9.799,0.502c3.381,0.601,6.596,1.667,9.637,2.477
		c3.047,0.801,5.928,1.338,9.725,0.651c3.803-0.687,8.518-2.592,17.353-4.6"/>
	<path fill="none" stroke="#010101" stroke-miterlimit="10" d="M324.826,337.524c10.04,3.808,12.552,2.308,14.842,1.085
		c2.297-1.224,4.369-2.159,6.44-3.024c2.078-0.876,4.155-1.674,6.562-2.009c2.406-0.334,5.153-0.201,8.062,0.231
		c2.909,0.434,5.99,1.171,9.136,1.438c3.146,0.271,6.359,0.068,10.139-0.768c3.786-0.837,8.132-2.309,12.114-3.901
		c3.981-1.587,7.594-3.289,21.45-3.694"/>
	<path fill="none" stroke="#010101" stroke-miterlimit="10" d="M265.6,362.615c7.635,2.008,10.342,2.914,13.405,3.498
		c3.058,0.589,6.476,0.854,9.049,0.114c2.573-0.732,4.316-2.47,6.394-3.507c2.072-1.04,4.478-1.375,6.855-1.474
		c2.379-0.098,4.722,0.029,7.463,0.503c2.747,0.468,5.892,1.27,8.939,1.569c3.04,0.3,5.989,0.104,9.216-0.3
		c3.226-0.404,6.74-1.005,7.945-1.604"/>
	<path fill="none" stroke="#010101" stroke-miterlimit="10" d="M159.595,360.209c2.21-5.626,6.128-7.127,9.048-7.981
		c2.932-0.854,4.872-1.049,8.184-0.888c3.313,0.173,7.999,0.704,11.68,1.177c3.682,0.462,6.36,0.866,9.47,0.663
		c3.111-0.201,6.66-1.004,10.208-2.14c3.543-1.137,7.087-2.61,10.203-4.115c3.115-1.506,5.788-3.047,8.934-3.762
		c3.145-0.723,6.763-0.618,13.584,3.19"/>
	<path fill="none" stroke="#010101" stroke-miterlimit="10" d="M37.529,356.591c5.418,1.211,8.333,1.011,11.189,0.675
		c2.863-0.339,5.673-0.802,8.144-2.325c2.475-1.524,4.61-4.109,7.894-5.148c3.278-1.032,7.698-0.53,11.282-0.108
		c3.584,0.42,6.331,0.756,9.171,1.459c2.845,0.705,5.794,1.771,8.818,2.459c3.029,0.682,6.14,0.981,8.956,0.381"/>
	<path fill="none" stroke="#010101" stroke-miterlimit="10" d="M31.505,349.567c7.028,3.215,11.946,3.612,16.781,3.013
		c4.837-0.606,9.586-2.21,13.504-3.647c3.912-1.437,6.995-2.712,9.902-3.514c2.909-0.802,5.656-1.138,10.105-0.866
		c4.45,0.266,10.607,1.132,15.443,1.615c4.835,0.485,8.35,0.589,20.792-1.419"/>
	<path fill="none" stroke="#010101" stroke-miterlimit="10" d="M108.597,292.35c2.014-2.812,3.116-3.515,4.069-3.937
		c0.958-0.415,1.754-0.547,3.461-0.645c1.709-0.104,4.317-0.174,7.797,0.063c3.48,0.236,7.831,0.768,11.311,1.103
		c3.48,0.335,6.089,0.474,8.062,0.271c1.974-0.202,3.313-0.738,6.29-2.66c2.978-1.927,7.595-5.24,11.011-10.052"/>
	<path fill="#891820" stroke="#010101" stroke-linecap="round" stroke-linejoin="round" stroke-miterlimit="10" d="M237.447,219.947
		c0.572-1.115,1.252-2.28,1.866-3.402c0.599-1.105,1.139-2.172,1.615-3.174l0.002,0c-0.706-0.6-1.787-1.392-2.797-2.026
		c-1.009-0.629-1.955-1.1-3.113-1.614c-1.173-0.516-2.56-1.082-3.864-1.521c-1.302-0.444-2.514-0.771-3.882-1.079
		c-1.363-0.31-2.866-0.649-5.003-0.727c-0.278,0.909-0.514,1.905-0.757,3.17c-0.247,1.268-0.506,2.803-0.845,5.207
		c2.108,1.043,3.718,1.773,5.082,2.274c1.36,0.498,2.476,0.774,3.465,1.079c0.994,0.303,1.863,0.643,3.017,0.912
		c1.148,0.271,2.58,0.472,5.219,0.901"/>
	<path fill="#A7A9AC" stroke="#010101" stroke-miterlimit="10" d="M365.694,189.225c-0.911-3.105-1.87-4.364-2.746-5.459
		c-0.872-1.097-1.663-2.038-2.239-2.869c-0.566-0.825-0.911-1.552-1.224-2.469c-0.313-0.918-0.589-2.032-0.716-3.076
		c-0.133-1.051-0.115-2.032-0.081-2.874c0.047-0.832,0.11-1.53,0.496-2.874c1.564,5.292,2.321,6.763,2.943,7.681
		c0.612,0.917,1.091,1.275,1.651,1.609c0.553,0.334,1.188,0.636,1.702,0.866c0.514,0.231,0.906,0.393,1.477,0.571
		c0.572,0.179,1.333,0.37,2.026,0.457c0.687,0.132,1.466,0.185,2.071,0.196c0.594,0.005,1.021-0.024,1.575-0.082
		c0.565-0.063,1.259-0.155,1.893-0.3c0.636-0.139,1.201-0.34,2.067-1.021c0.876-0.681,2.054-1.841,5.17-6.388
		c-0.04,1.397-0.195,2.077-0.415,2.885c-0.22,0.809-0.514,1.749-0.958,2.702c-0.451,0.958-1.063,1.927-1.64,2.706
		c-0.577,0.779-1.13,1.356-1.928,1.968c-0.808,0.611-1.846,1.258-3.022,2.031c-1.167,0.773-2.466,1.679-4.294,4.339L365.694,189.225
		z"/>
	<path fill="#A7A9AC" stroke="#010101" stroke-miterlimit="10" d="M368.984,193.299c0.467,0,0.646-0.277,0.819-0.52
		c0.167-0.254,0.334-0.473,0.496-1.062c0.161-0.589,0.322-1.546-0.162-1.632l0.163,0.028c-0.438-0.079-0.86-0.159-1.26-0.242
		c-0.508-0.098-0.98-0.197-1.47-0.289c-0.492-0.086-1.006-0.162-1.529-0.277c-0.532-0.116-1.085-0.283-1.507-0.416l0.155,0.115
		c-0.744,0.508-1.004,0.796-1.137,0.981c-0.132,0.185-0.132,0.266-0.145,0.45c-0.012,0.19-0.035,0.485-0.058,0.832
		c-0.018,0.345-0.022,0.75,0.542,0.866L368.984,193.299z"/>
	<path fill="#A7A9AC" stroke="#010101" stroke-miterlimit="10" d="M377.998,188.508c-0.248,0.19-0.536,0.358-0.935,0.473
		c-0.392,0.109-0.895,0.173-1.702,0.173c-0.809,0.012-1.922-0.046-2.765-0.127c-0.843-0.075-1.42-0.173-1.975-0.277
		c-0.107-0.019-0.215-0.039-0.321-0.058l-5.766-1.223c-0.422-0.133-0.722-0.23-1.113-0.409c-0.388-0.179-0.861-0.433-1.513-0.705
		c-0.646-0.271-1.466-0.559-2.366-1.056v1.42c0.9,0.497,1.72,0.784,2.366,1.056c0.651,0.271,1.125,0.526,1.513,0.705
		c0.392,0.179,0.691,0.277,1.113,0.41l5.766,1.223c0.106,0.02,0.214,0.039,0.321,0.058c0.555,0.104,1.132,0.202,1.975,0.277
		c0.843,0.081,1.956,0.139,2.765,0.126c0.808,0,1.311-0.063,1.702-0.172c0.398-0.116,0.687-0.283,0.935-0.474V188.508z"/>
	<path fill="#A7A9AC" stroke="#010101" stroke-linejoin="round" stroke-miterlimit="10" d="M364.159,192.399
		c-0.589,0.525-0.785,0.675-0.957,0.86c-0.174,0.185-0.313,0.404-0.388,0.687c-0.074,0.277-0.023,0.83,0.386,1.667
		c0.117-0.022,0.233-0.043,0.348-0.063c0.524-0.093,1.016-0.15,1.472-0.173c0.462-0.023,0.896-0.023,1.315,0.035
		c0.297,0.049,0.582,0.128,1.002,0.3h-0.003c0.939-0.496,1.223-0.732,1.391-1.067c0.167-0.34,0.207-0.773,0.26-1.344
		L364.159,192.399z"/>
	<path fill="none" stroke="#010101" stroke-miterlimit="10" d="M367.337,195.711c0.167,0.069,0.355,0.152,0.574,0.254
		c0.763,0.37,1.904,0.97,2.758,1.299c0.854,0.329,1.42,0.387,2.02,0.393c0.601,0.005,1.225-0.035,2.54-0.254"/>
	<path fill="#A7A9AC" stroke="#010101" stroke-miterlimit="10" d="M376.48,192.826c-0.028,0.023-0.04,0.047-0.26,0.081
		c-0.214,0.042-0.634,0.104-1.259,0.123c-0.623,0.016-1.454-0.007-2.141-0.058c-0.687-0.052-1.223-0.122-1.794-0.231
		c-0.565-0.104-1.154-0.237-1.767-0.41c-0.61-0.162-1.24-0.352-2.009-0.537c-0.756-0.19-1.65-0.375-2.457-0.536
		c-0.803-0.162-1.513-0.312-2.182-0.457c-0.664-0.144-1.281-0.293-1.731-0.421c-0.451-0.138-0.722-0.254-1.235-0.485
		c-0.514-0.23-1.269-0.57-1.454-0.738v1.487c0.186,0.168,0.94,0.508,1.454,0.738c0.514,0.231,0.784,0.347,1.235,0.485
		c0.45,0.128,1.067,0.277,1.731,0.421c0.669,0.145,1.379,0.295,2.182,0.457c0.807,0.161,1.701,0.346,2.457,0.536
		c0.769,0.185,1.398,0.375,2.009,0.537c0.612,0.173,1.201,0.306,1.767,0.41c0.571,0.109,1.107,0.179,1.794,0.231
		c0.687,0.051,1.518,0.074,2.141,0.058c0.625-0.018,1.045-0.081,1.259-0.123c0.22-0.034,0.231-0.057,0.26-0.081V192.826z"/>
	<path fill="#D1D3D4" stroke="#010101" stroke-miterlimit="10" d="M156.867,321.932c-0.131,0.003-0.262,0.004-0.392,0.002
		c-0.691-0.008-1.386-0.081-1.927-0.153c-0.545-0.069-0.936-0.139-1.389-0.285c-0.453-0.139-0.969-0.352-1.456-0.622
		c-0.489-0.264-0.953-0.585-1.24-0.889c1.584-2.15,2.33-3.323,2.988-4.398c0.658-1.071,1.225-2.039,1.696-2.757
		c0.472-0.708,0.845-1.169,1.295-1.585c0.452-0.417,0.982-0.79,1.404-1.36c0.42-0.57,0.734-1.339,0.79-2.184
		c0.058-0.84-0.14-1.754-0.162-2.512c-0.021-0.76,0.136-1.363,0.352-1.846c0.212-0.482,0.482-0.844,0.819-1.13
		c0.336-0.277,0.743-0.475,1.232-0.651c0.486-0.178,1.06-0.335,1.506-0.428c0.45-0.091,0.768-0.124,1.257-0.112
		c0.486,0.008,1.145,0.059,1.627,0.285c0.482,0.223,0.794,0.618,1.067,1.382c0.271,0.768,0.504,1.904,0.705,4.884
		c1.485-0.424,2.498,0,3.31,0.535c0.811,0.529,1.425,1.176,1.868,1.732c0.442,0.563,0.713,1.041,0.837,1.433
		c0.125,0.388,0.102,0.688,0.022,1.027c-0.084,0.337-0.227,0.714-0.476,0.976c-0.241,0.265-0.583,0.425-1.206,0.604
		c-0.614,0.183-1.509,0.391-2.354,0.588c-0.841,0.197-1.63,0.385-2.508,0.617c-0.877,0.231-1.842,0.517-2.72,0.786
		c-0.877,0.268-1.667,0.526-2.772,1.203c-1.104,0.677-2.522,1.767-4.174,4.859V321.932z"/>
	<path fill="#FFFFFF" stroke="#010101" stroke-miterlimit="10" d="M153.355,317.927c0.059-0.241,0.352-0.674,0.648-1.068
		c0.297-0.387,0.596-0.73,0.893-1.023c0.297-0.299,0.589-0.549,0.896-0.825c0.304-0.286,0.629-0.597,0.986-0.951
		c0.358-0.358,0.753-0.769,1.079-1.186c0.326-0.423,0.589-0.861,0.827-1.257c0.237-0.402,0.457-0.768,0.669-1.155
		c0.212-0.392,0.424-0.804,0.625-1.594c0.201-0.789,0.398-1.956,0.515-2.848c0.114-0.896,0.147-1.518,0.212-1.902
		c0.066-0.383,0.172-0.53,0.336-0.653c0.169-0.124,0.396-0.23,0.681-0.314c0.286-0.081,0.629-0.146,0.892-0.183
		c0.256-0.034,0.436-0.044,0.557-0.037c0.117,0.003,0.179,0.021,0.311,0.118c0.128,0.094,0.326,0.259,0.445,0.43
		c0.122,0.172,0.161,0.348,0.099,0.545s-0.227,0.417-0.409,0.618c-0.183,0.205-0.38,0.391-0.526,0.534
		c-0.147,0.146-0.238,0.252-0.348,0.395c-0.106,0.146-0.234,0.336-0.322,0.577c-0.091,0.246-0.142,0.549-0.237,0.947
		c-0.102,0.399-0.245,0.899-0.465,1.455c-0.215,0.556-0.507,1.166-0.799,1.809c-0.293,0.638-0.582,1.303-0.93,1.945
		c-0.35,0.645-0.752,1.27-1.184,1.792c-0.432,0.516-0.888,0.934-1.462,1.382c-0.571,0.454-1.259,0.943-1.891,1.412
		c-0.631,0.468-1.213,0.914-1.594,1.118C153.48,318.208,153.302,318.168,153.355,317.927z"/>
	<path fill="none" stroke="#010101" stroke-miterlimit="10" d="M170.558,316.019c0.428,0.432,1.416,0.965,2.212,1.389
		c0.793,0.427,1.4,0.746,1.817,1.083c0.42,0.339,0.648,0.694,0.845,1.03c0.197,0.344,0.358,0.662,0.446,1.133
		c0.087,0.469,0.106,1.094-0.26,1.938c-0.362,0.844-1.108,1.908-1.971,2.676c-0.862,0.764-1.842,1.228-2.588,1.547
		c-0.746,0.318-1.265,0.5-1.948,0.694c-0.684,0.193-1.539,0.405-3.03,0.728"/>
	<path fill="none" stroke="#010101" stroke-miterlimit="10" d="M149.437,321.941c0.958,0.16,1.705,0.211,2.381,0.321
		c0.675,0.106,1.279,0.267,1.597,0.321c0.322,0.051,0.359,0,0.783,0c0.431,0,1.247,0.051,1.894,0.081
		c0.65,0.021,1.133,0.021,1.689,0.021c0.563,0,1.203,0,1.773,0c0.566,0,1.064,0,1.627,0c0.558,0,1.181,0,1.751,0
		c0.567,0,1.086,0,1.598,0c0.519,0,1.031,0,1.623-0.182c0.584-0.19,1.243-0.563,1.697-0.862c0.453-0.305,0.702-0.535,0.958-1.075
		c0.26-0.545,0.526-1.396,0.471-1.609"/>
	<path fill="none" stroke="#010101" stroke-miterlimit="10" d="M156.867,321.932c0.563-0.011,1.133-0.056,1.739-0.114
		c0.75-0.07,1.55-0.161,2.538-0.389c0.988-0.234,2.161-0.607,2.75-0.929"/>
	<path fill="none" stroke="#010101" stroke-miterlimit="10" d="M152.048,317.834c-2.117-0.266-2.124,0.137-2.121,0.458
		c0.003,0.322,0.022,0.571,0.084,0.841c0.063,0.263,0.172,0.548,0.452,0.852"/>
	<path fill="none" stroke="#010101" stroke-miterlimit="10" d="M147.354,324.932c-1.491,0.373-2.962,0.373-3.854,0.307
		c-0.895-0.059-1.214-0.183-1.499-0.432c-0.285-0.248-0.533-0.625-0.622-0.965c-0.087-0.336-0.021-0.637,0.411-1.119
		c0.423-0.479,1.207-1.137,2.149-1.784c0.942-0.65,2.046-1.289,2.924-1.762c0.882-0.472,1.541-0.774,2.604-1.353
		c1.06-0.578,2.53-1.43,4.073-2.341"/>
	<path fill="none" stroke="#010101" stroke-miterlimit="10" d="M140.418,318.263c-0.212,0.425-0.801,1.013-1.371,1.579
		c-0.567,0.57-1.12,1.123-1.507,1.587c-0.395,0.461-0.628,0.834-0.805,1.338c-0.175,0.508-0.299,1.148-0.299,1.792
		c0,0.636,0.124,1.279,0.753,2.105c0.633,0.826,1.77,1.839,3.016,2.497c1.247,0.658,2.595,0.962,3.341,1.086
		c0.75,0.124,0.89,0.073,1.371,0.058c0.479-0.007,1.298,0.03,1.807,0.074c0.504,0.043,0.702,0.099,1.045,0.108
		c0.347,0.009,0.848-0.028,1.54-0.072c0.692-0.044,1.583-0.095,2.277-0.124c0.694-0.025,1.192-0.025,1.894,0.029
		c0.702,0.051,1.608,0.157,2.336,0.219c0.728,0.063,1.283,0.081,1.996,0.088c0.717,0.011,1.598,0.011,5.063-0.307"/>
</g>
<g id="Layer_19">
	
		<ellipse transform="matrix(0.9434 -0.3318 0.3318 0.9434 -64.3051 130.8487)" fill="#808285" stroke="#010101" stroke-miterlimit="10" cx="351.079" cy="253.762" rx="9.463" ry="3.694"/>
	<path fill="#CBBD2D" stroke="#010101" stroke-miterlimit="10" d="M343.182,257.942c1.745,0.855,5.319,0.642,9.123-0.695
		c4.93-1.734,8.378-4.7,7.701-6.625l0.013,0.04c0,0,5.626,10.739,5.626,10.74c-0.277,0.103-0.566,0.275-0.999,0.57
		c-0.793,0.531-2.063,1.469-3,2.938c0,0-1.765-1.344-2.439-1.238c-0.373,0.059-2.723,0.754-3.461,0.669
		c-0.731-0.093-1.316-0.181-1.916-0.361c-0.6-0.177-1.228-0.447-2.077-0.6c-0.847-0.154-1.915-0.201-2.738-0.093
		c-0.438,0.062-0.808,0.165-1.201,0.335l0.012,0.026L343.182,257.942"/>
	
		<ellipse transform="matrix(0.9433 -0.3318 0.3318 0.9433 -64.219 130.8175)" fill="#58595B" stroke="#010101" stroke-miterlimit="10" cx="350.976" cy="253.467" rx="6.759" ry="2.326"/>
	<path fill="#006838" stroke="#010101" stroke-linejoin="round" stroke-miterlimit="10" d="M152.602,203.646l0.616,1.928
		c0,0-5.385,3.272-13.14-0.972c-5.129-2.808-7.289-5.105-7.289-5.105s2.621-1.395,2.62-1.394c0.825,1.76,3.746,3.833,7.548,5.173
		C147.19,204.768,151.141,204.867,152.602,203.646z"/>
	
		<ellipse transform="matrix(0.9432 0.3323 -0.3323 0.9432 74.5915 -36.561)" fill="#808285" stroke="#010101" stroke-miterlimit="10" cx="144.184" cy="199.793" rx="9.463" ry="3.694"/>
	
		<ellipse transform="matrix(0.9432 0.3323 -0.3323 0.9432 74.4971 -36.6117)" fill="#58595B" stroke="#010101" stroke-miterlimit="10" cx="144.289" cy="199.499" rx="6.759" ry="2.327"/>
	<path fill="#58595B" stroke="#010101" stroke-miterlimit="10" d="M150.299,201.438c-0.699,0.163-1.381-0.199-1.524-0.812l0,0
		c-0.142-0.61,0.309-1.238,1.008-1.401l1.882-0.439c0.7-0.163,1.383,0.2,1.526,0.812l0,0c0.143,0.61-0.308,1.238-1.008,1.401
		L150.299,201.438z"/>
</g>
<g id="Isolation_Mode">
	<path fill="#024423" stroke="#010101" stroke-linejoin="round" stroke-miterlimit="10" d="M132.789,199.498
		c0,0,2.16,2.297,7.289,5.105c7.754,4.244,13.14,0.972,13.14,0.972l-3.406,8.156l0.008-0.048c-0.286-0.048-0.578-0.125-0.872-0.209
		c-0.947-0.278-1.928-0.632-2.801-0.968c-0.88-0.344-1.667-0.671-2.439-1c-0.77-0.329-1.53-0.673-2.487-1.064
		c-0.963-0.406-2.123-0.86-3.05-1.119c-0.933-0.26-1.648-0.317-2.409-0.251c-0.771,0.063-1.589,0.249-2.376,0.38
		c-0.795,0.132-1.542,0.226-2.463,0.02c-0.922-0.201-1.813-0.339-2.2-0.621L132.789,199.498"/>
</g>
</svg>
