<?xml version="1.0" encoding="utf-8"?>
<!-- Generator: Adobe Illustrator 16.0.0, SVG Export Plug-In . SVG Version: 6.00 Build 0)  -->
<!DOCTYPE svg PUBLIC "-//W3C//DTD SVG 1.1//EN" "http://www.w3.org/Graphics/SVG/1.1/DTD/svg11.dtd">
<svg version="1.1" xmlns="http://www.w3.org/2000/svg" xmlns:xlink="http://www.w3.org/1999/xlink" x="0px" y="0px" width="250px"
	 height="500px" viewBox="0 0 250 500" enable-background="new 0 0 250 500" xml:space="preserve">
<g id="Layer_1">
	<rect x="32.759" y="143" fill="#00AEEF" width="184.297" height="267.958"/>
</g>
<g id="Layer_3">
	<path opacity="0.3" fill="#FFFFFF" d="M82.285,108.277c-17.49,29.102-28.809,75.527-28.809,127.822
		c0,88.135,32.148,159.58,71.787,159.58s71.787-71.445,71.787-159.58c0-52.295-11.318-98.721-28.809-127.822
		c-12.832,2.344-27.451,3.877-42.969,3.877h-0.02c-15.527,0-30.156-1.533-42.998-3.887L82.285,108.277z"/>
</g>
<g id="WBottle">
	<path fill="#2A3983" stroke="#000000" stroke-width="4.3254" stroke-miterlimit="10" d="M166.504,268.834
		c0,22.783-18.467,41.24-41.25,41.24c-22.773,0-41.24-18.457-41.24-41.24c0-12.236,9.004-32.49,23.311-51.396
		c11.172-14.785,13.604-43.838,13.604-43.838S166.504,246.061,166.504,268.834z"/>
	<path fill="#D3D3D3" stroke="#000000" stroke-width="2.1627" stroke-miterlimit="10" d="M136.064,294.664
		c-1.201,0-2.158-0.967-2.158-2.168c0-1.191,0.957-2.158,2.158-2.158c3.672,0,7.129-1.514,9.736-4.268
		c2.998-3.174,4.57-7.578,4.326-12.1c-0.068-1.201,0.85-2.217,2.041-2.275s2.207,0.84,2.275,2.031
		c0.313,5.703-1.689,11.289-5.498,15.313C145.518,292.662,140.938,294.664,136.064,294.664z"/>
	<path fill="#FFFFFF" stroke="#000000" stroke-width="10" stroke-miterlimit="10" d="M233.584,468.609
		c0,9.199-7.461,16.66-16.67,16.66H33.594c-9.209,0-16.67-7.461-16.67-16.66l0,0c0-9.209,7.461-16.67,16.67-16.67h183.32
		C226.123,451.939,233.584,459.4,233.584,468.609L233.584,468.609z"/>
	<path fill="#FFFFFF" stroke="#000000" stroke-width="10" stroke-miterlimit="10" d="M233.584,435.27
		c0,9.209-7.461,16.67-16.67,16.67H33.594c-9.209,0-16.67-7.461-16.67-16.67l0,0c0-9.199,7.461-16.66,16.67-16.66h183.32
		C226.123,418.609,233.584,426.07,233.584,435.27L233.584,435.27z"/>
	
		<ellipse fill="#FFFFFF" stroke="#000000" stroke-width="10" stroke-miterlimit="10" cx="125.264" cy="28.395" rx="61.836" ry="14.375"/>
	<path d="M156.182,28.395c0,3.174-13.848,5.752-30.918,5.752s-30.918-2.578-30.918-5.752s13.848-5.752,30.918-5.752
		S156.182,25.221,156.182,28.395z"/>
	<path fill="#FFFFFF" stroke="#000000" stroke-width="10" stroke-miterlimit="10" d="M217.422,87.77
		c0,7.949-41.26,24.385-92.148,24.385h-0.02c-50.889,0-92.148-16.436-92.148-24.385c0-7.939,41.26-24.375,92.148-24.375h0.02
		C176.162,63.395,217.422,79.83,217.422,87.77z"/>
	<path fill="#FFFFFF" stroke="#000000" stroke-width="10" stroke-linejoin="round" stroke-miterlimit="10" d="M53.887,83.199
		c5.313,6.895,35.332,12.188,71.572,12.188c35.518,0,65.078-5.078,71.23-11.787l-0.029,0.01L187.1,28.395
		c0,7.939-27.686,14.375-61.836,14.375s-61.836-6.436-61.836-14.375L53.125,87.77"/>
	<path fill="#A4A3A4" stroke="#000000" stroke-width="10" stroke-miterlimit="10" d="M168.203,108.219
		c17.51,29.102,28.838,75.547,28.838,127.881c0,88.135-32.139,159.58-71.777,159.58S53.477,324.234,53.477,236.1
		c0-52.295,11.318-98.721,28.809-127.822l-0.029-0.02c-29.229-5.352-49.15-14.971-49.15-20.488v330.84h184.297V87.77
		c0,5.518-19.922,15.137-49.15,20.488l-0.029,0.02"/>
</g>
</svg>
