<?xml version="1.0" encoding="utf-8"?>
<!-- Generator: Adobe Illustrator 16.0.0, SVG Export Plug-In . SVG Version: 6.00 Build 0)  -->
<!DOCTYPE svg PUBLIC "-//W3C//DTD SVG 1.1//EN" "http://www.w3.org/Graphics/SVG/1.1/DTD/svg11.dtd">
<svg version="1.1" xmlns="http://www.w3.org/2000/svg" xmlns:xlink="http://www.w3.org/1999/xlink" x="0px" y="0px" width="400px"
	 height="500px" viewBox="0 0 400 500" enable-background="new 0 0 400 500" xml:space="preserve">
<g id="Player">
</g>
<g id="Layer_1">
</g>
<g id="Layer_4">
	<path fill="#FFFFFF" stroke="#010101" stroke-width="2.8239" stroke-linecap="round" stroke-linejoin="round" d="M82.732,69.417
		c0,0,56.505-22.616,68.405-16.56c-1.843-0.938,10.631,13.806,12.226,16.558c17.875,30.785,45.306,93.026,45.306,93.026
		l-29.012,44.27l88.174-14.826c20.739-3.486,32.887-19.328,32.554-36.051c0,0-4.465-107.629-28.665-126.667
		c-21.018-16.534-51.563-12.694-77.344-8.33c-26.396,4.467-0.545,0.091-25.784,4.363c0,0-60.094,15.866-84.486,42.838
		C83.79,68.383,83.319,68.832,82.732,69.417"/>
	<path fill="#CDDC29" stroke="#010101" stroke-width="3.1733" stroke-linecap="round" stroke-linejoin="round" d="M171.024,208.164
		l29.367-45.722c0,0-37.029-93.025-37.029-93.026c17.875,30.785,45.306,93.026,45.306,93.026l-29.012,44.27L171.024,208.164z"/>
	<path fill="#CDDC29" stroke="#010101" stroke-width="3.1733" stroke-linecap="round" stroke-linejoin="round" d="M197.717,87.223
		c3.137-3.323,2.987-8.564-0.333-11.706c-3.329-3.139-8.566-2.99-11.707,0.333c-3.137,3.327-2.987,8.566,0.333,11.705
		C189.339,90.697,194.575,90.546,197.717,87.223z"/>
	<g>
		<path fill="none" stroke="#010101" stroke-width="2.1809" stroke-linecap="round" stroke-linejoin="round" d="M291.543,319.645
			c-0.697,1.344-1.256,2.688-1.678,4.033"/>
		<path fill="#139948" stroke="#010101" stroke-width="2.1809" stroke-miterlimit="10" d="M298.526,331.449
			c-1.256,0.297-2.022-0.713-2.931-1.385c-0.908-0.674-1.955-1.008-2.901-1.049c-0.942-0.043-1.782,0.209-2.444,0.586
			c-0.663,0.377-1.154,0.881-1.47,0.672c-0.313-0.209-0.452-1.135-0.521-2.184c-0.066-1.051-0.066-2.227-0.315-2.984
			c-0.243-0.756-0.732-1.092-1.259-1.092c-0.523,0-1.078,0.336-1.605,0.711c-0.523,0.381-1.012,0.803-1.709,1.348
			c-0.701,0.547-1.609,1.217-2.344,1.682c-0.732,0.461-1.288,0.713-1.921,1.092c-0.626,0.379-1.327,0.881-1.884,1.512
			c-0.558,0.631-0.98,1.389-1.293,1.053s-0.523-1.766-0.662-2.523c-0.14-0.756-0.211-0.838-0.874-0.5
			c-0.665,0.332-1.921,1.09-2.901,1.678c-0.976,0.586-1.676,1.01-2.167,1.26c-0.488,0.252-0.767,0.338-0.871,0.086
			c-0.104-0.254-0.032-0.842,0.035-1.432c0.069-0.588,0.139-1.176,0.313-2.098c0.177-0.928,0.456-2.188,0.735-3.234
			c0.279-1.055,0.559-1.893,0.945-2.816c0.382-0.924,0.871-1.932,1.605-2.939c0.734-1.01,1.71-2.018,2.378-2.65
			c0.662-0.631,1.01-0.881,1.71-1.01c0.697-0.123,1.746-0.123,2.236-0.922c0.483-0.799,0.414-2.396,0.379-3.695
			c-0.031-1.303-0.031-2.313,0.072-3.32s0.315-2.018,0.42-2.941c0.104-0.924,0.104-1.764,0.419-2.688
			c0.315-0.926,0.946-1.936,1.256-1.598c0.315,0.336,0.315,2.02,0.876,3.486c0.557,1.473,1.673,2.732,2.584,3.404
			c0.908,0.672,1.605,0.756,2.584,0.59c0.98-0.168,2.235-0.59,3.037,0.123c0.807,0.715,1.154,2.564,1.605,3.654
			c0.459,1.096,1.016,1.432,1.05,0.924c0.035-0.502-0.452-1.846-0.839-2.98c-0.385-1.133-0.662-2.057-0.836-3.027
			c-0.174-0.965-0.243-1.971-0.492-2.898c-0.24-0.922-0.662-1.764-0.977-2.559c-0.313-0.801-0.521-1.557-0.838-2.355
			s-0.73-1.637-1.012-2.268c-0.28-0.631-0.42-1.051,0.069-1.176c0.489-0.129,1.606,0.043,2.587,0.42
			c0.975,0.377,1.813,0.967,2.408,0.627c0.594-0.334,0.941-1.594,1.185-2.77c0.248-1.178,0.384-2.27,0.596-3.361
			c0.208-1.092,0.489-2.184,0.767-3.277c0.283-1.09,0.559-2.186,0.943-3.193s0.873-1.932,1.33-2.646
			c0.455-0.717,0.871-1.219,1.571-1.721c0.7-0.506,1.675-1.01,2.303-0.799c0.631,0.209,0.914,1.131,1.048,2.1
			c0.145,0.969,0.145,1.975,0.352,1.975c0.209,0,0.629-1.006,1.188-1.85c0.558-0.838,1.258-1.512,1.778-2.309
			c0.526-0.801,0.874-1.723,1.294-2.521c0.422-0.797,0.905-1.473,1.573-2.143c0.665-0.674,1.501-1.348,2.167-1.85
			c0.662-0.502,1.15-0.842,1.709-0.967c0.557-0.123,1.189-0.043,1.817,0c0.63,0.043,1.255,0.043,1.081,0.502
			c-0.172,0.465-1.15,1.389-1.813,2.314c-0.662,0.924-1.015,1.848-0.839,2.313c0.177,0.461,0.871,0.461,2.095,0.377
			c1.224-0.086,2.972-0.254,4.539-0.254c1.574,0,2.972,0.168,4.192,0.338c1.223,0.168,2.271,0.336,3.144,0.756
			c0.874,0.418,1.568,1.092,2.269,1.975c0.7,0.881,1.4,1.977,1.816,2.814c0.422,0.84,0.559,1.428,0.874,1.973
			c0.318,0.549,0.808,1.053,0.28,1.555c-0.521,0.504-2.057,1.01-3.248,1.684c-1.184,0.672-2.025,1.51-2.795,2.1
			c-0.77,0.588-1.467,0.924-2.095,1.346c-0.63,0.418-1.186,0.92-1.643,1.467c-0.452,0.549-0.804,1.137-1.116,1.598
			c-0.316,0.463-0.594,0.797-0.768,1.344c-0.174,0.545-0.246,1.305,0.31,1.723c0.563,0.42,1.751,0.506,2.132,0.922
			c0.385,0.424-0.031,1.182-0.693,1.684c-0.668,0.502-1.574,0.756-2.518,1.047c-0.94,0.295-1.92,0.635-3.006,1.139
			c-1.084,0.504-2.268,1.176-3.002,1.682c-0.735,0.502-1.014,0.836-1.572,1.426c-0.558,0.59-1.402,1.43-1.99,2.102
			c-0.593,0.672-0.945,1.178-1.432,1.807c-0.488,0.631-1.117,1.385-1.921,2.102c-0.804,0.715-1.782,1.383-2.76,2.143
			c-0.978,0.756-1.956,1.598-2.763,2.645c-0.799,1.053-1.432,2.313-1.395,2.229c0.037-0.086,0.732-1.514,1.605-2.857
			c0.874-1.344,1.922-2.604,3.354-3.74c1.432-1.135,3.248-2.143,4.889-2.855c1.644-0.713,3.113-1.135,4.265-1.387
			c1.153-0.254,1.99-0.336,3.106-0.631c1.114-0.293,2.515-0.799,3.631-1.43c1.12-0.631,1.959-1.383,2.518-1.805
			c0.559-0.42,0.838-0.504,1.012,0.041c0.174,0.547,0.246,1.725,0.246,2.775c0,1.049-0.072,1.973,0.35,2.729
			c0.417,0.756,1.322,1.342,2.025,1.807c0.7,0.463,1.189,0.803,1.43,1.512c0.246,0.717,0.246,1.807,0.246,2.816
			c0,1.008,0,1.932,0,2.564c0,0.625,0,0.963,0,1.385s0,0.924,0,1.469s0,1.133-0.035,1.641c-0.038,0.502-0.104,0.924-0.174,1.764
			c-0.072,0.84-0.143,2.1-0.211,3.066c-0.066,0.967-0.139,1.641-0.171,2.311c-0.038,0.672-0.038,1.346-0.562,1.387
			c-0.523,0.043-1.57-0.545-2.34-0.881c-0.77-0.338-1.258-0.422-2.133-0.674c-0.871-0.25-2.132-0.67-3.317-1.049
			c-1.189-0.383-2.304-0.713-3.142-1.01c-0.842-0.291-1.398-0.543-1.956-0.754c-0.562-0.211-1.116-0.377-1.05,0.125
			c0.068,0.506,0.77,1.678,0.457,2.059c-0.315,0.379-1.644-0.041-3.215-0.252c-1.572-0.211-3.39-0.211-4.648-0.129
			c-1.253,0.086-1.953,0.254-3.177,1.139C301.529,329.561,299.787,331.156,298.526,331.449z"/>
		<path fill="none" stroke="#010101" stroke-width="2.1809" stroke-linecap="round" stroke-linejoin="round" d="M297.201,328.215
			c2.306-1.764,2.934-3.275,3.596-4.285c0.663-1.008,1.365-1.512,1.855-1.975c0.483-0.463,0.764-0.885,0.975-1.387
			c0.209-0.502,0.35-1.09,0.594-1.723c0.248-0.631,0.595-1.301,0.945-2.098c0.35-0.801,0.697-1.727,0.523-1.641
			c-0.174,0.084-0.874,1.176-1.293,2.143c-0.42,0.965-0.561,1.807-0.281,2.395c0.281,0.59,0.979,0.924,1.641,0.672
			c0.662-0.25,1.296-1.094,1.887-1.891c0.593-0.797,1.154-1.553,1.852-1.93c0.699-0.379,1.535-0.379,2.449-0.422
			c0.903-0.043,1.881-0.127,2.795-0.168c0.902-0.045,1.742-0.045,2.65,0.041c0.905,0.084,1.886,0.254,2.725,0.17
			c0.836-0.086,1.533-0.422,2.095-0.674s0.978-0.422,0.631-0.127c-0.348,0.293-1.47,1.053-1.712,1.682
			c-0.249,0.631,0.384,1.133,0.873,1.68c0.491,0.545,0.839,1.135,1.15,1.848c0.313,0.713,0.597,1.555,0.383,1.137
			c-0.205-0.424-0.902-2.102-1.499-3.193c-0.595-1.09-1.085-1.596-1.989-2.057c-0.909-0.465-2.236-0.885-3.741-1.348
			c-1.499-0.463-3.179-0.965-3.631-1.426c-0.452-0.465,0.318-0.883,0.909-1.305c0.59-0.422,1.012-0.838,1.469-1.26
			c0.449-0.42,0.938-0.84,0.66-0.588s-1.325,1.174-2.202,2.016c-0.87,0.842-1.565,1.598-1.778,2.354
			c-0.209,0.754,0.069,1.514,0.596,2.018c0.521,0.506,1.29,0.756,2.043,1.51c0.754,0.76,1.483,2.02,2.53,2.523"/>
		<path fill="none" stroke="#010101" stroke-width="2.1809" stroke-linecap="round" stroke-linejoin="round" d="M299.713,286.371
			c-0.206,1.764-0.206,2.773-0.24,3.697c-0.037,0.924-0.107,1.764-0.145,2.563c-0.031,0.799-0.031,1.555,0.23,2.375
			c0.262,0.818,0.787,1.699,1.412,2.207"/>
		<path fill="none" stroke="#010101" stroke-width="2.1809" stroke-linecap="round" stroke-linejoin="round" d="M299.088,305.527
			c0-2.771,0.313-3.906,0.505-4.727c0.194-0.818,0.265-1.32,0.611-1.953c0.353-0.627,0.978-1.387,1.642-2.227
			c0.662-0.84,1.364-1.766,2.163-2.311c0.807-0.545,1.716-0.709,2.447-1.006c0.732-0.295,1.293-0.715,1.956-0.971
			c0.662-0.25,1.434-0.334,2.233-0.416c0.807-0.086,1.643-0.172,2.517-0.295c0.876-0.127,1.781-0.295,1.4-0.25
			c-0.391,0.037-2.063,0.291-3.389,0.416c-1.328,0.129-2.306,0.129-2.623-0.379c-0.315-0.502,0.037-1.51,0.281-2.563
			c0.242-1.049,0.384-2.141,0.488-3.107c0.106-0.967,0.174-1.805,0.807-2.143c0.625-0.336,1.816-0.168,2.72-0.125
			c0.911,0.043,1.539-0.043,1.993-0.42c0.455-0.379,0.732-1.053,1.148-1.764c0.423-0.715,0.98-1.475,0.84-1.053
			c-0.139,0.42-0.976,2.018-0.664,2.859c0.316,0.84,1.783,0.924,2.83,1.219c1.051,0.293,1.675,0.795,1.779,0.588
			c0.104-0.215-0.31-1.137,0-1.682c0.318-0.547,1.365-0.715,2.17-0.926c0.804-0.209,1.359-0.461,2.22-0.775
			c0.854-0.314,2.007-0.695,3.682-0.441"/>
		<path fill="none" stroke="#010101" stroke-width="2.1809" stroke-linecap="round" stroke-linejoin="round" d="M299.542,306.156
			c-0.454,0.295-0.035-0.293,0.489-0.881c0.525-0.588,1.15-1.176,1.775-1.68c0.634-0.502,1.262-0.924,1.82-1.428
			s1.05-1.092,0.945-1.178c-0.104-0.082-0.804,0.336-1.227,0.84c-0.416,0.506-0.558,1.096-1.29,1.977
			C301.32,304.688,299.996,305.863,299.542,306.156z"/>
		<path fill="none" stroke="#010101" stroke-width="2.1809" stroke-linecap="round" stroke-linejoin="round" d="M298.6,306.957
			c-0.143,0.336,0.065,0.082,0.313-0.377c0.245-0.463,0.523-1.133,0.416-1.01C299.225,305.697,298.738,306.621,298.6,306.957z"/>
		<path fill="none" stroke="#010101" stroke-width="2.1809" stroke-linecap="round" stroke-linejoin="round" d="M298.281,307.84
			c0.176,0.381,0.176-0.461,0.353-1.346c0.176-0.883,0.523-1.807,0.176-2.48c-0.353-0.672-1.399-1.088-2.132-1.633
			c-0.734-0.551-1.154-1.223-1.432-1.559c-0.277-0.334-0.42-0.334-0.315-0.039c0.104,0.293,0.454,0.881,0.905,1.512
			c0.457,0.631,1.014,1.301,1.47,2.436C297.763,305.863,298.109,307.461,298.281,307.84z"/>
		<path fill="none" stroke="#010101" stroke-width="2.1809" stroke-linecap="round" stroke-linejoin="round" d="M295.176,322.84
			c0.281,0.25-0.842-0.842-2.094-1.602c-1.262-0.756-2.658-1.172-3.217-1.889c-0.556-0.713-0.278-1.721-0.032-2.352
			c0.243-0.629,0.454-0.881,0.663-1.471c0.205-0.588,0.416-1.51,0.205-0.883c-0.205,0.629-0.836,2.814-1.184,3.824
			c-0.353,1.01-0.422,0.838-0.77,0.754c-0.352-0.08-0.978-0.08-1.362-0.418c-0.384-0.336-0.523-1.01-0.593-1.68
			c-0.069-0.674-0.069-1.344-0.069-1.852c0-0.502,0-0.84,0.173-0.043c0.174,0.801,0.524,2.736-0.279,3.574
			c-0.805,0.84-2.761,0.588-4.051,0.463c-1.293-0.125-1.918-0.125-2.479-0.631c-0.559-0.506-1.047-1.512-0.839-1.553
			c0.211-0.043,1.117,0.883,1.187,1.428c0.071,0.545-0.695,0.711-1.747,1.346c-1.043,0.625-2.376,1.721-3.316,2.475
			c-0.942,0.758-1.502,1.178-1.921,1.512c-0.417,0.338-0.697,0.588,0.103-0.039c0.807-0.629,2.689-2.143,4.648-3.107
			c1.955-0.969,3.98-1.391,5.273-1.598c1.291-0.209,1.852-0.209,1.886-0.043c0.038,0.166-0.454,0.504-0.839,0.842
			c-0.382,0.336-0.665,0.67-1.15,1.172c-0.49,0.508-1.189,1.182-1.645,1.852c-0.453,0.67-0.662,1.344-0.173,0.922
			c0.489-0.416,1.679-1.932,2.76-2.855c1.085-0.922,2.058-1.26,3.246-1.428s2.583-0.168,4.122,0.631
			C293.218,320.988,294.896,322.586,295.176,322.84z"/>
		<path fill="none" stroke="#010101" stroke-width="2.1809" stroke-linecap="round" stroke-linejoin="round" d="M298.457,308.555
			c-1.887,3.779-1.887,6.174-1.887,8.338s0,4.096,0.07,6.197c0.068,2.102,0.209,4.369,0.353,6.006
			c0.136,1.641,0.277,2.65,0.313,3.699c0.034,1.051-0.035,2.143-0.243,3.275c-0.213,1.137-0.559,2.313-0.999,3.908
			c-0.433,1.594-0.962,3.613-1.376,6.133"/>
	</g>
	<path fill="#CDDC29" stroke="#010101" stroke-width="3.1733" stroke-linecap="round" stroke-linejoin="round" d="M206.413,108.625
		c3.137-3.324,2.987-8.565-0.337-11.704c-3.326-3.14-8.565-2.991-11.707,0.334c-3.136,3.327-2.987,8.565,0.336,11.705
		C198.027,112.099,203.271,111.95,206.413,108.625z"/>
	<path fill="#CDDC29" stroke="#010101" stroke-width="3.1733" stroke-linecap="round" stroke-linejoin="round" d="M185.676,66.825
		c3.141-3.325,2.992-8.565-0.337-11.706c-3.321-3.141-8.565-2.99-11.699,0.333c-3.145,3.324-2.995,8.564,0.333,11.705
		C177.294,70.298,182.54,70.147,185.676,66.825z"/>
	<path fill="#3B1313" stroke="#010101" stroke-width="3.1733" stroke-miterlimit="10" d="M66.066,111.893
		c2.645-27.804,12.557-38.412,16.666-42.476c0,0,56.505-22.616,68.405-16.56c-1.843-0.938,10.631,13.806,12.226,16.558
		c0,0.001,30.734,77.218,36.201,90.951c0,0-19.072,13.448-16.147,7.894c2.926-5.554,0-24.328,0-24.328l-16.674,11.105l-4.76-55.578
		l-15.867,23.583L135.008,85.49c0,0-15.643,9.946-20.099,13.751c-4.667,3.993-16.393,17.454-16.393,17.454
		s6.081-47.865,4.494-39.931c-1.587,7.933-10.839,14.545-17.98,20.098C77.891,102.415,66.066,111.892,66.066,111.893z"/>
	<path fill="#9C8484" stroke="#010101" stroke-width="3.1733" stroke-miterlimit="10" d="M126.94,215.576l1.194-14.79h-12.696
		v-14.015h-13.222l5.818-58.442l-25.303-3.701l2.297-27.766c7.142-5.553,16.394-12.165,17.98-20.098
		c1.587-7.934-4.494,39.931-4.494,39.931s11.726-13.461,16.393-17.454c4.457-3.806,20.099-13.751,20.099-13.751l11.106,37.552
		l15.867-23.583l4.76,55.578l16.674-11.105c0,0,2.926,18.774,0,24.328c-2.925,5.554,16.147-7.894,16.147-7.894
		c0.535,1.34,0.829,2.076,0.829,2.076l-29.367,45.722L126.94,215.576z"/>
	<path fill="none" stroke="#010101" stroke-width="3.1733" stroke-miterlimit="10" d="M126.94,215.576l1.194-14.79h-12.696v-14.015
		h-13.222l5.818-58.442l-25.303-3.701l2.297-27.766c-7.138,5.553-18.963,15.03-18.963,15.03c-0.75,7.86-0.919,17.093-0.208,27.941
		c3.569,54.739,30.601,80.869,30.601,80.869L126.94,215.576z"/>
	<path fill="#FFFFFF" stroke="#010101" stroke-width="3.1733" stroke-miterlimit="10" d="M142.411,167.862
		c0,0,5.023-5.604,5.819-9.082c0.791-3.479,0-13.054,0-13.054"/>
	<path fill="#FFFFFF" stroke="#010101" stroke-width="3.1733" stroke-linejoin="round" stroke-miterlimit="10" d="M142.411,167.862
		c0,0,7.67-4.893,11.638-10.196c3.964-5.304,5.022-11.62,5.022-11.62s0,0-2.38-8.188c-2.38-8.189-18.776-11.368-18.776-11.368
		l0.008-0.007c1.245,0.533,2.479,1.222,3.636,2.11c6.551,5.024,6.671,17.132,6.671,17.132L142.411,167.862z"/>
	<path fill="#3B1313" stroke="#010101" stroke-width="3.1733" stroke-miterlimit="10" d="M148.23,145.727
		c0,0-6.081,2.964-11.108,4.55c-5.021,1.587-12.426,0-12.426,0s0,4.318,1.055,8.505c1.058,4.188,2.384,10.823,2.384,10.823
		l14.277-1.742c0,0,5.023-5.604,5.819-9.082C149.021,155.302,148.23,145.727,148.23,145.727z"/>
	<path fill="#010101" stroke="#010101" stroke-width="3.1733" stroke-miterlimit="10" d="M126.015,124.892
		c0,0-1.061,8.462-1.32,11.37c-0.267,2.908,0,14.014,0,14.014s7.406,1.587,12.426,0c5.028-1.585,11.108-4.55,11.108-4.55
		s-0.12-12.108-6.671-17.132C135.008,123.569,126.015,124.892,126.015,124.892z"/>
	<path opacity="0.3" fill="#20BADD" d="M199.563,160.366c-5.466-13.733-36.201-90.949-36.201-90.951
		c-1.595-2.752-14.069-17.497-12.226-16.558c-11.899-6.057-68.405,16.56-68.405,16.56c-4.109,4.064-14.021,14.672-16.666,42.476
		c-0.75,7.859-0.919,17.092-0.208,27.94c3.569,54.739,30.601,80.869,30.601,80.869l30.481-5.125l44.084-7.412l29.367-45.722
		C200.392,162.441,200.098,161.706,199.563,160.366z"/>
	<path fill="#FFFFFF" stroke="#010101" stroke-width="3.1733" stroke-miterlimit="10" d="M88.104,155.367
		c0.403,1.425-0.428,2.908-1.854,3.313l0,0c-1.424,0.4-2.909-0.431-3.313-1.856c0,0-3.281-7.518-3.994-10.048
		c-0.681-2.412-1.587-9.723-1.587-9.723c-0.401-1.428,0.427-2.911,1.854-3.313l0,0c1.426-0.403,2.906,0.427,3.31,1.854
		c0,0,0.978,7.556,1.681,10.048C84.894,148.093,88.104,155.367,88.104,155.367z"/>
	<circle fill="#FFFFFF" stroke="#010101" stroke-width="3.1733" stroke-miterlimit="10" cx="89.657" cy="167.862" r="2.776"/>
	<path fill="#FFFFFF" stroke="#010101" stroke-width="2.8239" stroke-linecap="round" stroke-linejoin="round" d="M145.495,212.454
		l104.98-17.65c0,0-2.551,12.461-1.758,15.236c0.793,2.777,4.76,8.727,4.76,8.727s6.741,17.054,8.328,23.007
		c1.587,5.947,0,40.064,0,40.064l2.381,31.73l-5.552,1.984v11.107h-12.816l-2.257,9.121h-4.365l0.795,13.885l1.189,27.766
		l-59.5,17.85l-43.631-9.123v-9.121l-12.693-0.797c0,0,3.174-66.24,2.779-74.174c-0.399-7.932,0-52.123,0-52.123v-18.88
		L145.495,212.454z"/>
	<path fill="#CDDC29" stroke="#010101" stroke-width="3.1733" stroke-linecap="round" stroke-linejoin="round" d="M226.159,300.916
		c4.443-1.08,7.171-5.555,6.092-10.004c-1.077-4.439-5.554-7.168-10-6.09c-4.44,1.078-7.171,5.557-6.089,10.002
		C217.238,299.27,221.717,301.994,226.159,300.916z"/>
	<path fill="#CDDC29" stroke="#010101" stroke-width="3.1733" stroke-linecap="round" stroke-linejoin="round" d="M221.803,323.604
		c4.442-1.08,7.17-5.557,6.091-10.002c-1.079-4.441-5.557-7.172-10-6.09c-4.446,1.08-7.173,5.555-6.091,10
		C212.879,321.953,217.359,324.682,221.803,323.604z"/>
	
		<circle fill="#CDDC29" stroke="#010101" stroke-width="3.1733" stroke-linecap="round" stroke-linejoin="round" cx="225.212" cy="269.204" r="8.28"/>
	<path fill="none" stroke="#010101" stroke-width="2.8239" stroke-linecap="round" stroke-linejoin="round" d="M145.495,212.454
		l104.98-17.65c0,0-2.551,12.461-1.758,15.236c0.793,2.777,4.76,8.727,4.76,8.727s6.741,17.054,8.328,23.007
		c1.587,5.947,0,40.064,0,40.064l2.381,31.73l-5.552,1.984v11.107h-12.816l-2.257,9.121h-4.365l0.795,13.885l1.189,27.766
		l-59.5,17.85l-43.631-9.123v-9.121l-12.693-0.797c0,0,3.174-66.24,2.779-74.174c-0.399-7.932,0-52.123,0-52.123v-18.88
		L145.495,212.454z"/>
	<path fill="#273B82" stroke="#010101" stroke-width="2.8239" stroke-linecap="round" stroke-linejoin="round" d="M355.734,207.273
		c-0.779-6.169-2.262-11.575-4.151-12.47c-3.706-1.751-51.194,0-51.194,0s-40.302,2.279-45.907,4.924
		c-5.608,2.645,0,10.709,0,10.709h3.356L355.734,207.273z"/>
	<polyline fill="none" stroke="#010101" stroke-width="2.8239" stroke-linecap="round" stroke-linejoin="round" points="
		254.481,210.437 265.691,197.636 272.326,209.969 281.209,196.137 291.559,209.348 300.389,194.804 308.198,208.81 
		316.939,194.026 324.457,208.284 333.996,194.033 341.535,207.731 347.546,194.253 355.734,207.273 	"/>
	<path fill="#273B82" stroke="#010101" stroke-width="2.8239" stroke-linecap="round" stroke-linejoin="round" d="M351.511,358.678
		c0,0-11.563,3.15-17.117,3.68c-5.554,0.529-27.767,2.646-44.956,2.646c-17.187,0-48.709,1.854-48.709,1.852l0.451,10.576
		c0,0,35.832,1.588,49.052,1.059c13.228-0.529,52.888-3.174,57.117-8.465C349.456,367.396,351.428,363.98,351.511,358.678z"/>
	<path fill="#3B1313" stroke="#010101" stroke-width="3.1733" stroke-miterlimit="10" d="M351.511,358.678
		c0,0-11.563,3.15-17.117,3.68c-5.554,0.529-27.767,2.646-44.956,2.646c-17.187,0-48.709,1.854-48.709,1.852l-0.588-13.629
		l-0.15-3.561c0,0,5.553-3.156,7.934-2.77c2.379,0.389,6.344-1.178,9.519,0c3.173,1.182,8.946,2.77,12.604,2.77
		c3.657,0,12.781,1.027,13.973-1.27c1.189-2.301,3.569-3.578,7.534-1.947c3.968,1.629,4.579,3.857,8.835,1.354
		c4.256-2.5,9.809-2.865,15.362-2.088c5.554,0.779,8.331-0.316,12.693-0.365c4.362-0.047,8.044-0.838,10.964-2.227
		c2.918-1.391,8.389,0,8.389,0C350.586,349.674,351.58,354.705,351.511,358.678z"/>
	<polyline fill="none" stroke="#010101" stroke-width="2.8239" stroke-linecap="round" stroke-linejoin="round" points="
		345.104,368.637 340.354,361.369 330.229,375.053 323.042,363.363 315.154,376.637 308.203,364.395 299.488,378.025 
		290.955,364.998 280.447,378.596 269.922,365.459 259.822,377.826 255.072,366.1 243.629,377.537 	"/>
	<path opacity="0.3" fill="#20BADD" d="M241.18,377.432c0,0,35.832,1.588,49.052,1.059c13.228-0.529,52.888-3.174,57.117-8.465
		c4.234-5.289,7.935-13.748-3.171-34.373c-11.106-20.627-12.693-38.082-7.404-57.814c5.29-19.738,17.451-45.85,19.039-54.067
		c1.587-8.216-0.529-27.218-4.229-28.967c-3.706-1.751-51.194,0-51.194,0s-40.302,2.279-45.907,4.924
		c-5.608,2.645,0,10.709,0,10.709h3.356l0.133,8.331h-4.494c0,0,6.741,17.054,8.328,23.007c1.587,5.947,0,40.064,0,40.064
		l2.381,31.73l-5.552,1.984v11.107h-12.816l-2.257,9.121h-4.365l0.795,13.885L241.18,377.432"/>
	<path fill="none" stroke="#010101" stroke-width="2.8239" stroke-linecap="round" stroke-linejoin="round" d="M241.18,377.432
		c0,0,35.832,1.588,49.052,1.059c13.228-0.529,52.888-3.174,57.117-8.465c4.234-5.289,7.935-13.748-3.171-34.373
		c-11.106-20.627-12.693-38.082-7.404-57.814c5.29-19.738,17.451-45.85,19.039-54.067c1.587-8.216-0.529-27.218-4.229-28.967
		c-3.706-1.751-51.194,0-51.194,0s-40.302,2.279-45.907,4.924c-5.608,2.645,0,10.709,0,10.709h3.356l0.133,8.331h-4.494
		c0,0,6.741,17.054,8.328,23.007c1.587,5.947,0,40.064,0,40.064l2.381,31.73l-5.552,1.984v11.107h-12.816l-2.257,9.121h-4.365
		l0.795,13.885L241.18,377.432"/>
	<path fill="#FFFFFF" stroke="#010101" stroke-width="3.1733" stroke-miterlimit="10" d="M342.205,217.641
		c0.201-1.466,1.553-2.495,3.022-2.296l0,0c1.464,0.202,2.495,1.553,2.298,3.021c0,0,0.004,8.202-0.348,10.809
		c-0.34,2.482-2.426,9.548-2.426,9.548c-0.201,1.47-1.556,2.499-3.02,2.297l0,0c-1.475-0.197-2.5-1.549-2.3-3.021
		c0,0,2.118-7.316,2.472-9.884C342.243,225.592,342.205,217.641,342.205,217.641z"/>
	<path fill="#FFFFFF" stroke="#010101" stroke-width="3.0186" stroke-miterlimit="10" d="M269.053,342.102
		c0.033,1.342-1.144,2.459-2.623,2.496l0,0c-1.483,0.033-2.713-1.023-2.744-2.361c0,0-1.295-7.326-1.357-9.703
		c-0.057-2.266,0.9-8.885,0.9-8.885c-0.037-1.338,1.136-2.457,2.618-2.492l0,0c1.483-0.037,2.712,1.018,2.747,2.361
		c0,0-0.946,6.846-0.888,9.188C267.766,335.006,269.053,342.102,269.053,342.102z"/>
	<path fill="#FFFFFF" stroke="#010101" stroke-width="1.8987" stroke-miterlimit="10" d="M272.326,258.494
		c0.019,0.779-0.783,1.43-1.793,1.453l0,0c-1.01,0.027-1.847-0.582-1.865-1.361c0,0-0.865-4.25-0.9-5.627
		c-0.034-1.316,0.637-5.16,0.637-5.16c-0.024-0.778,0.779-1.43,1.789-1.456l0,0c1.01-0.024,1.846,0.587,1.865,1.368
		c0,0-0.662,3.973-0.625,5.333C271.468,254.379,272.326,258.494,272.326,258.494z"/>
	<path fill="#FFFFFF" stroke="#010101" stroke-width="1.8987" stroke-miterlimit="10" d="M279.16,258.494
		c0.019,0.779-0.786,1.43-1.796,1.453l0,0c-1.01,0.027-1.847-0.582-1.864-1.361c0,0-0.869-4.25-0.9-5.627
		c-0.032-1.316,0.633-5.16,0.633-5.16c-0.021-0.778,0.783-1.43,1.793-1.456l0,0c1.01-0.024,1.846,0.587,1.864,1.368
		c0,0-0.659,3.973-0.625,5.333C278.303,254.379,279.16,258.494,279.16,258.494z"/>
	<path fill="#CDDC29" stroke="#010101" stroke-width="3.1733" stroke-linecap="round" stroke-linejoin="round" d="M126.108,359.994
		c0,0,14.32,1.969,17.89-1.6c3.569-3.572,7.537-44.826,7.935-59.502c0.395-14.676,0-43.236-5.554-47.201
		c-5.555-3.97-18.245-1.748-18.245-1.748s-0.399,44.191,0,52.123C128.401,307.463,127.02,339.842,126.108,359.994z"/>
	<path fill="none" stroke="#010101" stroke-width="2.8239" stroke-linecap="round" stroke-linejoin="round" d="M136.028,249.324
		c0,0,3,48.359,3.046,58.297c0.075,15.07-6.177,52.889-6.177,52.889"/>
	
		<line fill="none" stroke="#010101" stroke-width="2.8239" stroke-linecap="round" stroke-linejoin="round" x1="128.134" y1="258.039" x2="148.361" y2="258.039"/>
	
		<line fill="none" stroke="#010101" stroke-width="2.8239" stroke-linecap="round" stroke-linejoin="round" x1="128.011" y1="267.475" x2="151.036" y2="267.475"/>
	<path fill="none" stroke="#010101" stroke-width="2.8239" stroke-linecap="round" stroke-linejoin="round" d="M127.963,279.855"/>
	
		<line fill="none" stroke="#010101" stroke-width="2.8239" stroke-linecap="round" stroke-linejoin="round" x1="152.042" y1="279.855" x2="127.963" y2="279.855"/>
	
		<line fill="none" stroke="#010101" stroke-width="2.8239" stroke-linecap="round" stroke-linejoin="round" x1="127.979" y1="293.402" x2="152.029" y2="293.402"/>
	
		<line fill="none" stroke="#010101" stroke-width="2.8239" stroke-linecap="round" stroke-linejoin="round" x1="128.161" y1="304.93" x2="152.042" y2="304.93"/>
	
		<line fill="none" stroke="#010101" stroke-width="2.8239" stroke-linecap="round" stroke-linejoin="round" x1="127.931" y1="314.982" x2="150.937" y2="314.982"/>
	
		<line fill="none" stroke="#010101" stroke-width="2.8239" stroke-linecap="round" stroke-linejoin="round" x1="127.359" y1="330.828" x2="149.83" y2="326.729"/>
	
		<line fill="none" stroke="#010101" stroke-width="2.8239" stroke-linecap="round" stroke-linejoin="round" x1="126.883" y1="342.289" x2="148.361" y2="339.072"/>
	<path fill="none" stroke="#010101" stroke-width="2.8239" stroke-linecap="round" stroke-linejoin="round" d="M146.705,349.578
		c0,0,17.812,0.707,34.923,0c17.109-0.707,58.202-2.682,58.202-2.682"/>
	<g>
		<path fill="#273B82" stroke="#010101" stroke-width="2.8239" stroke-linecap="round" stroke-linejoin="round" d="M188.166,278.266
			c0,0,0.735,7.131,0.661,9.916c-0.073,2.789,0,12.299,0,12.299s-30.15-24.961-21.424-51.156
			c8.726-26.194,14.675-29.02,46.011-30.557s40.063,0,40.063,0l5.157-0.684l-0.796-7.647h19.041v30.146l-14.639,4.36l-4.025-13.767
			c0,0-62.889-8.145-72.987,9.802C170.974,266.307,188.166,278.266,188.166,278.266"/>
		
			<line fill="#273B82" stroke="#010101" stroke-width="2.8239" stroke-linecap="round" stroke-linejoin="round" x1="254.481" y1="218.633" x2="254.481" y2="230.753"/>
		
			<line fill="#273B82" stroke="#010101" stroke-width="2.8239" stroke-linecap="round" stroke-linejoin="round" x1="247.924" y1="218.633" x2="247.924" y2="230.16"/>
		
			<line fill="#273B82" stroke="#010101" stroke-width="2.8239" stroke-linecap="round" stroke-linejoin="round" x1="241.57" y1="229.732" x2="241.57" y2="218.11"/>
		
			<line fill="#273B82" stroke="#010101" stroke-width="2.8239" stroke-linecap="round" stroke-linejoin="round" x1="235.235" y1="218.095" x2="235.235" y2="229.451"/>
		
			<line fill="#273B82" stroke="#010101" stroke-width="2.8239" stroke-linecap="round" stroke-linejoin="round" x1="228.879" y1="229.336" x2="228.879" y2="218.633"/>
		
			<line fill="#273B82" stroke="#010101" stroke-width="2.8239" stroke-linecap="round" stroke-linejoin="round" x1="221.348" y1="219.164" x2="221.348" y2="229.336"/>
		
			<line fill="#273B82" stroke="#010101" stroke-width="2.8239" stroke-linecap="round" stroke-linejoin="round" x1="214.867" y1="229.336" x2="214.867" y2="218.697"/>
		
			<line fill="#273B82" stroke="#010101" stroke-width="2.8239" stroke-linecap="round" stroke-linejoin="round" x1="207.535" y1="219.675" x2="208.668" y2="230.462"/>
		
			<line fill="#273B82" stroke="#010101" stroke-width="2.8239" stroke-linecap="round" stroke-linejoin="round" x1="200.392" y1="219.675" x2="203.67" y2="231.274"/>
		
			<line fill="#273B82" stroke="#010101" stroke-width="2.8239" stroke-linecap="round" stroke-linejoin="round" x1="194.771" y1="220.701" x2="198.158" y2="232.607"/>
		
			<line fill="#273B82" stroke="#010101" stroke-width="2.8239" stroke-linecap="round" stroke-linejoin="round" x1="188.826" y1="221.746" x2="193.328" y2="234.374"/>
		
			<line fill="#273B82" stroke="#010101" stroke-width="2.8239" stroke-linecap="round" stroke-linejoin="round" x1="181.904" y1="224.815" x2="188.826" y2="237.013"/>
		
			<line fill="#273B82" stroke="#010101" stroke-width="2.8239" stroke-linecap="round" stroke-linejoin="round" x1="175.647" y1="230.915" x2="185.228" y2="240.978"/>
		
			<line fill="#273B82" stroke="#010101" stroke-width="2.8239" stroke-linecap="round" stroke-linejoin="round" x1="172.676" y1="235.947" x2="182.943" y2="245.509"/>
		
			<line fill="#273B82" stroke="#010101" stroke-width="2.8239" stroke-linecap="round" stroke-linejoin="round" x1="181.038" y1="250.584" x2="169.742" y2="242.723"/>
		
			<line fill="#273B82" stroke="#010101" stroke-width="2.8239" stroke-linecap="round" stroke-linejoin="round" x1="167.402" y1="249.324" x2="179.978" y2="255.111"/>
		
			<line fill="#273B82" stroke="#010101" stroke-width="2.8239" stroke-linecap="round" stroke-linejoin="round" x1="179.643" y1="261.576" x2="165.847" y2="258.039"/>
		
			<line fill="#273B82" stroke="#010101" stroke-width="2.8239" stroke-linecap="round" stroke-linejoin="round" x1="167.402" y1="267.475" x2="180.434" y2="266.398"/>
		
			<line fill="#273B82" stroke="#010101" stroke-width="2.8239" stroke-linecap="round" stroke-linejoin="round" x1="169.742" y1="275.727" x2="181.628" y2="269.715"/>
		
			<line fill="#273B82" stroke="#010101" stroke-width="2.8239" stroke-linecap="round" stroke-linejoin="round" x1="183.208" y1="272.723" x2="173.688" y2="282.951"/>
		
			<line fill="#273B82" stroke="#010101" stroke-width="2.8239" stroke-linecap="round" stroke-linejoin="round" x1="186.015" y1="276.32" x2="177.808" y2="288.797"/>
		
			<line fill="#273B82" stroke="#010101" stroke-width="2.8239" stroke-linecap="round" stroke-linejoin="round" x1="182.943" y1="294.797" x2="188.446" y2="282.951"/>
	</g>
	<g>
		
			<path fill="#FFFFFF" stroke="#000000" stroke-width="2.7358" stroke-linecap="round" stroke-linejoin="round" stroke-miterlimit="10" d="
			M101.455,438.654c0,0,21.694,20.855,34.072,30.107c12.375,9.252,28.798,17.838,28.798,17.838l-0.003-0.004
			c-7.368,6.252-14.715,3.199-14.715,3.199s0.868,1.457-19.899-15.549c-18.375-15.043-33.016-24.1-28.287-35.592"/>
		<path fill="#273B82" stroke="#010101" stroke-width="2.8239" stroke-linecap="round" stroke-linejoin="round" d="M172.353,460.822
			c-2.626,7.793,4.04,12.535-5.026,22.797c-1.044,1.176-2.049,2.162-3.005,2.977l-0.181,0.514c0,0-16.425-8.586-28.801-17.838
			c-12.38-9.252-34.069-30.109-34.069-30.109l0.149-0.508c0.628-1.5,1.577-3.047,2.896-4.648c5.867-7.158,17.2,4.361,21.073,4.213
			c3.875-0.141,7.631-7.965,7.631-7.965"/>
		<path fill="#FFFFFF" stroke="#000000" stroke-width="2.7358" stroke-miterlimit="10" d="M156.694,387.76l-12.677,12.604
			l-6.647,8.115l-2.34,5.736l0.155,4.846l-6.356,7.762l47.978,37.646l5.487-6.705l4.336-5.285c0,0,5.963,1.348,13.858-10.459
			c7.9-11.801,9.827-11.994,9.827-11.994"/>
		<path fill="#FFFFFF" stroke="#000000" stroke-width="2.7358" stroke-miterlimit="10" d="M181.689,404.281
			c0,0-7.752,7.746-13.277,15.592c-5.755,8.15-1.461,11.508-12.587,29.055"/>
	</g>
	<g>
		<g>
			
				<path fill="#FFFFFF" stroke="#000000" stroke-width="2.7358" stroke-linecap="round" stroke-linejoin="round" stroke-miterlimit="10" d="
				M228.717,490.406c0,0,6.021-0.459,19.557-9.045c8.137-5.162,12.238-14.145,17.189-19.572
				c10.413-11.416,20.558-26.926,20.558-26.926v0.004c5.499,7.945,1.742,14.965,1.742,14.965s1.533-0.729-17.417,18.287
				c-6.486,6.504-9.549,17.396-15.826,20.881c-6.158,3.414-13.68,6.156-25.806,1.438"/>
			<path fill="#273B82" stroke="#010101" stroke-width="2.8239" stroke-linecap="round" stroke-linejoin="round" d="
				M265.999,421.295c7.499,3.371,8.023,0.268,17.351,10.285c1.074,1.154,1.952,2.254,2.671,3.287l0.491,0.234
				c0,0-8.674,17.061-20.568,26.926c-4.417,3.66-10.77,13.834-18.841,20.068c-8.09,6.246-17.895,8.545-17.895,8.545l-0.494-0.203
				c-1.433-0.76-3.564-1.4-4.347-3.328c-1.593-3.924-3.1-11.521,0.822-15.977c2.45-2.785,8.801-0.748,8.895-2.234
				c0.229-3.869-7.192-8.373-7.192-8.373"/>
			<path fill="#FFFFFF" stroke="#000000" stroke-width="2.7358" stroke-miterlimit="10" d="M145.836,389.027l52.377,57.637
				l7.428,7.412l5.481,2.889l4.842,0.314l7.102,7.084l46.998-47.145l-6.133-6.119l-4.846-4.824c0,0,1.928-5.807-9.053-14.818
				c-3.1-2.543-6.109-11.465-10.838-15.814"/>
			<path fill="#FFFFFF" stroke="#000000" stroke-width="2.7358" stroke-miterlimit="10" d="M177.784,373.643
				c0,0,39.81,41.313,47.083,47.586c7.549,6.516,6.454,5.641,22.842,18.42"/>
		</g>
		<g>
			<path fill="#CDDC29" stroke="#010101" stroke-width="1.7123" stroke-linecap="round" stroke-linejoin="round" d="
				M263.787,447.094c2.398,0.578,4.809-0.898,5.389-3.297c0.574-2.406-0.9-4.813-3.303-5.393c-2.396-0.574-4.806,0.902-5.386,3.303
				C259.913,444.105,261.388,446.521,263.787,447.094z"/>
			<path fill="#CDDC29" stroke="#010101" stroke-width="1.7123" stroke-linecap="round" stroke-linejoin="round" d="
				M256.104,456.908c2.402,0.576,4.809-0.898,5.391-3.297c0.572-2.398-0.902-4.809-3.307-5.387
				c-2.396-0.576-4.809,0.904-5.384,3.297C252.225,453.922,253.704,456.34,256.104,456.908z"/>
			<path fill="#CDDC29" stroke="#010101" stroke-width="1.7123" stroke-linecap="round" stroke-linejoin="round" d="
				M270.104,435.982c2.396,0.578,4.809-0.902,5.385-3.301c0.578-2.398-0.9-4.811-3.296-5.389c-2.405-0.576-4.817,0.9-5.394,3.299
				C266.219,432.992,267.704,435.404,270.104,435.982z"/>
		</g>
	</g>
	<g>
		<path fill="#FFFFFF" stroke="#000000" stroke-width="2.073" stroke-miterlimit="10" d="M250.629,259.916l-14.314,69.074
			c0,0-10.516,18.279-29.551,45.662c-11.08,15.951-20.216,28.787-21.393,29.48c-3.185,1.875-19.968,7.871-22.15,7.135
			c-2.185-0.734-15.167-13.611-16.3-16.615c-1.132-3.002-3.265-17.477-3.149-21.369c0.053-1.631,8.575-15.457,18.472-30.965
			c13.713-21.516,20.675-31.213,20.675-31.213l10.949-62.294"/>
		<path fill="#273B82" stroke="#010101" stroke-width="2.1398" stroke-linecap="round" stroke-linejoin="round" d="M206.764,374.652
			c-11.08,15.951-20.216,28.787-21.393,29.48c-3.185,1.875-19.968,7.871-22.15,7.135c-2.185-0.734-15.167-13.611-16.3-16.615
			c-1.132-3.002-3.265-17.477-3.149-21.369c0.053-1.631,8.575-15.457,18.472-30.965l4.849,10.619l-15.747,22.396l2.084,14.133
			l13.118,11.451l14.913-2.199l16.051-22.795L206.764,374.652z"/>
	</g>
</g>
<g id="Layer_3">
</g>
</svg>
