<?xml version="1.0" encoding="utf-8"?>
<!-- Generator: Adobe Illustrator 16.0.0, SVG Export Plug-In . SVG Version: 6.00 Build 0)  -->
<!DOCTYPE svg PUBLIC "-//W3C//DTD SVG 1.1//EN" "http://www.w3.org/Graphics/SVG/1.1/DTD/svg11.dtd">
<svg version="1.1" xmlns="http://www.w3.org/2000/svg" xmlns:xlink="http://www.w3.org/1999/xlink" x="0px" y="0px" width="400px"
	 height="500px" viewBox="0 0 400 500" enable-background="new 0 0 400 500" xml:space="preserve">
<g id="Layer_1">
	<g id="Player">
	</g>
	<g id="Layer_1_1_">
	</g>
	<path fill="#FFFFFF" stroke="#010101" stroke-width="2.8239" stroke-linecap="round" stroke-linejoin="round" d="M82.763,69.459
		c0,0,56.506-22.615,68.405-16.559c-1.843-0.939,10.631,13.806,12.226,16.557c17.876,30.786,45.306,93.027,45.306,93.027
		l-29.011,44.27l88.17-14.826c20.74-3.487,32.89-19.328,32.556-36.051c0,0-4.465-107.629-28.664-126.667
		c-21.019-16.533-51.563-12.695-77.344-8.331c-26.396,4.468-0.545,0.091-25.785,4.363c0,0-60.093,15.866-84.485,42.839
		C83.821,68.427,83.351,68.876,82.763,69.459"/>
	<path fill="#CDDC29" stroke="#010101" stroke-width="3.1733" stroke-linecap="round" stroke-linejoin="round" d="M171.056,208.207
		l29.367-45.721c0,0-37.029-93.026-37.029-93.027c17.876,30.786,45.306,93.027,45.306,93.027l-29.011,44.27L171.056,208.207z"/>
	<path fill="#CDDC29" stroke="#010101" stroke-width="3.1733" stroke-linecap="round" stroke-linejoin="round" d="M197.748,87.267
		c3.136-3.324,2.986-8.564-0.334-11.707c-3.329-3.139-8.565-2.989-11.707,0.334c-3.137,3.326-2.987,8.565,0.333,11.705
		C189.37,90.741,194.606,90.59,197.748,87.267z"/>
	<g>
		<path fill="none" stroke="#010101" stroke-width="2.1809" stroke-linecap="round" stroke-linejoin="round" d="M291.574,319.689
			c-0.697,1.34-1.256,2.688-1.678,4.033"/>
		<path fill="#139948" stroke="#010101" stroke-width="2.1809" stroke-miterlimit="10" d="M298.557,331.492
			c-1.254,0.297-2.021-0.713-2.93-1.385s-1.957-1.01-2.902-1.049c-0.942-0.043-1.781,0.209-2.442,0.584
			c-0.664,0.381-1.154,0.883-1.472,0.674c-0.313-0.209-0.451-1.133-0.52-2.187c-0.068-1.049-0.068-2.223-0.316-2.979
			c-0.242-0.76-0.731-1.09-1.258-1.09c-0.523,0-1.08,0.33-1.605,0.709c-0.522,0.381-1.014,0.803-1.711,1.348
			c-0.698,0.545-1.606,1.219-2.342,1.68c-0.731,0.463-1.287,0.713-1.922,1.094c-0.625,0.377-1.328,0.881-1.883,1.512
			c-0.559,0.632-0.98,1.388-1.293,1.052c-0.313-0.338-0.523-1.767-0.662-2.521c-0.139-0.76-0.213-0.842-0.875-0.506
			c-0.664,0.334-1.92,1.092-2.9,1.68c-0.975,0.588-1.676,1.009-2.168,1.263c-0.487,0.252-0.766,0.336-0.871,0.084
			c-0.104-0.254-0.03-0.843,0.035-1.431c0.07-0.588,0.14-1.176,0.313-2.1c0.179-0.926,0.457-2.186,0.735-3.236
			c0.279-1.049,0.558-1.889,0.945-2.815c0.381-0.922,0.871-1.933,1.605-2.938c0.734-1.008,1.709-2.018,2.377-2.647
			c0.664-0.632,1.01-0.884,1.711-1.011c0.697-0.125,1.746-0.125,2.234-0.924c0.483-0.797,0.414-2.395,0.381-3.695
			c-0.033-1.305-0.033-2.311,0.072-3.319c0.104-1.008,0.313-2.017,0.418-2.938c0.104-0.924,0.104-1.767,0.42-2.688
			c0.315-0.924,0.945-1.937,1.256-1.599c0.316,0.336,0.316,2.021,0.877,3.484c0.555,1.475,1.672,2.732,2.582,3.402
			c0.91,0.674,1.607,0.76,2.584,0.592c0.98-0.168,2.236-0.592,3.037,0.125c0.809,0.715,1.156,2.564,1.607,3.654
			c0.459,1.094,1.016,1.43,1.049,0.926c0.035-0.504-0.451-1.85-0.838-2.982c-0.386-1.133-0.662-2.061-0.836-3.028
			c-0.175-0.964-0.244-1.974-0.492-2.896c-0.24-0.925-0.662-1.765-0.979-2.563c-0.313-0.8-0.521-1.554-0.836-2.354
			c-0.317-0.797-0.731-1.635-1.013-2.266c-0.28-0.631-0.42-1.053,0.068-1.178c0.49-0.125,1.605,0.043,2.586,0.42
			c0.978,0.379,1.814,0.967,2.41,0.629c0.594-0.336,0.941-1.598,1.184-2.771c0.248-1.178,0.386-2.266,0.597-3.361
			c0.209-1.092,0.489-2.18,0.769-3.274c0.282-1.094,0.559-2.187,0.942-3.194c0.385-1.007,0.873-1.931,1.33-2.646
			c0.452-0.715,0.871-1.217,1.569-1.723c0.701-0.504,1.677-1.008,2.304-0.799c0.631,0.215,0.914,1.133,1.047,2.1
			c0.146,0.971,0.146,1.977,0.354,1.977s0.627-1.006,1.186-1.848c0.559-0.84,1.26-1.512,1.781-2.311
			c0.524-0.8,0.873-1.726,1.291-2.521c0.424-0.799,0.905-1.476,1.573-2.146c0.666-0.67,1.502-1.345,2.166-1.847
			c0.664-0.504,1.152-0.844,1.711-0.967c0.558-0.125,1.189-0.043,1.816,0c0.631,0.043,1.256,0.043,1.082,0.502
			c-0.174,0.465-1.15,1.392-1.814,2.312c-0.661,0.928-1.014,1.852-0.838,2.313c0.177,0.462,0.871,0.463,2.095,0.377
			c1.225-0.086,2.971-0.252,4.539-0.252c1.573,0,2.971,0.166,4.19,0.338c1.226,0.164,2.271,0.334,3.146,0.752
			c0.873,0.42,1.567,1.097,2.268,1.979c0.699,0.881,1.398,1.975,1.816,2.813c0.422,0.839,0.559,1.429,0.873,1.974
			c0.317,0.547,0.807,1.053,0.28,1.555c-0.521,0.502-2.057,1.01-3.248,1.68c-1.184,0.678-2.024,1.51-2.795,2.102
			c-0.77,0.591-1.467,0.925-2.096,1.347c-0.629,0.42-1.186,0.922-1.643,1.467c-0.451,0.552-0.806,1.14-1.117,1.599
			c-0.314,0.465-0.592,0.797-0.767,1.346c-0.174,0.545-0.246,1.305,0.312,1.721c0.563,0.422,1.748,0.506,2.131,0.926
			c0.385,0.418-0.033,1.178-0.695,1.682c-0.668,0.503-1.571,0.755-2.516,1.05c-0.941,0.293-1.922,0.629-3.006,1.135
			c-1.086,0.504-2.269,1.177-3.004,1.681c-0.734,0.502-1.013,0.84-1.57,1.428c-0.559,0.59-1.402,1.43-1.99,2.102
			c-0.594,0.672-0.944,1.178-1.432,1.809c-0.49,0.629-1.117,1.386-1.922,2.101c-0.803,0.715-1.781,1.385-2.76,2.144
			c-0.978,0.754-1.955,1.6-2.763,2.646c-0.799,1.053-1.432,2.312-1.395,2.229c0.036-0.086,0.731-1.515,1.604-2.859
			c0.873-1.344,1.922-2.604,3.354-3.74c1.432-1.133,3.248-2.143,4.889-2.854c1.644-0.715,3.111-1.14,4.264-1.39
			c1.154-0.252,1.99-0.338,3.107-0.631c1.113-0.295,2.514-0.797,3.631-1.428c1.119-0.63,1.959-1.386,2.517-1.806
			c0.559-0.422,0.84-0.506,1.014,0.043c0.174,0.545,0.246,1.719,0.246,2.771c0,1.051-0.072,1.976,0.35,2.731
			c0.416,0.754,1.322,1.342,2.025,1.808c0.699,0.461,1.188,0.799,1.43,1.512c0.244,0.716,0.244,1.808,0.244,2.813
			c0,1.008,0,1.933,0,2.564c0,0.627,0,0.965,0,1.383c0,0.424,0,0.928,0,1.474c0,0.545,0,1.133-0.033,1.639
			c-0.037,0.504-0.104,0.925-0.174,1.767c-0.072,0.838-0.143,2.1-0.211,3.065s-0.139,1.64-0.172,2.31
			c-0.037,0.674-0.037,1.346-0.562,1.387c-0.522,0.043-1.571-0.545-2.34-0.881c-0.771-0.334-1.26-0.42-2.133-0.672
			c-0.871-0.254-2.131-0.672-3.318-1.054c-1.188-0.379-2.303-0.713-3.143-1.01c-0.842-0.291-1.396-0.543-1.955-0.754
			c-0.561-0.207-1.117-0.375-1.049,0.129c0.067,0.502,0.768,1.678,0.455,2.058c-0.314,0.377-1.644-0.041-3.213-0.25
			c-1.574-0.216-3.392-0.216-4.648-0.13c-1.254,0.087-1.953,0.253-3.178,1.138C301.561,329.604,299.818,331.199,298.557,331.492z"/>
		<path fill="none" stroke="#010101" stroke-width="2.1809" stroke-linecap="round" stroke-linejoin="round" d="M297.232,328.26
			c2.305-1.766,2.934-3.277,3.596-4.285c0.662-1.01,1.365-1.512,1.854-1.977c0.484-0.461,0.767-0.883,0.978-1.385
			c0.207-0.502,0.35-1.09,0.592-1.727c0.25-0.63,0.599-1.298,0.947-2.097s0.696-1.726,0.522-1.642
			c-0.174,0.082-0.873,1.179-1.293,2.146c-0.42,0.963-0.563,1.808-0.281,2.396c0.283,0.588,0.979,0.924,1.642,0.672
			c0.662-0.25,1.295-1.094,1.887-1.891c0.592-0.8,1.152-1.556,1.851-1.933c0.7-0.379,1.536-0.379,2.45-0.422
			c0.902-0.041,1.882-0.125,2.796-0.168c0.901-0.044,1.739-0.044,2.649,0.043c0.904,0.084,1.885,0.25,2.726,0.168
			c0.836-0.084,1.532-0.421,2.094-0.675c0.561-0.254,0.979-0.42,0.631-0.125c-0.348,0.293-1.469,1.054-1.713,1.685
			c-0.248,0.627,0.385,1.133,0.875,1.679c0.49,0.545,0.838,1.133,1.149,1.848c0.313,0.711,0.597,1.555,0.384,1.133
			c-0.207-0.422-0.904-2.1-1.498-3.193c-0.599-1.086-1.086-1.594-1.992-2.057c-0.908-0.461-2.236-0.883-3.74-1.344
			c-1.498-0.465-3.178-0.967-3.631-1.43c-0.451-0.462,0.318-0.882,0.908-1.304c0.592-0.42,1.014-0.836,1.471-1.26
			c0.447-0.421,0.938-0.839,0.66-0.587c-0.279,0.25-1.326,1.177-2.201,2.015c-0.871,0.842-1.566,1.599-1.781,2.356
			c-0.207,0.752,0.07,1.513,0.599,2.015c0.52,0.508,1.289,0.756,2.043,1.512c0.754,0.757,1.481,2.019,2.528,2.521"/>
		<path fill="none" stroke="#010101" stroke-width="2.1809" stroke-linecap="round" stroke-linejoin="round" d="M299.744,286.416
			c-0.207,1.764-0.207,2.771-0.24,3.695c-0.039,0.928-0.107,1.766-0.145,2.563c-0.033,0.799-0.033,1.555,0.229,2.375
			s0.789,1.701,1.414,2.205"/>
		<path fill="none" stroke="#010101" stroke-width="2.1809" stroke-linecap="round" stroke-linejoin="round" d="M299.119,305.572
			c0-2.773,0.313-3.906,0.504-4.729c0.195-0.817,0.266-1.319,0.613-1.95c0.352-0.632,0.977-1.39,1.639-2.229
			c0.662-0.838,1.365-1.763,2.164-2.31c0.809-0.547,1.715-0.713,2.447-1.01c0.731-0.293,1.293-0.713,1.957-0.967
			c0.662-0.252,1.434-0.336,2.231-0.42c0.808-0.082,1.644-0.168,2.519-0.293s1.78-0.297,1.397-0.252
			c-0.389,0.041-2.061,0.293-3.387,0.42c-1.328,0.125-2.305,0.125-2.623-0.379c-0.316-0.502,0.037-1.512,0.279-2.564
			c0.243-1.049,0.385-2.141,0.487-3.104c0.107-0.968,0.175-1.808,0.81-2.144c0.625-0.336,1.815-0.17,2.719-0.129
			c0.912,0.043,1.539-0.041,1.994-0.418c0.453-0.379,0.731-1.051,1.147-1.764c0.423-0.717,0.98-1.473,0.839-1.051
			c-0.14,0.418-0.976,2.016-0.662,2.854c0.313,0.843,1.782,0.927,2.83,1.22c1.049,0.297,1.676,0.801,1.778,0.588
			c0.104-0.211-0.311-1.135,0-1.681c0.316-0.547,1.365-0.715,2.168-0.924c0.806-0.213,1.361-0.461,2.222-0.774
			c0.854-0.314,2.008-0.695,3.682-0.443"/>
		<path fill="none" stroke="#010101" stroke-width="2.1809" stroke-linecap="round" stroke-linejoin="round" d="M299.572,306.203
			c-0.453,0.293-0.035-0.295,0.49-0.883c0.524-0.588,1.149-1.176,1.774-1.684c0.633-0.503,1.263-0.925,1.82-1.427
			c0.557-0.502,1.049-1.094,0.944-1.176c-0.104-0.086-0.805,0.336-1.227,0.84c-0.416,0.504-0.559,1.092-1.291,1.978
			C301.352,304.732,300.027,305.908,299.572,306.203z"/>
		<path fill="none" stroke="#010101" stroke-width="2.1809" stroke-linecap="round" stroke-linejoin="round" d="M298.629,306.998
			c-0.141,0.338,0.068,0.086,0.313-0.377c0.246-0.461,0.523-1.133,0.418-1.006C299.254,305.74,298.768,306.664,298.629,306.998z"/>
		<path fill="none" stroke="#010101" stroke-width="2.1809" stroke-linecap="round" stroke-linejoin="round" d="M298.313,307.883
			c0.176,0.379,0.176-0.461,0.353-1.344c0.176-0.881,0.522-1.807,0.176-2.479c-0.353-0.675-1.397-1.095-2.131-1.64
			c-0.733-0.547-1.153-1.221-1.433-1.558c-0.278-0.336-0.42-0.336-0.315-0.04c0.104,0.293,0.455,0.885,0.906,1.516
			c0.457,0.627,1.012,1.297,1.469,2.437C297.793,305.908,298.141,307.506,298.313,307.883z"/>
		<path fill="none" stroke="#010101" stroke-width="2.1809" stroke-linecap="round" stroke-linejoin="round" d="M295.207,322.881
			c0.281,0.252-0.842-0.842-2.096-1.6c-1.26-0.754-2.656-1.17-3.215-1.887c-0.558-0.715-0.279-1.724-0.033-2.351
			c0.244-0.631,0.455-0.885,0.664-1.476c0.205-0.588,0.416-1.51,0.205-0.883c-0.205,0.631-0.836,2.816-1.185,3.822
			c-0.354,1.014-0.422,0.842-0.771,0.758c-0.354-0.084-0.979-0.084-1.362-0.42c-0.386-0.338-0.522-1.008-0.595-1.68
			c-0.067-0.674-0.067-1.346-0.067-1.85c0-0.502,0-0.84,0.175-0.043c0.174,0.801,0.522,2.731-0.281,3.571
			c-0.804,0.843-2.76,0.591-4.049,0.464c-1.293-0.127-1.921-0.127-2.48-0.632c-0.559-0.502-1.047-1.512-0.838-1.553
			c0.211-0.043,1.115,0.881,1.186,1.428c0.072,0.548-0.693,0.714-1.748,1.347c-1.041,0.627-2.375,1.721-3.314,2.477
			c-0.942,0.756-1.502,1.176-1.922,1.512c-0.416,0.336-0.696,0.588,0.103-0.043c0.808-0.627,2.69-2.143,4.649-3.107
			c1.955-0.967,3.979-1.387,5.273-1.598c1.289-0.207,1.852-0.207,1.887-0.039c0.035,0.166-0.455,0.502-0.84,0.838
			c-0.383,0.338-0.666,0.674-1.152,1.176c-0.487,0.507-1.188,1.181-1.643,1.851c-0.453,0.672-0.662,1.347-0.174,0.925
			c0.488-0.416,1.678-1.935,2.76-2.859c1.084-0.918,2.059-1.258,3.246-1.426c1.189-0.166,2.584-0.166,4.123,0.631
			C293.25,321.029,294.928,322.627,295.207,322.881z"/>
		<path fill="none" stroke="#010101" stroke-width="2.1809" stroke-linecap="round" stroke-linejoin="round" d="M298.488,308.596
			c-1.887,3.781-1.887,6.178-1.887,8.342s0,4.093,0.069,6.195c0.068,2.102,0.207,4.367,0.353,6.008
			c0.137,1.64,0.278,2.648,0.313,3.697c0.035,1.051-0.033,2.143-0.242,3.277c-0.215,1.135-0.559,2.313-1,3.904
			c-0.432,1.598-0.961,3.614-1.375,6.135"/>
	</g>
	<path fill="#CDDC29" stroke="#010101" stroke-width="3.1733" stroke-linecap="round" stroke-linejoin="round" d="M206.443,108.669
		c3.137-3.325,2.988-8.565-0.336-11.705c-3.326-3.139-8.565-2.991-11.708,0.334c-3.136,3.326-2.987,8.565,0.336,11.705
		C198.058,112.142,203.303,111.994,206.443,108.669z"/>
	<path fill="#CDDC29" stroke="#010101" stroke-width="3.1733" stroke-linecap="round" stroke-linejoin="round" d="M185.707,66.868
		c3.142-3.325,2.992-8.565-0.336-11.706c-3.321-3.141-8.566-2.989-11.7,0.334c-3.144,3.324-2.995,8.563,0.334,11.705
		C177.326,70.342,182.57,70.19,185.707,66.868z"/>
	<path fill="#3B1313" stroke="#010101" stroke-width="3.1733" stroke-miterlimit="10" d="M66.097,111.937
		c2.645-27.804,12.557-38.412,16.666-42.477c0,0,56.506-22.615,68.405-16.559c-1.843-0.939,10.631,13.806,12.226,16.557
		c0,0.001,30.735,77.218,36.201,90.952c0,0-19.072,13.448-16.147,7.893c2.926-5.553,0-24.328,0-24.328l-16.674,11.106l-4.76-55.579
		l-15.867,23.583l-11.106-37.552c0,0-15.643,9.946-20.099,13.751c-4.668,3.993-16.394,17.454-16.394,17.454
		s6.082-47.864,4.494-39.93c-1.587,7.932-10.839,14.544-17.98,20.098C77.922,102.458,66.097,111.935,66.097,111.937z"/>
	<path fill="#9C8484" stroke="#010101" stroke-width="3.1733" stroke-miterlimit="10" d="M126.971,215.62l1.194-14.791h-12.696
		v-14.014h-13.222l5.818-58.442l-25.303-3.701l2.298-27.766c7.141-5.553,16.393-12.166,17.98-20.098
		c1.587-7.934-4.494,39.93-4.494,39.93s11.726-13.461,16.394-17.454c4.456-3.805,20.099-13.751,20.099-13.751l11.106,37.552
		l15.867-23.583l4.76,55.579l16.674-11.106c0,0,2.926,18.775,0,24.328c-2.925,5.555,16.147-7.893,16.147-7.893
		c0.535,1.339,0.829,2.076,0.829,2.076l-29.367,45.721L126.971,215.62z"/>
	<path fill="none" stroke="#010101" stroke-width="3.1733" stroke-miterlimit="10" d="M126.971,215.62l1.194-14.791h-12.696v-14.014
		h-13.222l5.818-58.442l-25.303-3.701l2.298-27.766c-7.139,5.553-18.964,15.029-18.964,15.029c-0.75,7.86-0.918,17.093-0.208,27.941
		c3.569,54.738,30.601,80.869,30.601,80.869L126.971,215.62z"/>
	<path fill="#FFFFFF" stroke="#010101" stroke-width="3.1733" stroke-miterlimit="10" d="M142.442,167.906
		c0,0,5.023-5.604,5.819-9.082c0.791-3.479,0-13.054,0-13.054"/>
	<path fill="#FFFFFF" stroke="#010101" stroke-width="3.1733" stroke-linejoin="round" stroke-miterlimit="10" d="M142.442,167.906
		c0,0,7.67-4.893,11.638-10.196c3.965-5.303,5.022-11.619,5.022-11.619s0,0-2.38-8.189c-2.381-8.188-18.777-11.368-18.777-11.368
		l0.008-0.006c1.245,0.533,2.479,1.222,3.636,2.11c6.551,5.024,6.671,17.132,6.671,17.132L142.442,167.906z"/>
	<path fill="#3B1313" stroke="#010101" stroke-width="3.1733" stroke-miterlimit="10" d="M148.261,145.771
		c0,0-6.081,2.964-11.109,4.55c-5.021,1.586-12.426,0-12.426,0s0,4.317,1.055,8.505c1.058,4.188,2.384,10.823,2.384,10.823
		l14.277-1.742c0,0,5.023-5.604,5.819-9.082C149.052,155.346,148.261,145.771,148.261,145.771z"/>
	<path fill="#010101" stroke="#010101" stroke-width="3.1733" stroke-miterlimit="10" d="M126.046,124.935
		c0,0-1.06,8.462-1.32,11.371c-0.267,2.909,0,14.015,0,14.015s7.406,1.586,12.426,0c5.028-1.585,11.109-4.55,11.109-4.55
		s-0.121-12.108-6.671-17.132C135.039,123.613,126.046,124.935,126.046,124.935z"/>
	<path opacity="0.3" fill="#20BADD" enable-background="new    " d="M199.594,160.41c-5.465-13.734-36.201-90.95-36.201-90.952
		c-1.595-2.751-14.069-17.497-12.226-16.557C139.268,46.844,82.762,69.46,82.762,69.46c-4.109,4.065-14.021,14.673-16.666,42.477
		c-0.75,7.859-0.918,17.092-0.208,27.94c3.569,54.738,30.601,80.869,30.601,80.869l30.481-5.125l44.085-7.413l29.367-45.721
		C200.422,162.485,200.128,161.749,199.594,160.41z"/>
	<path fill="#FFFFFF" stroke="#010101" stroke-width="3.1733" stroke-miterlimit="10" d="M88.135,155.411
		c0.404,1.425-0.427,2.908-1.854,3.313l0,0c-1.424,0.4-2.909-0.43-3.313-1.855c0,0-3.281-7.519-3.995-10.048
		c-0.681-2.413-1.587-9.724-1.587-9.724c-0.401-1.428,0.428-2.911,1.854-3.313l0,0c1.426-0.403,2.907,0.427,3.31,1.854
		c0,0,0.978,7.556,1.68,10.048C84.924,148.136,88.135,155.411,88.135,155.411z"/>
	<circle fill="#FFFFFF" stroke="#010101" stroke-width="3.1733" stroke-miterlimit="10" cx="89.688" cy="167.906" r="2.776"/>
	<path fill="#CDDC29" stroke="#010101" stroke-width="3.1733" stroke-linecap="round" stroke-linejoin="round" d="M226.189,300.961
		c4.442-1.08,7.172-5.557,6.092-10.002c-1.076-4.443-5.555-7.172-10-6.092c-4.439,1.078-7.17,5.557-6.088,10.002
		C217.27,299.313,221.748,302.039,226.189,300.961z"/>
	
		<circle fill="#CDDC29" stroke="#010101" stroke-width="3.1733" stroke-linecap="round" stroke-linejoin="round" cx="219.878" cy="315.601" r="8.28"/>
	<path fill="#CDDC29" stroke="#010101" stroke-width="3.1733" stroke-linecap="round" stroke-linejoin="round" d="M227.197,277.295
		c4.443-1.08,7.174-5.557,6.092-10.002c-1.08-4.443-5.557-7.172-10-6.092s-7.172,5.557-6.092,10.002
		C218.273,275.65,222.758,278.375,227.197,277.295z"/>
	<path fill="#273B82" stroke="#010101" stroke-width="2.8239" stroke-linecap="round" stroke-linejoin="round" d="M355.766,207.317
		c-0.78-6.169-2.264-11.575-4.151-12.47c-3.705-1.751-51.193,0-51.193,0s-40.303,2.279-45.907,4.924c-5.607,2.645,0,10.709,0,10.709
		h3.354L355.766,207.317z"/>
	<polyline fill="none" stroke="#010101" stroke-width="2.8239" stroke-linecap="round" stroke-linejoin="round" points="
		254.512,210.48 265.723,197.679 272.355,210.013 281.24,196.181 291.59,209.392 300.42,194.847 308.229,208.854 316.971,194.07 
		324.488,208.327 334.025,194.076 341.566,207.775 347.578,194.297 355.766,207.317 	"/>
	<path fill="#273B82" stroke="#010101" stroke-width="2.8239" stroke-linecap="round" stroke-linejoin="round" d="M351.541,358.719
		c0,0-11.563,3.156-17.117,3.684c-5.555,0.529-27.766,2.646-44.955,2.646c-17.188,0-48.711,1.85-48.711,1.848l0.453,10.58
		c0,0,35.832,1.584,49.051,1.06c13.227-0.529,52.89-3.175,57.117-8.466C349.488,367.439,351.459,364.021,351.541,358.719z"/>
	<path fill="#3B1313" stroke="#010101" stroke-width="3.1733" stroke-miterlimit="10" d="M351.541,358.719
		c0,0-11.563,3.156-17.117,3.684c-5.555,0.529-27.766,2.646-44.955,2.646c-17.188,0-48.711,1.85-48.711,1.848l-0.586-13.625
		l-0.15-3.563c0,0,5.552-3.151,7.933-2.769c2.381,0.392,6.346-1.178,9.521,0c3.174,1.183,8.946,2.769,12.604,2.769
		c3.655,0,12.78,1.03,13.973-1.269c1.188-2.301,3.568-3.578,7.533-1.948c3.967,1.631,4.58,3.858,8.836,1.356
		c4.256-2.5,9.807-2.869,15.361-2.09c5.554,0.779,8.33-0.314,12.692-0.361c4.363-0.049,8.045-0.84,10.966-2.229
		c2.918-1.393,8.389,0,8.389,0C350.617,349.719,351.611,354.746,351.541,358.719z"/>
	<polyline fill="none" stroke="#010101" stroke-width="2.8239" stroke-linecap="round" stroke-linejoin="round" points="
		345.135,368.682 340.385,361.414 330.26,375.094 323.072,363.408 315.186,376.68 308.234,364.439 299.52,378.07 290.986,365.039 
		280.479,378.641 269.951,365.5 259.854,377.873 255.104,366.145 243.66,377.578 	"/>
	<path opacity="0.3" fill="#20BADD" enable-background="new    " d="M241.211,377.477c0,0,35.832,1.584,49.051,1.06
		c13.227-0.529,52.89-3.175,57.117-8.466c4.234-5.288,7.937-13.75-3.17-34.375c-11.107-20.629-12.693-38.079-7.404-57.813
		c5.291-19.737,17.451-45.85,19.039-54.066c1.586-8.217-0.528-27.217-4.229-28.967c-3.705-1.751-51.193,0-51.193,0
		s-40.303,2.279-45.907,4.924c-5.607,2.645,0,10.709,0,10.709h3.354l0.135,8.33h-4.494c0,0,6.74,17.056,8.328,23.006
		c1.586,5.95,0,40.063,0,40.063l2.379,31.734l-5.551,1.982v11.108H245.85l-2.257,9.121h-4.366l0.797,13.881L241.211,377.477"/>
	<path fill="none" stroke="#010101" stroke-width="2.8239" stroke-linecap="round" stroke-linejoin="round" d="M241.211,377.477
		c0,0,35.832,1.584,49.051,1.06c13.227-0.529,52.89-3.175,57.117-8.466c4.234-5.288,7.937-13.75-3.17-34.375
		c-11.107-20.629-12.693-38.079-7.404-57.813c5.291-19.737,17.451-45.85,19.039-54.066c1.586-8.217-0.528-27.217-4.229-28.967
		c-3.705-1.751-51.193,0-51.193,0s-40.303,2.279-45.907,4.924c-5.607,2.645,0,10.709,0,10.709h3.354l0.135,8.33h-4.494
		c0,0,6.74,17.056,8.328,23.006c1.586,5.95,0,40.063,0,40.063l2.379,31.734l-5.551,1.982v11.108H245.85l-2.257,9.121h-4.366
		l0.797,13.881L241.211,377.477"/>
	<path fill="#FFFFFF" stroke="#010101" stroke-width="3.1733" stroke-miterlimit="10" d="M342.236,217.685
		c0.2-1.467,1.553-2.495,3.021-2.296l0,0c1.465,0.202,2.496,1.554,2.297,3.021c0,0,0.006,8.202-0.346,10.808
		c-0.34,2.482-2.428,9.55-2.428,9.55c-0.199,1.469-1.554,2.495-3.019,2.297l0,0c-1.475-0.2-2.502-1.552-2.301-3.024
		c0,0,2.119-7.315,2.471-9.883C342.273,225.635,342.236,217.685,342.236,217.685z"/>
	<path fill="#FFFFFF" stroke="#010101" stroke-width="3.0186" stroke-miterlimit="10" d="M269.084,342.146
		c0.031,1.34-1.143,2.455-2.623,2.496l0,0c-1.484,0.03-2.713-1.027-2.744-2.365c0,0-1.297-7.322-1.357-9.701
		c-0.057-2.266,0.9-8.885,0.9-8.885c-0.037-1.338,1.135-2.459,2.617-2.492l0,0c1.484-0.037,2.713,1.018,2.748,2.361
		c0,0-0.947,6.848-0.887,9.188C267.797,335.051,269.084,342.146,269.084,342.146z"/>
	<path fill="#FFFFFF" stroke="#010101" stroke-width="1.8987" stroke-miterlimit="10" d="M272.355,258.541
		c0.02,0.773-0.781,1.426-1.791,1.453l0,0c-1.01,0.025-1.847-0.586-1.865-1.363c0,0-0.865-4.25-0.9-5.629
		c-0.035-1.318,0.637-5.161,0.637-5.161c-0.024-0.775,0.779-1.427,1.789-1.454l0,0c1.01-0.026,1.847,0.585,1.865,1.365
		c0,0-0.664,3.973-0.625,5.335C271.498,254.424,272.355,258.541,272.355,258.541z"/>
	<path fill="#FFFFFF" stroke="#010101" stroke-width="1.8987" stroke-miterlimit="10" d="M279.191,258.541
		c0.018,0.773-0.785,1.426-1.797,1.453l0,0c-1.011,0.025-1.847-0.586-1.863-1.363c0,0-0.869-4.25-0.9-5.629
		c-0.033-1.318,0.633-5.161,0.633-5.161c-0.021-0.775,0.783-1.427,1.791-1.454l0,0c1.012-0.026,1.848,0.585,1.865,1.365
		c0,0-0.658,3.973-0.625,5.335C278.332,254.424,279.191,258.541,279.191,258.541z"/>
	<path fill="#FFFFFF" stroke="#010101" stroke-width="2.8239" stroke-linecap="round" stroke-linejoin="round" d="M145.527,212.51
		l104.98-17.65c0,0-2.553,12.46-1.758,15.236c0.793,2.778,4.76,8.727,4.76,8.727s6.74,17.056,8.328,23.006
		c1.588,5.951,0,40.065,0,40.065l2.381,31.733l-5.553,1.981v11.109h-12.813l-2.259,9.121h-4.364l0.795,13.881l1.188,27.771
		l-59.5,17.848l-43.631-9.121v-9.122l-12.693-0.796c0,0,3.174-66.239,2.778-74.176c-0.398-7.933,0-52.125,0-52.125v-18.881
		L145.527,212.51z"/>
	<path fill="#CDDC29" stroke="#010101" stroke-width="3.1733" stroke-linecap="round" stroke-linejoin="round" d="M126.14,360.035
		c0,0,14.32,1.971,17.889-1.6c3.569-3.572,7.537-44.822,7.935-59.5c0.396-14.672,0-43.234-5.554-47.203
		c-5.554-3.966-18.245-1.748-18.245-1.748s-0.398,44.192,0,52.125C128.432,307.506,127.051,339.885,126.14,360.035z"/>
	<path fill="none" stroke="#010101" stroke-width="2.8239" stroke-linecap="round" stroke-linejoin="round" d="M136.059,249.369
		c0,0,3,48.359,3.046,58.295c0.075,15.07-6.177,52.891-6.177,52.891"/>
	
		<line fill="none" stroke="#010101" stroke-width="2.8239" stroke-linecap="round" stroke-linejoin="round" x1="128.165" y1="258.078" x2="148.392" y2="258.078"/>
	
		<line fill="none" stroke="#010101" stroke-width="2.8239" stroke-linecap="round" stroke-linejoin="round" x1="128.042" y1="267.518" x2="151.066" y2="267.518"/>
	<path fill="none" stroke="#010101" stroke-width="2.8239" stroke-linecap="round" stroke-linejoin="round" d="M127.994,279.896"/>
	
		<line fill="none" stroke="#010101" stroke-width="2.8239" stroke-linecap="round" stroke-linejoin="round" x1="152.073" y1="279.896" x2="127.994" y2="279.896"/>
	
		<line fill="none" stroke="#010101" stroke-width="2.8239" stroke-linecap="round" stroke-linejoin="round" x1="128.01" y1="293.447" x2="152.06" y2="293.447"/>
	
		<line fill="none" stroke="#010101" stroke-width="2.8239" stroke-linecap="round" stroke-linejoin="round" x1="128.191" y1="304.973" x2="152.073" y2="304.973"/>
	
		<line fill="none" stroke="#010101" stroke-width="2.8239" stroke-linecap="round" stroke-linejoin="round" x1="127.962" y1="315.023" x2="150.967" y2="315.023"/>
	
		<line fill="none" stroke="#010101" stroke-width="2.8239" stroke-linecap="round" stroke-linejoin="round" x1="127.39" y1="330.869" x2="149.861" y2="326.773"/>
	
		<line fill="none" stroke="#010101" stroke-width="2.8239" stroke-linecap="round" stroke-linejoin="round" x1="126.914" y1="342.334" x2="148.392" y2="339.115"/>
	<path fill="none" stroke="#010101" stroke-width="2.8239" stroke-linecap="round" stroke-linejoin="round" d="M146.735,349.623
		c0,0,17.813,0.705,34.924,0c17.109-0.707,58.202-2.684,58.202-2.684"/>
	<g>
		<path fill="#273B82" stroke="#010101" stroke-width="2.8239" stroke-linecap="round" stroke-linejoin="round" d="M188.197,278.309
			c0,0,0.734,7.129,0.66,9.92c-0.072,2.789,0,12.295,0,12.295s-30.149-24.959-21.424-51.154
			c8.726-26.195,14.675-29.021,46.01-30.558c31.336-1.538,40.063,0,40.063,0l5.156-0.684l-0.797-7.646h19.041v30.146l-14.638,4.36
			l-4.026-13.768c0,0-62.888-8.145-72.986,9.804C171.005,266.352,188.197,278.309,188.197,278.309"/>
		
			<line fill="none" stroke="#010101" stroke-width="2.8239" stroke-linecap="round" stroke-linejoin="round" x1="254.512" y1="218.677" x2="254.512" y2="230.797"/>
		
			<line fill="none" stroke="#010101" stroke-width="2.8239" stroke-linecap="round" stroke-linejoin="round" x1="247.953" y1="218.677" x2="247.953" y2="230.204"/>
		
			<line fill="none" stroke="#010101" stroke-width="2.8239" stroke-linecap="round" stroke-linejoin="round" x1="241.6" y1="229.776" x2="241.6" y2="218.154"/>
		
			<line fill="none" stroke="#010101" stroke-width="2.8239" stroke-linecap="round" stroke-linejoin="round" x1="235.266" y1="218.139" x2="235.266" y2="229.495"/>
		
			<line fill="none" stroke="#010101" stroke-width="2.8239" stroke-linecap="round" stroke-linejoin="round" x1="228.91" y1="229.38" x2="228.91" y2="218.677"/>
		
			<line fill="none" stroke="#010101" stroke-width="2.8239" stroke-linecap="round" stroke-linejoin="round" x1="221.379" y1="219.208" x2="221.379" y2="229.38"/>
		
			<line fill="none" stroke="#010101" stroke-width="2.8239" stroke-linecap="round" stroke-linejoin="round" x1="214.896" y1="229.38" x2="214.896" y2="218.741"/>
		
			<line fill="none" stroke="#010101" stroke-width="2.8239" stroke-linecap="round" stroke-linejoin="round" x1="207.566" y1="219.719" x2="208.699" y2="230.506"/>
		
			<line fill="none" stroke="#010101" stroke-width="2.8239" stroke-linecap="round" stroke-linejoin="round" x1="200.422" y1="219.719" x2="203.701" y2="231.317"/>
		
			<line fill="none" stroke="#010101" stroke-width="2.8239" stroke-linecap="round" stroke-linejoin="round" x1="194.801" y1="220.745" x2="198.189" y2="232.651"/>
		
			<line fill="none" stroke="#010101" stroke-width="2.8239" stroke-linecap="round" stroke-linejoin="round" x1="188.857" y1="221.79" x2="193.358" y2="234.418"/>
		
			<line fill="none" stroke="#010101" stroke-width="2.8239" stroke-linecap="round" stroke-linejoin="round" x1="181.935" y1="224.859" x2="188.857" y2="237.058"/>
		
			<line fill="none" stroke="#010101" stroke-width="2.8239" stroke-linecap="round" stroke-linejoin="round" x1="175.678" y1="230.958" x2="185.258" y2="241.023"/>
		
			<line fill="none" stroke="#010101" stroke-width="2.8239" stroke-linecap="round" stroke-linejoin="round" x1="172.707" y1="235.989" x2="182.974" y2="245.551"/>
		
			<line fill="none" stroke="#010101" stroke-width="2.8239" stroke-linecap="round" stroke-linejoin="round" x1="181.069" y1="250.63" x2="169.773" y2="242.765"/>
		
			<line fill="none" stroke="#010101" stroke-width="2.8239" stroke-linecap="round" stroke-linejoin="round" x1="167.433" y1="249.369" x2="180.008" y2="255.154"/>
		
			<line fill="none" stroke="#010101" stroke-width="2.8239" stroke-linecap="round" stroke-linejoin="round" x1="179.674" y1="261.619" x2="165.878" y2="258.078"/>
		
			<line fill="none" stroke="#010101" stroke-width="2.8239" stroke-linecap="round" stroke-linejoin="round" x1="167.433" y1="267.518" x2="180.465" y2="266.443"/>
		
			<line fill="none" stroke="#010101" stroke-width="2.8239" stroke-linecap="round" stroke-linejoin="round" x1="169.773" y1="275.77" x2="181.66" y2="269.762"/>
		
			<line fill="none" stroke="#010101" stroke-width="2.8239" stroke-linecap="round" stroke-linejoin="round" x1="183.238" y1="272.764" x2="173.719" y2="282.996"/>
		
			<line fill="none" stroke="#010101" stroke-width="2.8239" stroke-linecap="round" stroke-linejoin="round" x1="186.046" y1="276.365" x2="177.839" y2="288.842"/>
		
			<line fill="none" stroke="#010101" stroke-width="2.8239" stroke-linecap="round" stroke-linejoin="round" x1="182.974" y1="294.84" x2="188.477" y2="282.996"/>
	</g>
	<path fill="none" stroke="#010101" stroke-width="2.8239" stroke-linecap="round" stroke-linejoin="round" d="M143.222,387.275
		l-5.143-1.072v-9.123l-12.693-0.795c0,0,3.174-66.24,2.779-74.176c-0.398-7.933,0-52.125,0-52.125v-18.879l17.36-18.609
		l104.979-17.65c0,0-2.551,12.46-1.756,15.236c0.793,2.778,4.76,8.727,4.76,8.727s6.74,17.056,8.328,23.006
		c1.586,5.95,0,40.063,0,40.063l2.379,31.734l-5.551,1.982v11.108h-12.816l-2.256,9.121h-4.367l0.797,13.881l1.189,27.771
		l-59.501,17.848l-17.729-3.709"/>
	<g>
		
			<path fill="#FFFFFF" stroke="#000000" stroke-width="2.7358" stroke-linecap="round" stroke-linejoin="round" stroke-miterlimit="10" d="
			M133.954,480.564c0,0,30.03,1.934,45.456,1.012c15.426-0.92,33.51-4.959,33.51-4.959h-0.004c-1.596,9.528-9.176,11.94-9.176,11.94
			s1.604,0.552-25.233,0.959c-23.749,0.369-40.774,2.898-44.576-8.932"/>
		<path fill="#273B82" stroke="#010101" stroke-width="2.8239" stroke-linecap="round" stroke-linejoin="round" d="M208.031,452.93
			c3.027,7.65,5.563,5.785,5.26,19.472c-0.037,1.575-0.17,2.977-0.375,4.217l0.193,0.508c0,0-18.092,4.039-33.513,4.963
			c-15.429,0.918-45.455-1.014-45.455-1.014l-0.211-0.488c-0.492-1.549-0.767-3.344-0.793-5.418
			c-0.137-9.26,15.958-7.77,18.819-10.381c2.869-2.607,0.686-11.01,0.686-11.01"/>
		<path fill="#FFFFFF" stroke="#000000" stroke-width="2.7358" stroke-miterlimit="10" d="M142.912,387.213l-1.156,36.635
			l0.16,10.488l1.913,5.894l3.249,3.602l0.149,10.029l66.562-1.021l-0.137-8.662l-0.101-6.834c0,0,5.425-2.821,3.837-16.934
			c-1.58-14.111-0.229-15.504-0.229-15.504"/>
		<path fill="#FFFFFF" stroke="#000000" stroke-width="2.7358" stroke-miterlimit="10" d="M178.678,417.402
			c0,0-0.925-2.769-0.081,6.791c0.863,9.938,0.692,8.549,3.521,29.131"/>
	</g>
	<g>
		<g>
			
				<path fill="#FFFFFF" stroke="#000000" stroke-width="2.7358" stroke-linecap="round" stroke-linejoin="round" stroke-miterlimit="10" d="
				M264.814,483.842c0,0,3.606-29.875,3.551-45.328c-0.057-15.453-3.08-33.737-3.08-33.737v0.006
				c9.422,2.127,11.41,9.828,11.41,9.828s0.639-1.568-0.451,25.25c-0.959,23.729,0.617,40.871-11.406,44.008"/>
			<path fill="#273B82" stroke="#010101" stroke-width="2.8239" stroke-linecap="round" stroke-linejoin="round" d="
				M241.363,408.338c7.803-2.598,6.086-5.234,19.734-4.166c1.567,0.129,2.961,0.336,4.188,0.609l0.52-0.162
				c0,0,3.021,18.287,3.078,33.734c0.063,15.459-3.547,45.332-3.547,45.332l-0.498,0.182c-1.578,0.399-3.385,0.578-5.455,0.49
				c-9.254-0.384-6.869-16.371-9.316-19.371c-2.438-3.011-10.952-1.301-10.952-1.301"/>
			<path fill="#FFFFFF" stroke="#000000" stroke-width="2.7358" stroke-miterlimit="10" d="M212.92,383.227
				c3.652,11.676,13.869,24.162,13.869,24.162l6.146-5.153l8.66,0.348l-2.701,66.514l-18.24-8.621l-3.775,3.043l-5.988,1.584
				c0,0-16.822,0.652-21.686-1.778c-5.739-2.865-11.555-10.978-11.555-10.978l-19.917-32.993l-14.82-32.761"/>
			<path fill="#FFFFFF" stroke="#000000" stroke-width="2.7358" stroke-miterlimit="10" d="M240.307,434.232
				c-20.707,1.674-18.969,4.297-28.938,4.606c-9.593,0.305-19.412-14.813-19.412-14.813l-26.746-30.831"/>
		</g>
		<g>
			<path fill="#CDDC29" stroke="#010101" stroke-width="1.7123" stroke-linecap="round" stroke-linejoin="round" d="
				M254.111,430.617c2.193-1.129,3.051-3.826,1.924-6.019c-1.135-2.194-3.826-3.057-6.025-1.924
				c-2.188,1.133-3.045,3.822-1.914,6.021C249.229,430.887,251.92,431.746,254.111,430.617z"/>
			<path fill="#CDDC29" stroke="#010101" stroke-width="1.7123" stroke-linecap="round" stroke-linejoin="round" d="
				M254.713,443.064c2.199-1.132,3.055-3.824,1.926-6.019c-1.137-2.19-3.828-3.053-6.024-1.916
				c-2.189,1.131-3.046,3.826-1.919,6.014C249.826,443.344,252.525,444.205,254.713,443.064z"/>
			<path fill="#CDDC29" stroke="#010101" stroke-width="1.7123" stroke-linecap="round" stroke-linejoin="round" d="
				M251.627,418.078c2.193-1.129,3.055-3.828,1.918-6.021c-1.129-2.188-3.822-3.055-6.014-1.924
				c-2.195,1.138-3.059,3.832-1.926,6.025C246.738,418.352,249.436,419.209,251.627,418.078z"/>
		</g>
	</g>
	<g>
		<path fill="#FFFFFF" stroke="#000000" stroke-width="2.073" stroke-miterlimit="10" d="M243.539,247.421l4.305,68.55
			c0,0-3.42,20.811-11.611,53.139c-4.768,18.826-8.811,34.057-9.662,35.114c-2.327,2.882-15.926,14.392-18.229,14.472
			c-2.305,0.08-18.985-7.414-21.104-9.826c-2.114-2.41-9.201-15.219-10.459-18.9c-0.526-1.543,2.594-17.482,6.406-35.479
			c5.276-24.965,8.387-36.49,8.387-36.49l-6.321-63.459"/>
		<path fill="#273B82" stroke="#010101" stroke-width="2.1398" stroke-linecap="round" stroke-linejoin="round" d="M236.232,369.109
			c-4.769,18.826-8.812,34.057-9.662,35.114c-2.328,2.882-15.926,14.392-18.229,14.472c-2.305,0.08-18.985-7.414-21.104-9.826
			c-2.114-2.41-9.201-15.219-10.459-18.9c-0.526-1.543,2.594-17.482,6.406-35.479l8.274,8.236l-6.866,26.5l6.917,12.497
			l16.306,6.113l13.188-7.303l7.016-26.979L236.232,369.109z"/>
	</g>
	<g id="Layer_3">
	</g>
</g>
<g id="Isolation_Mode">
</g>
</svg>
