<?xml version="1.0" encoding="utf-8"?>
<!-- Generator: Adobe Illustrator 16.0.0, SVG Export Plug-In . SVG Version: 6.00 Build 0)  -->
<!DOCTYPE svg PUBLIC "-//W3C//DTD SVG 1.1//EN" "http://www.w3.org/Graphics/SVG/1.1/DTD/svg11.dtd">
<svg version="1.1" id="Layer_1" xmlns="http://www.w3.org/2000/svg" xmlns:xlink="http://www.w3.org/1999/xlink" x="0px" y="0px"
	 width="400px" height="500px" viewBox="0 0 400 500" enable-background="new 0 0 400 500" xml:space="preserve">
<g id="Player">
</g>
<g id="Layer_1_1_">
</g>
<g id="Layer_4">
</g>
<g id="Layer_3">
	<path fill="#FFFFFF" stroke="#010101" stroke-width="2.8239" stroke-linecap="round" stroke-linejoin="round" d="M82.728,69.438
		c0,0,56.505-22.615,68.405-16.56c-1.843-0.938,10.631,13.806,12.226,16.558c17.876,30.785,45.306,93.027,45.306,93.027
		l-29.011,44.269l88.171-14.826c20.739-3.486,32.889-19.328,32.555-36.051c0,0-4.465-107.629-28.664-126.667
		c-21.019-16.534-51.563-12.694-77.344-8.33c-26.396,4.467-0.545,0.091-25.785,4.363c0,0-60.093,15.866-84.485,42.839
		C83.786,68.406,83.315,68.854,82.728,69.438"/>
	<path fill="#CDDC29" stroke="#010101" stroke-width="3.1733" stroke-linecap="round" stroke-linejoin="round" d="M171.021,208.185
		l29.366-45.721c0,0-37.029-93.026-37.029-93.027c17.876,30.785,45.306,93.027,45.306,93.027l-29.011,44.269L171.021,208.185z"/>
	<path fill="#CDDC29" stroke="#010101" stroke-width="3.1733" stroke-linecap="round" stroke-linejoin="round" d="M197.713,87.244
		c3.137-3.323,2.987-8.563-0.333-11.706c-3.329-3.139-8.565-2.989-11.707,0.334c-3.137,3.326-2.987,8.565,0.333,11.704
		C189.335,90.719,194.572,90.568,197.713,87.244z"/>
	<g>
		<path fill="none" stroke="#010101" stroke-width="2.1809" stroke-linecap="round" stroke-linejoin="round" d="M291.539,319.668
			c-0.699,1.342-1.258,2.688-1.678,4.033"/>
		<path fill="#139948" stroke="#010101" stroke-width="2.1809" stroke-miterlimit="10" d="M298.521,331.471
			c-1.256,0.297-2.021-0.713-2.931-1.383c-0.909-0.674-1.957-1.012-2.901-1.051c-0.943-0.043-1.781,0.209-2.445,0.586
			c-0.662,0.379-1.154,0.881-1.469,0.672c-0.313-0.207-0.451-1.133-0.521-2.186c-0.066-1.049-0.066-2.223-0.314-2.98
			c-0.244-0.76-0.731-1.092-1.26-1.092c-0.522,0-1.078,0.332-1.604,0.713c-0.523,0.379-1.014,0.801-1.711,1.346
			c-0.699,0.545-1.609,1.219-2.344,1.68c-0.73,0.464-1.287,0.716-1.92,1.095c-0.625,0.377-1.328,0.881-1.884,1.512
			c-0.559,0.632-0.979,1.388-1.295,1.05c-0.313-0.336-0.522-1.767-0.662-2.519c-0.139-0.761-0.211-0.843-0.872-0.506
			c-0.666,0.334-1.921,1.094-2.902,1.682c-0.976,0.586-1.674,1.007-2.166,1.261c-0.488,0.252-0.766,0.338-0.871,0.082
			c-0.104-0.252-0.031-0.841,0.035-1.429c0.07-0.588,0.139-1.176,0.313-2.101c0.176-0.926,0.457-2.186,0.734-3.235
			c0.281-1.049,0.559-1.89,0.945-2.815c0.383-0.922,0.871-1.933,1.606-2.938c0.733-1.009,1.709-2.019,2.377-2.647
			c0.662-0.632,1.011-0.882,1.709-1.011c0.697-0.125,1.748-0.125,2.236-0.924c0.483-0.797,0.413-2.396,0.381-3.695
			c-0.033-1.303-0.033-2.311,0.069-3.319c0.105-1.008,0.316-2.017,0.42-2.939c0.104-0.923,0.104-1.766,0.421-2.688
			c0.313-0.924,0.944-1.935,1.256-1.599c0.313,0.336,0.313,2.021,0.877,3.484c0.556,1.475,1.672,2.731,2.582,3.401
			c0.908,0.674,1.604,0.76,2.584,0.59c0.979-0.168,2.235-0.59,3.037,0.127c0.807,0.716,1.153,2.564,1.604,3.654
			c0.461,1.092,1.017,1.43,1.051,0.924c0.035-0.502-0.45-1.848-0.84-2.979c-0.385-1.133-0.662-2.062-0.836-3.028
			c-0.174-0.964-0.242-1.974-0.49-2.896c-0.241-0.924-0.661-1.764-0.979-2.563c-0.313-0.8-0.521-1.554-0.836-2.354
			c-0.318-0.798-0.732-1.636-1.014-2.267c-0.279-0.631-0.418-1.053,0.07-1.178c0.487-0.127,1.604,0.043,2.586,0.418
			c0.975,0.381,1.813,0.969,2.41,0.631c0.594-0.336,0.938-1.596,1.184-2.772c0.248-1.175,0.385-2.267,0.596-3.359
			c0.209-1.09,0.488-2.182,0.768-3.274c0.283-1.094,0.558-2.187,0.941-3.195c0.385-1.006,0.875-1.93,1.33-2.645
			c0.455-0.718,0.871-1.22,1.572-1.726c0.699-0.504,1.674-1.006,2.303-0.799c0.631,0.215,0.914,1.133,1.047,2.1
			c0.145,0.972,0.145,1.979,0.354,1.979c0.207,0,0.627-1.008,1.187-1.85c0.56-0.839,1.259-1.513,1.779-2.312
			c0.526-0.8,0.873-1.724,1.293-2.521c0.422-0.799,0.906-1.475,1.574-2.146c0.664-0.67,1.502-1.343,2.166-1.847
			c0.663-0.504,1.151-0.844,1.711-0.967c0.555-0.125,1.188-0.043,1.815,0c0.631,0.043,1.256,0.043,1.082,0.502
			c-0.174,0.465-1.151,1.39-1.813,2.312c-0.662,0.928-1.017,1.853-0.838,2.313c0.176,0.463,0.868,0.463,2.094,0.377
			c1.225-0.086,2.971-0.252,4.539-0.252c1.573,0,2.971,0.166,4.19,0.338c1.226,0.166,2.271,0.334,3.146,0.752
			c0.875,0.42,1.567,1.097,2.27,1.978c0.699,0.883,1.398,1.976,1.816,2.815c0.422,0.836,0.559,1.429,0.873,1.974
			c0.317,0.547,0.807,1.053,0.281,1.556c-0.521,0.502-2.06,1.01-3.25,1.682c-1.185,0.674-2.025,1.508-2.794,2.098
			c-0.771,0.592-1.469,0.926-2.096,1.348c-0.631,0.42-1.186,0.922-1.643,1.467c-0.451,0.552-0.806,1.14-1.117,1.599
			c-0.314,0.465-0.594,0.797-0.766,1.346c-0.175,0.548-0.248,1.306,0.309,1.722c0.564,0.424,1.75,0.506,2.133,0.924
			c0.385,0.42-0.033,1.18-0.695,1.684c-0.668,0.504-1.573,0.754-2.518,1.049c-0.939,0.293-1.92,0.629-3.004,1.135
			c-1.086,0.506-2.271,1.177-3.004,1.681c-0.734,0.504-1.012,0.84-1.57,1.428c-0.559,0.591-1.402,1.431-1.99,2.103
			c-0.594,0.672-0.946,1.18-1.432,1.809c-0.49,0.629-1.117,1.385-1.922,2.1s-1.781,1.385-2.76,2.146
			c-0.979,0.752-1.955,1.598-2.762,2.646c-0.8,1.053-1.435,2.311-1.396,2.229c0.037-0.086,0.729-1.512,1.604-2.859
			c0.873-1.344,1.92-2.602,3.354-3.74c1.43-1.133,3.248-2.143,4.889-2.854c1.644-0.717,3.111-1.139,4.265-1.389
			c1.153-0.252,1.989-0.338,3.106-0.631c1.113-0.295,2.515-0.797,3.631-1.429c1.119-0.629,1.957-1.387,2.517-1.805
			c0.559-0.422,0.84-0.507,1.014,0.043c0.174,0.545,0.244,1.721,0.244,2.771c0,1.051-0.07,1.975,0.35,2.731
			c0.418,0.754,1.324,1.342,2.025,1.808c0.701,0.459,1.188,0.799,1.43,1.512c0.246,0.713,0.246,1.807,0.246,2.813s0,1.933,0,2.563
			c0,0.63,0,0.966,0,1.386c0,0.422,0,0.926,0,1.471c0,0.546,0,1.134-0.035,1.64c-0.037,0.504-0.104,0.924-0.172,1.766
			c-0.074,0.838-0.143,2.1-0.213,3.066c-0.066,0.967-0.139,1.639-0.17,2.309c-0.037,0.674-0.037,1.348-0.563,1.387
			c-0.522,0.043-1.569-0.545-2.34-0.881c-0.77-0.334-1.258-0.42-2.131-0.672c-0.871-0.254-2.133-0.672-3.317-1.053
			c-1.189-0.379-2.304-0.713-3.144-1.01c-0.842-0.291-1.396-0.541-1.955-0.752c-0.561-0.209-1.117-0.377-1.051,0.127
			c0.07,0.502,0.77,1.678,0.457,2.059c-0.314,0.375-1.644-0.043-3.213-0.252c-1.574-0.213-3.392-0.213-4.648-0.129
			c-1.254,0.086-1.952,0.252-3.178,1.137C301.523,329.582,299.783,331.178,298.521,331.471z"/>
		<path fill="none" stroke="#010101" stroke-width="2.1809" stroke-linecap="round" stroke-linejoin="round" d="M297.197,328.238
			c2.305-1.766,2.932-3.277,3.596-4.285c0.662-1.01,1.365-1.514,1.854-1.979c0.484-0.459,0.765-0.882,0.976-1.384
			c0.209-0.502,0.353-1.09,0.594-1.725c0.248-0.634,0.597-1.3,0.945-2.099c0.353-0.799,0.696-1.725,0.522-1.641
			c-0.172,0.082-0.873,1.178-1.293,2.145c-0.418,0.961-0.561,1.808-0.279,2.396c0.279,0.588,0.978,0.924,1.642,0.674
			c0.662-0.252,1.295-1.096,1.885-1.893c0.595-0.8,1.154-1.556,1.853-1.933c0.701-0.379,1.537-0.379,2.451-0.422
			c0.901-0.039,1.881-0.125,2.795-0.168c0.901-0.043,1.739-0.043,2.647,0.043c0.906,0.086,1.888,0.25,2.726,0.168
			s1.535-0.42,2.096-0.674s0.979-0.42,0.631-0.125c-0.348,0.293-1.469,1.053-1.713,1.682c-0.248,0.629,0.385,1.133,0.873,1.679
			c0.492,0.547,0.84,1.133,1.152,1.85c0.313,0.711,0.596,1.556,0.381,1.134c-0.205-0.423-0.902-2.101-1.498-3.191
			c-0.596-1.088-1.084-1.596-1.99-2.059c-0.908-0.461-2.236-0.886-3.74-1.345c-1.5-0.465-3.18-0.967-3.631-1.43
			c-0.451-0.462,0.318-0.882,0.908-1.304c0.59-0.42,1.014-0.836,1.471-1.258c0.447-0.424,0.938-0.84,0.658-0.588
			c-0.277,0.25-1.324,1.174-2.201,2.014c-0.871,0.843-1.563,1.599-1.778,2.355c-0.207,0.754,0.069,1.514,0.596,2.016
			c0.521,0.508,1.291,0.756,2.045,1.512c0.752,0.757,1.481,2.019,2.529,2.521"/>
		<path fill="none" stroke="#010101" stroke-width="2.1809" stroke-linecap="round" stroke-linejoin="round" d="M299.707,286.395
			c-0.205,1.765-0.205,2.771-0.24,3.695c-0.037,0.926-0.105,1.766-0.145,2.563c-0.031,0.798-0.031,1.556,0.23,2.375
			c0.26,0.82,0.788,1.701,1.413,2.207"/>
		<path fill="none" stroke="#010101" stroke-width="2.1809" stroke-linecap="round" stroke-linejoin="round" d="M299.082,305.551
			c0-2.773,0.313-3.906,0.506-4.729c0.195-0.818,0.264-1.32,0.611-1.951c0.354-0.631,0.979-1.389,1.641-2.229
			c0.662-0.838,1.365-1.765,2.164-2.308c0.807-0.549,1.715-0.715,2.447-1.01c0.731-0.296,1.293-0.716,1.955-0.97
			c0.662-0.25,1.436-0.336,2.233-0.42c0.808-0.082,1.644-0.168,2.517-0.293c0.877-0.125,1.783-0.297,1.399-0.252
			c-0.391,0.041-2.063,0.291-3.387,0.42c-1.328,0.125-2.307,0.125-2.625-0.379c-0.313-0.502,0.039-1.512,0.281-2.563
			c0.242-1.048,0.385-2.142,0.487-3.104c0.107-0.968,0.175-1.806,0.81-2.144c0.623-0.336,1.815-0.17,2.719-0.127
			c0.91,0.041,1.539-0.043,1.992-0.421c0.455-0.381,0.732-1.051,1.15-1.764c0.422-0.717,0.979-1.473,0.838-1.051
			c-0.14,0.418-0.976,2.016-0.662,2.857s1.781,0.924,2.83,1.219s1.674,0.797,1.776,0.586c0.105-0.211-0.309-1.135,0-1.68
			c0.318-0.549,1.365-0.717,2.17-0.924c0.806-0.211,1.361-0.461,2.222-0.775c0.854-0.314,2.006-0.695,3.682-0.443"/>
		<path fill="none" stroke="#010101" stroke-width="2.1809" stroke-linecap="round" stroke-linejoin="round" d="M299.537,306.182
			c-0.455,0.293-0.035-0.295,0.488-0.883c0.526-0.588,1.151-1.176,1.776-1.682c0.634-0.504,1.261-0.926,1.818-1.428
			s1.051-1.092,0.944-1.176c-0.104-0.087-0.803,0.338-1.225,0.84c-0.418,0.504-0.559,1.092-1.291,1.977
			C301.316,304.711,299.99,305.887,299.537,306.182z"/>
		<path fill="none" stroke="#010101" stroke-width="2.1809" stroke-linecap="round" stroke-linejoin="round" d="M298.594,306.977
			c-0.143,0.338,0.066,0.086,0.313-0.375c0.245-0.463,0.522-1.133,0.415-1.008C299.219,305.719,298.732,306.643,298.594,306.977z"/>
		<path fill="none" stroke="#010101" stroke-width="2.1809" stroke-linecap="round" stroke-linejoin="round" d="M298.275,307.861
			c0.176,0.379,0.176-0.463,0.354-1.344c0.176-0.882,0.523-1.808,0.176-2.479c-0.354-0.675-1.4-1.095-2.131-1.64
			c-0.736-0.547-1.154-1.221-1.434-1.559c-0.277-0.332-0.418-0.332-0.314-0.039c0.104,0.295,0.453,0.885,0.906,1.516
			c0.457,0.627,1.012,1.3,1.469,2.437C297.758,305.887,298.105,307.484,298.275,307.861z"/>
		<path fill="none" stroke="#010101" stroke-width="2.1809" stroke-linecap="round" stroke-linejoin="round" d="M295.172,322.859
			c0.279,0.252-0.842-0.84-2.096-1.601c-1.26-0.754-2.658-1.17-3.215-1.887c-0.557-0.715-0.279-1.724-0.033-2.353
			c0.242-0.629,0.453-0.883,0.662-1.475c0.207-0.588,0.418-1.508,0.207-0.881c-0.207,0.631-0.836,2.816-1.184,3.824
			c-0.354,1.012-0.425,0.842-0.771,0.756c-0.354-0.084-0.979-0.084-1.363-0.42s-0.522-1.008-0.594-1.682
			c-0.068-0.672-0.068-1.345-0.068-1.849c0-0.502,0-0.838,0.175-0.043c0.174,0.804,0.522,2.731-0.281,3.572
			c-0.805,0.842-2.76,0.59-4.051,0.461c-1.293-0.125-1.918-0.125-2.479-0.63c-0.56-0.504-1.047-1.514-0.84-1.553
			c0.213-0.043,1.116,0.881,1.188,1.426c0.071,0.55-0.695,0.716-1.748,1.349c-1.041,0.627-2.375,1.722-3.314,2.478
			c-0.943,0.756-1.502,1.176-1.922,1.512c-0.416,0.336-0.697,0.588,0.102-0.043c0.807-0.627,2.691-2.144,4.648-3.107
			c1.957-0.967,3.979-1.385,5.273-1.598c1.29-0.207,1.852-0.207,1.887-0.039c0.037,0.166-0.453,0.502-0.838,0.838
			c-0.384,0.338-0.666,0.674-1.152,1.176c-0.488,0.506-1.189,1.178-1.643,1.85c-0.455,0.675-0.664,1.347-0.175,0.925
			c0.488-0.416,1.679-1.935,2.761-2.857c1.084-0.92,2.057-1.26,3.246-1.428c1.188-0.166,2.584-0.166,4.122,0.631
			C293.213,321.01,294.891,322.607,295.172,322.859z"/>
		<path fill="none" stroke="#010101" stroke-width="2.1809" stroke-linecap="round" stroke-linejoin="round" d="M298.451,308.574
			c-1.885,3.781-1.885,6.178-1.885,8.342s0,4.094,0.067,6.195c0.07,2.104,0.209,4.369,0.354,6.008
			c0.137,1.639,0.277,2.648,0.313,3.697c0.035,1.051-0.035,2.145-0.244,3.274c-0.213,1.138-0.557,2.313-0.998,3.908
			c-0.434,1.599-0.963,3.612-1.377,6.133"/>
	</g>
	<path fill="#CDDC29" stroke="#010101" stroke-width="3.1733" stroke-linecap="round" stroke-linejoin="round" d="M206.408,108.647
		c3.137-3.325,2.986-8.566-0.336-11.705c-3.326-3.139-8.564-2.991-11.707,0.333c-3.137,3.327-2.987,8.565,0.336,11.705
		C198.023,112.12,203.268,111.972,206.408,108.647z"/>
	<path fill="#CDDC29" stroke="#010101" stroke-width="3.1733" stroke-linecap="round" stroke-linejoin="round" d="M185.672,66.846
		c3.142-3.325,2.992-8.565-0.336-11.706c-3.321-3.141-8.566-2.99-11.7,0.333c-3.144,3.324-2.995,8.564,0.334,11.705
		C177.292,70.319,182.536,70.168,185.672,66.846z"/>
	<path fill="#3B1313" stroke="#010101" stroke-width="3.1733" stroke-miterlimit="10" d="M66.062,111.915
		c2.645-27.804,12.557-38.412,16.666-42.477c0,0,56.505-22.615,68.405-16.56c-1.843-0.938,10.631,13.806,12.226,16.558
		c0,0.001,30.735,77.218,36.201,90.951c0,0-19.073,13.448-16.147,7.894c2.925-5.553,0-24.328,0-24.328l-16.674,11.106l-4.761-55.579
		l-15.867,23.583l-11.106-37.551c0,0-15.642,9.945-20.098,13.75c-4.668,3.993-16.394,17.454-16.394,17.454s6.081-47.864,4.494-39.93
		c-1.587,7.932-10.839,14.544-17.98,20.097C77.887,102.437,66.062,111.913,66.062,111.915z"/>
	<path fill="#9C8484" stroke="#010101" stroke-width="3.1733" stroke-miterlimit="10" d="M126.936,215.598l1.194-14.791h-12.695
		v-14.014h-13.223l5.819-58.442l-25.303-3.702l2.297-27.766c7.141-5.553,16.393-12.165,17.98-20.097
		c1.587-7.934-4.494,39.93-4.494,39.93s11.726-13.461,16.394-17.454c4.456-3.806,20.098-13.75,20.098-13.75l11.106,37.551
		l15.867-23.583l4.761,55.579l16.674-11.106c0,0,2.925,18.775,0,24.328c-2.926,5.554,16.147-7.894,16.147-7.894
		c0.535,1.34,0.828,2.076,0.828,2.076l-29.366,45.721L126.936,215.598z"/>
	<path fill="none" stroke="#010101" stroke-width="3.1733" stroke-miterlimit="10" d="M126.936,215.598l1.194-14.791h-12.695
		v-14.014h-13.223l5.819-58.442l-25.303-3.702l2.297-27.766c-7.139,5.554-18.963,15.03-18.963,15.03
		c-0.75,7.86-0.919,17.093-0.208,27.942c3.569,54.738,30.601,80.868,30.601,80.868L126.936,215.598z"/>
	<path fill="#FFFFFF" stroke="#010101" stroke-width="3.1733" stroke-miterlimit="10" d="M142.407,167.885
		c0,0,5.023-5.604,5.819-9.083c0.791-3.479,0-13.054,0-13.054"/>
	<path fill="#FFFFFF" stroke="#010101" stroke-width="3.1733" stroke-linejoin="round" stroke-miterlimit="10" d="M142.407,167.885
		c0,0,7.67-4.894,11.638-10.197c3.965-5.303,5.022-11.619,5.022-11.619s0,0-2.38-8.189c-2.381-8.189-18.776-11.368-18.776-11.368
		l0.008-0.006c1.244,0.533,2.479,1.222,3.635,2.111c6.551,5.024,6.672,17.131,6.672,17.131L142.407,167.885z"/>
	<path fill="#3B1313" stroke="#010101" stroke-width="3.1733" stroke-miterlimit="10" d="M148.227,145.748
		c0,0-6.081,2.964-11.109,4.55c-5.02,1.587-12.426,0-12.426,0s0,4.318,1.055,8.505c1.058,4.188,2.383,10.823,2.383,10.823
		l14.277-1.741c0,0,5.023-5.604,5.819-9.083C149.017,155.323,148.227,145.748,148.227,145.748z"/>
	<path fill="#010101" stroke="#010101" stroke-width="3.1733" stroke-miterlimit="10" d="M126.011,124.914
		c0,0-1.061,8.462-1.32,11.371c-0.267,2.908,0,14.014,0,14.014s7.406,1.587,12.426,0c5.028-1.585,11.109-4.55,11.109-4.55
		s-0.121-12.107-6.672-17.131C135.004,123.591,126.011,124.914,126.011,124.914z"/>
	<path opacity="0.3" fill="#20BADD" enable-background="new    " d="M199.559,160.388c-5.466-13.733-36.201-90.95-36.201-90.951
		c-1.595-2.752-14.069-17.497-12.226-16.558c-11.899-6.056-68.405,16.56-68.405,16.56c-4.109,4.064-14.021,14.672-16.666,42.477
		c-0.75,7.858-0.919,17.091-0.208,27.94c3.569,54.738,30.601,80.868,30.601,80.868l30.481-5.125l44.085-7.413l29.366-45.721
		C200.387,162.464,200.094,161.728,199.559,160.388z"/>
	<path fill="#FFFFFF" stroke="#010101" stroke-width="3.1733" stroke-miterlimit="10" d="M88.101,155.389
		c0.403,1.425-0.427,2.908-1.854,3.313l0,0c-1.424,0.4-2.91-0.43-3.313-1.856c0,0-3.281-7.518-3.994-10.047
		c-0.681-2.413-1.587-9.724-1.587-9.724c-0.4-1.428,0.428-2.911,1.854-3.313l0,0c1.427-0.403,2.907,0.428,3.311,1.854
		c0,0,0.978,7.555,1.68,10.048C84.889,148.114,88.101,155.389,88.101,155.389z"/>
	<circle fill="#FFFFFF" stroke="#010101" stroke-width="3.1733" stroke-miterlimit="10" cx="89.653" cy="167.885" r="2.776"/>
	<path fill="#FFFFFF" stroke="#010101" stroke-width="2.8239" stroke-linecap="round" stroke-linejoin="round" d="M145.491,212.476
		l104.978-17.651c0,0-2.551,12.461-1.758,15.236c0.795,2.777,4.762,8.727,4.762,8.727s6.74,17.056,8.328,23.005
		c1.586,5.95,0,40.063,0,40.063l2.379,31.734l-5.551,1.982v11.109h-12.816l-2.258,9.121h-4.365l0.797,13.881l1.188,27.77
		l-59.499,17.846l-43.631-9.119v-9.125l-12.693-0.793c0,0,3.174-66.24,2.778-74.176c-0.397-7.932,0-52.124,0-52.124v-18.879
		L145.491,212.476z"/>
	<path fill="#CDDC29" stroke="#010101" stroke-width="3.1733" stroke-linecap="round" stroke-linejoin="round" d="M226.154,300.939
		c4.443-1.08,7.172-5.558,6.092-10.004c-1.076-4.441-5.555-7.17-10-6.09c-4.441,1.077-7.172,5.557-6.088,10.002
		C217.234,299.291,221.711,302.02,226.154,300.939z"/>
	<path fill="#CDDC29" stroke="#010101" stroke-width="3.1733" stroke-linecap="round" stroke-linejoin="round" d="M221.797,323.625
		c4.443-1.08,7.17-5.555,6.092-10c-1.08-4.443-5.557-7.172-10-6.092c-4.445,1.078-7.174,5.557-6.092,10.002
		C212.873,321.975,217.354,324.703,221.797,323.625z"/>
	<path fill="#CDDC29" stroke="#010101" stroke-width="3.1733" stroke-linecap="round" stroke-linejoin="round" d="M227.162,277.273
		c4.443-1.078,7.174-5.558,6.09-10.002c-1.078-4.443-5.557-7.172-10-6.092c-4.441,1.077-7.17,5.557-6.09,10.002
		C218.238,275.627,222.721,278.354,227.162,277.273z"/>
	<path fill="none" stroke="#010101" stroke-width="2.8239" stroke-linecap="round" stroke-linejoin="round" d="M145.491,212.476
		l104.978-17.651c0,0-2.551,12.461-1.758,15.236c0.795,2.777,4.762,8.727,4.762,8.727s6.74,17.056,8.328,23.005
		c1.586,5.95,0,40.063,0,40.063l2.379,31.734l-5.551,1.982v11.109h-12.816l-2.258,9.121h-4.365l0.797,13.881l1.188,27.77
		l-59.499,17.846l-43.631-9.119v-9.125l-12.693-0.793c0,0,3.174-66.24,2.778-74.176c-0.397-7.932,0-52.124,0-52.124v-18.879
		L145.491,212.476z"/>
	<path fill="#273B82" stroke="#010101" stroke-width="2.8239" stroke-linecap="round" stroke-linejoin="round" d="M355.73,207.295
		c-0.781-6.168-2.265-11.574-4.152-12.47c-3.705-1.751-51.193,0-51.193,0s-40.303,2.279-45.908,4.924c-5.606,2.645,0,10.71,0,10.71
		h3.355L355.73,207.295z"/>
	<polyline fill="none" stroke="#010101" stroke-width="2.8239" stroke-linecap="round" stroke-linejoin="round" points="
		254.477,210.459 265.688,197.657 272.32,209.991 281.203,196.158 291.555,209.37 300.385,194.825 308.193,208.831 316.936,194.047 
		324.453,208.305 333.99,194.055 341.529,207.753 347.541,194.275 355.73,207.295 	"/>
	<path fill="#273B82" stroke="#010101" stroke-width="2.8239" stroke-linecap="round" stroke-linejoin="round" d="M351.506,358.697
		c0,0-11.563,3.154-17.117,3.684c-5.554,0.53-27.768,2.646-44.957,2.646c-17.186,0-48.709,1.852-48.709,1.848l0.451,10.58
		c0,0,35.832,1.584,49.053,1.059c13.228-0.529,52.89-3.174,57.117-8.463C349.451,367.418,351.424,364,351.506,358.697z"/>
	<path fill="#3B1313" stroke="#010101" stroke-width="3.1733" stroke-miterlimit="10" d="M351.506,358.697
		c0,0-11.563,3.154-17.117,3.684c-5.554,0.53-27.768,2.646-44.957,2.646c-17.186,0-48.709,1.852-48.709,1.848l-0.588-13.625
		l-0.148-3.564c0,0,5.552-3.151,7.933-2.768c2.381,0.391,6.347-1.178,9.521,0c3.174,1.182,8.947,2.768,12.604,2.768
		c3.658,0,12.781,1.031,13.973-1.27c1.189-2.299,3.57-3.576,7.535-1.947c3.967,1.631,4.578,3.859,8.836,1.357
		c4.256-2.5,9.808-2.869,15.361-2.088c5.555,0.777,8.33-0.316,12.693-0.365c4.36-0.047,8.043-0.838,10.965-2.227
		c2.916-1.394,8.387,0,8.387,0C350.582,349.697,351.576,354.725,351.506,358.697z"/>
	<polyline fill="none" stroke="#010101" stroke-width="2.8239" stroke-linecap="round" stroke-linejoin="round" points="
		345.1,368.66 340.35,361.393 330.223,375.072 323.037,363.387 315.15,376.66 308.199,364.418 299.484,378.049 290.949,365.02 
		280.443,378.621 269.916,365.479 259.818,377.85 255.066,366.123 243.625,377.557 	"/>
	<path fill="none" stroke="#010101" stroke-width="2.8239" stroke-linecap="round" stroke-linejoin="round" d="M241.174,377.455
		c0,0,35.832,1.584,49.053,1.059c13.228-0.529,52.89-3.174,57.117-8.463c4.234-5.291,7.935-13.752-3.172-34.377
		c-11.104-20.629-12.693-38.08-7.402-57.814c5.289-19.737,17.451-45.85,19.037-54.065c1.588-8.217-0.528-27.217-4.229-28.968
		c-3.705-1.751-51.193,0-51.193,0s-40.303,2.279-45.908,4.924c-5.606,2.645,0,10.71,0,10.71h3.355l0.135,8.33h-4.494
		c0,0,6.74,17.056,8.328,23.005c1.586,5.95,0,40.063,0,40.063l2.379,31.734l-5.551,1.982v11.109h-12.816l-2.258,9.12h-4.365
		l0.797,13.882L241.174,377.455"/>
	<path fill="#FFFFFF" stroke="#010101" stroke-width="3.1733" stroke-miterlimit="10" d="M342.201,217.663
		c0.199-1.467,1.553-2.496,3.021-2.297l0,0c1.463,0.202,2.494,1.553,2.297,3.022c0,0,0.007,8.202-0.348,10.808
		c-0.34,2.482-2.426,9.55-2.426,9.55c-0.199,1.469-1.555,2.495-3.019,2.298l0,0c-1.477-0.2-2.502-1.552-2.301-3.025
		c0,0,2.119-7.314,2.472-9.882C342.238,225.613,342.201,217.663,342.201,217.663z"/>
	<path fill="#FFFFFF" stroke="#010101" stroke-width="3.0186" stroke-miterlimit="10" d="M269.049,342.125
		c0.031,1.338-1.145,2.455-2.625,2.496l0,0c-1.482,0.031-2.711-1.025-2.742-2.365c0,0-1.297-7.322-1.356-9.701
		c-0.058-2.264,0.897-8.885,0.897-8.885c-0.035-1.34,1.137-2.457,2.619-2.492l0,0c1.482-0.039,2.713,1.018,2.746,2.361
		c0,0-0.945,6.848-0.887,9.188C267.76,335.029,269.049,342.125,269.049,342.125z"/>
	<path fill="#FFFFFF" stroke="#010101" stroke-width="1.8987" stroke-miterlimit="10" d="M272.32,258.518
		c0.02,0.775-0.781,1.428-1.793,1.455l0,0c-1.01,0.025-1.846-0.586-1.863-1.363c0,0-0.865-4.25-0.9-5.629
		c-0.035-1.315,0.635-5.162,0.635-5.162c-0.022-0.775,0.781-1.427,1.791-1.453l0,0c1.011-0.027,1.847,0.585,1.863,1.365
		c0,0-0.662,3.972-0.625,5.335C271.463,254.402,272.32,258.518,272.32,258.518z"/>
	<path fill="#FFFFFF" stroke="#010101" stroke-width="1.8987" stroke-miterlimit="10" d="M279.154,258.518
		c0.02,0.775-0.785,1.428-1.795,1.455l0,0c-1.01,0.025-1.846-0.586-1.865-1.363c0,0-0.867-4.25-0.9-5.629
		c-0.031-1.315,0.633-5.162,0.633-5.162c-0.021-0.775,0.783-1.427,1.793-1.453l0,0c1.013-0.027,1.849,0.585,1.865,1.365
		c0,0-0.66,3.972-0.625,5.335C278.297,254.402,279.154,258.518,279.154,258.518z"/>
	<path fill="#CDDC29" stroke="#010101" stroke-width="3.1733" stroke-linecap="round" stroke-linejoin="round" d="M126.104,360.016
		c0,0,14.32,1.969,17.89-1.602c3.57-3.571,7.537-44.822,7.935-59.5c0.396-14.672,0-43.234-5.554-47.203
		c-5.554-3.967-18.245-1.747-18.245-1.747s-0.397,44.192,0,52.124C128.397,307.484,127.016,339.863,126.104,360.016z"/>
	<path fill="none" stroke="#010101" stroke-width="2.8239" stroke-linecap="round" stroke-linejoin="round" d="M136.025,249.347
		c0,0,3,48.36,3.045,58.295c0.075,15.069-6.177,52.891-6.177,52.891"/>
	
		<line fill="none" stroke="#010101" stroke-width="2.8239" stroke-linecap="round" stroke-linejoin="round" x1="128.13" y1="258.057" x2="148.357" y2="258.057"/>
	
		<line fill="none" stroke="#010101" stroke-width="2.8239" stroke-linecap="round" stroke-linejoin="round" x1="128.007" y1="267.496" x2="151.031" y2="267.496"/>
	<path fill="none" stroke="#010101" stroke-width="2.8239" stroke-linecap="round" stroke-linejoin="round" d="M127.959,279.877"/>
	
		<line fill="none" stroke="#010101" stroke-width="2.8239" stroke-linecap="round" stroke-linejoin="round" x1="152.039" y1="279.877" x2="127.959" y2="279.877"/>
	
		<line fill="none" stroke="#010101" stroke-width="2.8239" stroke-linecap="round" stroke-linejoin="round" x1="127.975" y1="293.426" x2="152.025" y2="293.426"/>
	
		<line fill="none" stroke="#010101" stroke-width="2.8239" stroke-linecap="round" stroke-linejoin="round" x1="128.157" y1="304.953" x2="152.039" y2="304.953"/>
	
		<line fill="none" stroke="#010101" stroke-width="2.8239" stroke-linecap="round" stroke-linejoin="round" x1="127.927" y1="315.002" x2="150.932" y2="315.002"/>
	
		<line fill="none" stroke="#010101" stroke-width="2.8239" stroke-linecap="round" stroke-linejoin="round" x1="127.355" y1="330.848" x2="149.827" y2="326.754"/>
	
		<line fill="none" stroke="#010101" stroke-width="2.8239" stroke-linecap="round" stroke-linejoin="round" x1="126.88" y1="342.313" x2="148.357" y2="339.094"/>
	<path fill="none" stroke="#010101" stroke-width="2.8239" stroke-linecap="round" stroke-linejoin="round" d="M146.701,349.602
		c0,0,17.812,0.705,34.924,0c17.109-0.705,58.201-2.684,58.201-2.684"/>
	<g>
		
			<path fill="#FFFFFF" stroke="#000000" stroke-width="2.7358" stroke-linecap="round" stroke-linejoin="round" stroke-miterlimit="10" d="
			M134.12,480.625c0,0,30.029,1.932,45.456,1.008c15.426-0.918,33.508-4.957,33.508-4.957h-0.004
			c-1.596,9.529-9.176,11.941-9.176,11.941s1.604,0.551-25.232,0.959c-23.749,0.369-40.775,2.897-44.576-8.933"/>
		<path fill="#273B82" stroke="#010101" stroke-width="2.8239" stroke-linecap="round" stroke-linejoin="round" d="M208.195,452.988
			c3.027,7.647,5.563,5.783,5.26,19.471c-0.037,1.576-0.17,2.977-0.375,4.217l0.193,0.508c0,0-18.09,4.039-33.511,4.964
			c-15.429,0.92-45.456-1.017-45.456-1.017l-0.21-0.485c-0.492-1.55-0.767-3.345-0.794-5.416
			c-0.136-9.263,15.958-7.771,18.819-10.384c2.869-2.606,0.687-11.012,0.687-11.012"/>
		<path fill="#FFFFFF" stroke="#000000" stroke-width="2.7358" stroke-miterlimit="10" d="M143.471,386.936l-1.549,36.97
			l0.16,10.487l1.913,5.896l3.249,3.602l0.149,10.029l66.561-1.02l-0.138-8.662l-0.098-6.834c0,0,5.422-2.822,3.836-16.935
			c-1.582-14.11-0.229-15.504-0.229-15.504"/>
		<path fill="#FFFFFF" stroke="#000000" stroke-width="2.7358" stroke-miterlimit="10" d="M178.844,403.775
			c0,0-0.925,10.918-0.081,20.477c0.863,9.939,0.692,8.549,3.521,29.133"/>
	</g>
	<g>
		<g>
			
				<path fill="#FFFFFF" stroke="#000000" stroke-width="2.7358" stroke-linecap="round" stroke-linejoin="round" stroke-miterlimit="10" d="
				M254.533,491.621c0,0,16.072-25.438,22.645-39.422c6.578-13.98,11.687-31.797,11.687-31.797l-0.003,0.002
				c7.601,5.963,6.089,13.78,6.089,13.78s1.25-1.147-11.236,22.619c-11.036,21.006-16.971,37.179-29.174,34.849"/>
			<path fill="#273B82" stroke="#010101" stroke-width="2.8239" stroke-linecap="round" stroke-linejoin="round" d="
				M265.725,413.357c8.162,1.004,7.742-2.117,19.613,4.696c1.369,0.783,2.531,1.576,3.523,2.351l0.539,0.08
				c0,0-5.115,17.819-11.693,31.801c-6.568,13.979-22.641,39.416-22.641,39.416l-0.527-0.049c-1.594-0.306-3.303-0.922-5.139-1.894
				c-8.199-4.311,0.813-17.729-0.103-21.494c-0.922-3.766-9.342-5.873-9.342-5.873"/>
			<path fill="#FFFFFF" stroke="#000000" stroke-width="2.7358" stroke-miterlimit="10" d="M141.921,386.016l26.398,41.047
				l40.143,30.562l9.287,4.887l6.092,1.142l4.718-1.134l8.875,4.668l30.971-58.926l-7.67-4.028l-6.053-3.183
				c0,0,0.123-6.112-13.029-11.479c-4.43-1.807-4.131-10.24-9.051-13.373"/>
			<path fill="#FFFFFF" stroke="#000000" stroke-width="2.7358" stroke-miterlimit="10" d="M175.608,382.721
				c0,0,8.75,12.434,19.097,20.367c12.322,9.445,26.916,20.271,31.701,22.361c9.143,3.996,7.836,3.479,27.266,10.846"/>
		</g>
		<g>
			<path fill="#CDDC29" stroke="#010101" stroke-width="1.7123" stroke-linecap="round" stroke-linejoin="round" d="
				M271.232,438.658c2.465-0.156,4.33-2.281,4.176-4.746c-0.162-2.465-2.281-4.33-4.75-4.174c-2.459,0.162-4.322,2.282-4.166,4.752
				C266.65,436.947,268.773,438.814,271.232,438.658z"/>
			<path fill="#CDDC29" stroke="#010101" stroke-width="1.7123" stroke-linecap="round" stroke-linejoin="round" d="
				M266.795,450.301c2.467-0.156,4.328-2.274,4.176-4.74c-0.162-2.463-2.283-4.329-4.75-4.168c-2.459,0.156-4.324,2.283-4.17,4.74
				C262.205,448.596,264.332,450.467,266.795,450.301z"/>
			<path fill="#CDDC29" stroke="#010101" stroke-width="1.7123" stroke-linecap="round" stroke-linejoin="round" d="
				M273.982,426.176c2.463-0.158,4.33-2.283,4.17-4.744c-0.156-2.465-2.279-4.334-4.738-4.178c-2.467,0.16-4.336,2.285-4.18,4.75
				C269.393,424.465,271.521,426.33,273.982,426.176z"/>
		</g>
	</g>
	<g>
		<path fill="#FFFFFF" stroke="#000000" stroke-width="2.073" stroke-miterlimit="10" d="M246.527,249.454l-1.109,68.677
			c0,0-5.053,20.479-15.77,52.061c-6.232,18.396-11.463,33.255-12.398,34.242c-2.547,2.688-17.007,13.093-19.31,12.99
			c-2.306-0.102-18.347-8.889-20.265-11.457c-1.918-2.574-7.973-15.896-8.939-19.668c-0.396-1.582,3.967-17.221,9.185-34.865
			c7.225-24.467,11.237-35.715,11.237-35.715l-1.301-63.762"/>
		<path fill="#273B82" stroke="#010101" stroke-width="2.1398" stroke-linecap="round" stroke-linejoin="round" d="M229.648,370.191
			c-6.232,18.395-11.463,33.254-12.398,34.241c-2.547,2.688-17.007,13.093-19.31,12.99c-2.306-0.102-18.347-8.889-20.265-11.457
			c-1.918-2.574-7.973-15.896-8.939-19.668c-0.396-1.582,3.967-17.221,9.185-34.864l7.599,8.864l-8.934,25.877l5.91,13.006
			l15.773,7.373l13.721-6.233l9.119-26.35L229.648,370.191z"/>
	</g>
	<path opacity="0.3" fill="#20BADD" enable-background="new    " d="M241.211,377.477c0,0,35.832,1.584,49.051,1.06
		c13.227-0.529,52.89-3.175,57.117-8.466c4.234-5.288,7.937-13.75-3.17-34.375c-11.107-20.629-12.693-38.079-7.404-57.813
		c5.291-19.737,17.451-45.85,19.039-54.066c1.586-8.217-0.528-27.217-4.229-28.967c-3.705-1.751-51.193,0-51.193,0
		s-40.303,2.279-45.907,4.924c-5.607,2.645,0,10.709,0,10.709h3.354l0.135,8.33h-4.494c0,0,6.74,17.056,8.328,23.006
		c1.586,5.95,0,40.063,0,40.063l2.379,31.734l-5.551,1.982v11.108H245.85l-2.257,9.121h-4.366l0.797,13.881L241.211,377.477"/>
	<g>
		<path fill="#273B82" stroke="#010101" stroke-width="2.8239" stroke-linecap="round" stroke-linejoin="round" d="M188.163,278.285
			c0,0,0.734,7.131,0.659,9.92c-0.072,2.791,0,12.295,0,12.295s-30.149-24.957-21.424-51.153
			c8.725-26.196,14.676-29.021,46.01-30.559c31.336-1.538,40.064,0,40.064,0l5.155-0.684l-0.797-7.646h19.041v30.146l-14.638,4.36
			l-4.026-13.768c0,0-62.887-8.145-72.986,9.803C170.97,266.33,188.163,278.285,188.163,278.285"/>
		
			<line fill="none" stroke="#010101" stroke-width="2.8239" stroke-linecap="round" stroke-linejoin="round" x1="254.477" y1="218.655" x2="254.477" y2="230.775"/>
		
			<line fill="none" stroke="#010101" stroke-width="2.8239" stroke-linecap="round" stroke-linejoin="round" x1="247.918" y1="218.655" x2="247.918" y2="230.182"/>
		
			<line fill="none" stroke="#010101" stroke-width="2.8239" stroke-linecap="round" stroke-linejoin="round" x1="241.564" y1="229.755" x2="241.564" y2="218.131"/>
		
			<line fill="none" stroke="#010101" stroke-width="2.8239" stroke-linecap="round" stroke-linejoin="round" x1="235.23" y1="218.117" x2="235.23" y2="229.473"/>
		
			<line fill="none" stroke="#010101" stroke-width="2.8239" stroke-linecap="round" stroke-linejoin="round" x1="228.873" y1="229.357" x2="228.873" y2="218.655"/>
		
			<line fill="none" stroke="#010101" stroke-width="2.8239" stroke-linecap="round" stroke-linejoin="round" x1="221.344" y1="219.185" x2="221.344" y2="229.357"/>
		
			<line fill="none" stroke="#010101" stroke-width="2.8239" stroke-linecap="round" stroke-linejoin="round" x1="214.861" y1="229.357" x2="214.861" y2="218.719"/>
		
			<line fill="none" stroke="#010101" stroke-width="2.8239" stroke-linecap="round" stroke-linejoin="round" x1="207.531" y1="219.697" x2="208.664" y2="230.484"/>
		
			<line fill="none" stroke="#010101" stroke-width="2.8239" stroke-linecap="round" stroke-linejoin="round" x1="200.387" y1="219.697" x2="203.664" y2="231.295"/>
		
			<line fill="none" stroke="#010101" stroke-width="2.8239" stroke-linecap="round" stroke-linejoin="round" x1="194.766" y1="220.723" x2="198.154" y2="232.629"/>
		
			<line fill="none" stroke="#010101" stroke-width="2.8239" stroke-linecap="round" stroke-linejoin="round" x1="188.822" y1="221.768" x2="193.324" y2="234.396"/>
		
			<line fill="none" stroke="#010101" stroke-width="2.8239" stroke-linecap="round" stroke-linejoin="round" x1="181.9" y1="224.837" x2="188.822" y2="237.036"/>
		
			<line fill="none" stroke="#010101" stroke-width="2.8239" stroke-linecap="round" stroke-linejoin="round" x1="175.643" y1="230.937" x2="185.223" y2="241"/>
		
			<line fill="none" stroke="#010101" stroke-width="2.8239" stroke-linecap="round" stroke-linejoin="round" x1="172.672" y1="235.968" x2="182.939" y2="245.529"/>
		
			<line fill="none" stroke="#010101" stroke-width="2.8239" stroke-linecap="round" stroke-linejoin="round" x1="181.034" y1="250.607" x2="169.738" y2="242.743"/>
		
			<line fill="none" stroke="#010101" stroke-width="2.8239" stroke-linecap="round" stroke-linejoin="round" x1="167.398" y1="249.347" x2="179.974" y2="255.131"/>
		
			<line fill="none" stroke="#010101" stroke-width="2.8239" stroke-linecap="round" stroke-linejoin="round" x1="179.64" y1="261.596" x2="165.843" y2="258.057"/>
		
			<line fill="none" stroke="#010101" stroke-width="2.8239" stroke-linecap="round" stroke-linejoin="round" x1="167.398" y1="267.496" x2="180.431" y2="266.422"/>
		
			<line fill="none" stroke="#010101" stroke-width="2.8239" stroke-linecap="round" stroke-linejoin="round" x1="169.738" y1="275.748" x2="181.625" y2="269.74"/>
		
			<line fill="none" stroke="#010101" stroke-width="2.8239" stroke-linecap="round" stroke-linejoin="round" x1="183.204" y1="272.742" x2="173.685" y2="282.975"/>
		
			<line fill="none" stroke="#010101" stroke-width="2.8239" stroke-linecap="round" stroke-linejoin="round" x1="186.011" y1="276.344" x2="177.804" y2="288.82"/>
		
			<line fill="none" stroke="#010101" stroke-width="2.8239" stroke-linecap="round" stroke-linejoin="round" x1="182.939" y1="294.818" x2="188.443" y2="282.975"/>
	</g>
</g>
</svg>
